{"products": [{"product_id": 19755, "product": "Schesir Cat Food Tuna Chicken & Shrimp 85g", "salesprice": 1.33, "salespricerrp": 1.45, "sizevalue": 0.09, "sizeunit": "kg", "isWeighted": false, "bcrs": false, "country": null, "category": "pets", "labels": "Cat Tinned and Pouch Food; Pets; Pet Food"}, {"product_id": 19784, "product": "Beef W. Spaezle & Courgettes - 125g", "salesprice": 1.44, "salespricerrp": 1.52, "sizevalue": 0.13, "sizeunit": "kg", "isWeighted": false, "bcrs": false, "country": null, "category": "pets", "labels": "Pets; Dog Dried Food; Pet Food"}, {"product_id": 19803, "product": "Princess Premium Gld Chicken & Tuna & Rice & Scal Lvr & Urni 170g", "salesprice": 1.96, "salespricerrp": 2.25, "sizevalue": 0.17, "sizeunit": "kg", "isWeighted": false, "bcrs": false, "country": null, "category": "pets", "labels": "Other Pet Food; Pets; Princess; Pet Food"}, {"product_id": 19810, "product": "Trixie Fur Care Glove", "salesprice": 5.75, "salespricerrp": 5.81, "sizevalue": 1, "sizeunit": "p", "isWeighted": false, "bcrs": false, "country": null, "category": "pets", "labels": "Pets; Trixie; Pet Accessories"}, {"product_id": 19819, "product": "Trixie Premio Chicken Cheese Stripes, 100g", "salesprice": 2.92, "salespricerrp": 2.95, "sizevalue": 1, "sizeunit": "p", "isWeighted": false, "bcrs": false, "country": null, "category": "pets", "labels": "Other Pet Food; Pets; Trixie; Pet Food"}, {"product_id": 19824, "product": "Little Bigpaw Gourmet Atlantic Salmon Mousse 85g", "salesprice": 1.35, "salespricerrp": 1.36, "sizevalue": 0.85, "sizeunit": "kg", "isWeighted": false, "bcrs": false, "country": null, "category": "pets", "labels": "Cat Tinned and Pouch Food; Pets; Pet Food"}, {"product_id": 19826, "product": "Monge Dog Fruit Salmon Pear Pate & Chunks 100g", "salesprice": 1.28, "salespricerrp": 1.35, "sizevalue": 0.1, "sizeunit": "kg", "isWeighted": false, "bcrs": false, "country": null, "category": "pets", "labels": "Pets; Dog Tinned and Pouch Food; Pet Food"}, {"product_id": 19843, "product": "Amore Mio Salviettine Cani E Gatti X 36 Pz.", "salesprice": 2.55, "salespricerrp": 3.25, "sizevalue": 1, "sizeunit": "p", "isWeighted": false, "bcrs": false, "country": null, "category": "pets", "labels": "Other Pet Food; Pets; Amore Mio; Pet Food"}, {"product_id": 19859, "product": "Monge Dog Solo Rabbit 150g", "salesprice": 1.99, "salespricerrp": 2.11, "sizevalue": 0.15, "sizeunit": "kg", "isWeighted": false, "bcrs": false, "country": null, "category": "pets", "labels": "Pets; Dog Tinned and Pouch Food; Pet Food"}, {"product_id": 19864, "product": "Schesir Dog Food Medium Main Fish 3kg", "salesprice": 12.23, "salespricerrp": 13.44, "sizevalue": 3, "sizeunit": "kg", "isWeighted": false, "bcrs": false, "country": null, "category": "pets", "labels": "Pets; Dog Dried Food; Pet Food"}, {"product_id": 19882, "product": "Vitakraft Royal Bones 60g", "salesprice": 2.13, "salespricerrp": 2.29, "sizevalue": 0.06, "sizeunit": "kg", "isWeighted": false, "bcrs": false, "country": null, "category": "pets", "labels": "Other Pet Food; Pets; Pet Food"}, {"product_id": 19890, "product": "Chewing Bone, Pressed, 10 Cm, 3 \u00d7 33 G", "salesprice": 2.11, "salespricerrp": 2.13, "sizevalue": 1, "sizeunit": "p", "isWeighted": false, "bcrs": false, "country": null, "category": "pets", "labels": "Other Pet Food; Pets; Trixie; Pet Food"}, {"product_id": 19899, "product": "Vitakraft Dog Maxis Sausages 180g", "salesprice": 2.98, "salespricerrp": 3.25, "sizevalue": 0.18, "sizeunit": "kg", "isWeighted": false, "bcrs": false, "country": null, "category": "pets", "labels": "Other Pet Food; Pets; Pet Food"}, {"product_id": 19915, "product": "Attitude Pet Air Purifier Lavender", "salesprice": 6.71, "salespricerrp": 6.99, "sizevalue": 1, "sizeunit": "p", "isWeighted": false, "bcrs": false, "country": null, "category": "pets", "labels": "Pets; Pet Hygiene"}, {"product_id": 19931, "product": "Iams 12x85g", "salesprice": 6.95, "salespricerrp": 7.5, "sizevalue": 0.09, "sizeunit": "kg", "isWeighted": false, "bcrs": false, "country": null, "category": "pets", "labels": "Cat Tinned and Pouch Food; Pets; Pet Food"}, {"product_id": 19936, "product": "Encore Dog Tin Ckn Ham Veg 156g", "salesprice": 1.64, "salespricerrp": 1.8, "sizevalue": 0.16, "sizeunit": "kg", "isWeighted": false, "bcrs": false, "country": null, "category": "pets", "labels": "Cat Tinned and Pouch Food; Pets; Pet Food"}, {"product_id": 19938, "product": "Chipsi Plus Strawberry 15l", "salesprice": 1.95, "salespricerrp": 1.99, "sizevalue": 1, "sizeunit": "p", "isWeighted": false, "bcrs": false, "country": null, "category": "pets", "labels": "Pets; Pet Hygiene"}, {"product_id": 19960, "product": "Purina One Urinary Care Adult Chicken And Wheat Dry 750g", "salesprice": 5.3, "salespricerrp": 6.03, "sizevalue": 0.75, "sizeunit": "kg", "isWeighted": false, "bcrs": false, "country": null, "category": "pets", "labels": "Cat Tinned and Pouch Food; Pets; Purina; Pet Food"}, {"product_id": 19966, "product": "Schesir Dog Food Chicken & Beef 150g", "salesprice": 1.81, "salespricerrp": 1.99, "sizevalue": 0.15, "sizeunit": "kg", "isWeighted": false, "bcrs": false, "country": null, "category": "pets", "labels": "Pets; Dog Tinned and Pouch Food; Pet Food"}, {"product_id": 19977, "product": "Duck W. Rice & Lingonberry - 125g", "salesprice": 1.44, "salespricerrp": 1.52, "sizevalue": 0.13, "sizeunit": "kg", "isWeighted": false, "bcrs": false, "country": null, "category": "pets", "labels": "Pets; Dog Dried Food; Pet Food"}], "page": 1, "currentRecords": 20, "offset": 20, "totalRecords": 100, "totalPages": 4}