{"products": [{"product_id": 19982, "product": "Dreamies Cheese 60g", "salesprice": 1.89, "salespricerrp": 1.93, "sizevalue": 0.06, "sizeunit": "kg", "isWeighted": false, "bcrs": false, "country": null, "category": "pets", "labels": "Other Pet Food; Pets; Dreamies; Pet Food"}, {"product_id": 19990, "product": "Kidney Turtle Bowl Small", "salesprice": 2.93, "salespricerrp": 2.99, "sizevalue": 0, "sizeunit": null, "isWeighted": false, "bcrs": false, "country": null, "category": "pets", "labels": "Other Pet Food; Pets; Pet Items"}, {"product_id": 19997, "product": "Princess Pouch Chicken & Tuna Rice & Shrimp Urinary 70g", "salesprice": 1.31, "salespricerrp": 1.59, "sizevalue": 0.07, "sizeunit": "kg", "isWeighted": false, "bcrs": false, "country": null, "category": "pets", "labels": "Cat Tinned and Pouch Food; Pets; Princess; Pet Food"}, {"product_id": 20018, "product": "Lily's Kitchen Dog Food Slow Cooked Lamb Hotpot 400g", "salesprice": 3.5, "salespricerrp": 3.65, "sizevalue": 0.4, "sizeunit": "kg", "isWeighted": false, "bcrs": false, "country": null, "category": "pets", "labels": "Lily; Pets; Dog Tinned and Pouch Food; Pet Food"}, {"product_id": 20019, "product": "Princess Premium Chicken Tuna & Shrimp 70g", "salesprice": 1.23, "salespricerrp": 1.49, "sizevalue": 0.07, "sizeunit": "kg", "isWeighted": false, "bcrs": false, "country": null, "category": "pets", "labels": "Cat Tinned and Pouch Food; Pets; Princess; Pet Food"}, {"product_id": 20086, "product": "Lily's Kitchen Dog Dry Food Organic Chicken Bake 1kg", "salesprice": 12.46, "salespricerrp": 12.99, "sizevalue": 1, "sizeunit": "kg", "isWeighted": false, "bcrs": false, "country": null, "category": "pets", "labels": "Lily; Pets; Dog Dried Food; Pet Food"}, {"product_id": 20127, "product": "Vitakraft Boony Bits Medium 120g", "salesprice": 2.19, "salespricerrp": 2.35, "sizevalue": 0.12, "sizeunit": "kg", "isWeighted": false, "bcrs": false, "country": null, "category": "pets", "labels": "Other Pet Food; Pets; Pet Food"}, {"product_id": 20150, "product": "Monge Lechat Dry Kitten Chicken & Rice 1.5kg", "salesprice": 5.64, "salespricerrp": 5.95, "sizevalue": 1.5, "sizeunit": "kg", "isWeighted": false, "bcrs": false, "country": null, "category": "pets", "labels": "Pets; Dog Tinned and Pouch Food; Pet Food"}, {"product_id": 20192, "product": "Leonardo Kitten 2kg", "salesprice": 20.78, "salespricerrp": 21.87, "sizevalue": 2, "sizeunit": "kg", "isWeighted": false, "bcrs": false, "country": null, "category": "pets", "labels": "Cat Tinned and Pouch Food; Pets; Pet Food"}, {"product_id": 20197, "product": "Miglior Gatto Litter 5kg", "salesprice": 3.22, "salespricerrp": 3.71, "sizevalue": 4, "sizeunit": "kg", "isWeighted": false, "bcrs": false, "country": null, "category": "pets", "labels": "Pets; Miglior Cane; Dog Tinned and Pouch Food; Pet Food"}, {"product_id": 20250, "product": "Rhinestone Cat Harness + Leash Small", "salesprice": 5.87, "salespricerrp": 5.99, "sizevalue": 0, "sizeunit": null, "isWeighted": false, "bcrs": false, "country": null, "category": "pets", "labels": "Other Pet Food; Pets; Pet Items"}, {"product_id": 20274, "product": "Whiskas Sticks Salmone 18g", "salesprice": 1.25, "salespricerrp": 1.5, "sizevalue": 0.02, "sizeunit": "kg", "isWeighted": false, "bcrs": false, "country": null, "category": "pets", "labels": "Other Pet Food; Whiskas; Pets; Pet Food"}, {"product_id": 20301, "product": "Trixie Kitty Collar, Flower & Butterfly, Reflective, 8 Mm", "salesprice": 2.59, "salespricerrp": 2.62, "sizevalue": 1, "sizeunit": "p", "isWeighted": false, "bcrs": false, "country": null, "category": "pets", "labels": "Pets; Trixie; Pet Accessories"}, {"product_id": 20303, "product": "Trixie Christmas Gingerbread Dangling Toy Plush 28cm", "salesprice": 9.58, "salespricerrp": 10.08, "sizevalue": 1, "sizeunit": "p", "isWeighted": false, "bcrs": false, "country": null, "category": "pets", "labels": "Pets; Trixie; Pet Accessories"}, {"product_id": 20368, "product": "Sheba Fresh & Fine Fish Pouches 6x50g", "salesprice": 3.95, "salespricerrp": 4.04, "sizevalue": 6, "sizeunit": "p", "isWeighted": false, "bcrs": false, "country": null, "category": "pets", "labels": "Cat Tinned and Pouch Food; Pets; Sheba; Pet Food"}, {"product_id": 20369, "product": "Schesir Cat Food Food Tuna & Hake 85g", "salesprice": 1.33, "salespricerrp": 1.45, "sizevalue": 0.09, "sizeunit": "kg", "isWeighted": false, "bcrs": false, "country": null, "category": "pets", "labels": "Cat Tinned and Pouch Food; Pets; Pet Food"}, {"product_id": 20401, "product": "Whiskas Duo Mariemonti 4x85gr.", "salesprice": 2.95, "salespricerrp": 3.45, "sizevalue": 0.34, "sizeunit": "kg", "isWeighted": false, "bcrs": false, "country": null, "category": "pets", "labels": "Cat Tinned and Pouch Food; Whiskas; Pets; Pet Food"}, {"product_id": 20442, "product": "Natural Code Cat Pou Beef 70g", "salesprice": 1.22, "salespricerrp": 1.28, "sizevalue": 1, "sizeunit": "p", "isWeighted": false, "bcrs": false, "country": null, "category": "pets", "labels": "Cat Tinned and Pouch Food; Pets; Pet Food"}, {"product_id": 20457, "product": "Pure Chicken - 400g", "salesprice": 2.65, "salespricerrp": 2.79, "sizevalue": 1, "sizeunit": "p", "isWeighted": false, "bcrs": false, "country": null, "category": "pets", "labels": "Pets; Dog Tinned and Pouch Food; Pet Food"}, {"product_id": 20470, "product": "Princess Premium Nature's Power Chicken 200g", "salesprice": 1.89, "salespricerrp": 2.29, "sizevalue": 0.2, "sizeunit": "kg", "isWeighted": false, "bcrs": false, "country": null, "category": "pets", "labels": "Cat Tinned and Pouch Food; Pets; Princess; Pet Food"}], "page": 2, "currentRecords": 20, "offset": 40, "totalRecords": 100, "totalPages": 4}