{"products": [{"product_id": 20486, "product": "Miglior Cane Unico Adult Medium Pate Turkey 400g", "salesprice": 1.58, "salespricerrp": 1.83, "sizevalue": 0.4, "sizeunit": "kg", "isWeighted": false, "bcrs": false, "country": null, "category": "pets", "labels": "Pets; Dog Dried Food; Miglior Cane; Pet Food"}, {"product_id": 20488, "product": "Purina Gourmet Perle Chef Collection 40x85g", "salesprice": 20.59, "salespricerrp": 23.41, "sizevalue": 40, "sizeunit": "p", "isWeighted": false, "bcrs": false, "country": null, "category": "pets", "labels": "Cat Tinned and Pouch Food; Pets; Purina; Pet Food"}, {"product_id": 20497, "product": "Felix As Good As It Looks Chicken 100g", "salesprice": 0.55, "salespricerrp": 0.62, "sizevalue": 0.1, "sizeunit": "kg", "isWeighted": false, "bcrs": false, "country": null, "category": "pets", "labels": "Cat Tinned and Pouch Food; Pets; Felix; Pet Food"}, {"product_id": 20559, "product": "Gourmet Perle Wet Cat Food Seaside Duo 12x85g", "salesprice": 7.81, "salespricerrp": 8.88, "sizevalue": 12, "sizeunit": "p", "isWeighted": false, "bcrs": false, "country": null, "category": "pets", "labels": "Cat Tinned and Pouch Food; Pets; Gourmet; Pet Food"}, {"product_id": 20591, "product": "Prince Ocean's Bounty With Papaya & Apple 400g", "salesprice": 2.46, "salespricerrp": 2.99, "sizevalue": 0.4, "sizeunit": "kg", "isWeighted": false, "bcrs": false, "country": null, "category": "pets", "labels": "Pets; Prince; Dog Tinned and Pouch Food; Pet Food"}, {"product_id": 20604, "product": "Encore Cat Pch Ckn Rce 70g", "salesprice": 1.23, "salespricerrp": 1.35, "sizevalue": 0.07, "sizeunit": "kg", "isWeighted": false, "bcrs": false, "country": null, "category": "pets", "labels": "Cat Tinned and Pouch Food; Pets; Pet Food"}, {"product_id": 20663, "product": "Little Bigpaw Gourmet Tender Chicken Mousse 85g", "salesprice": 1.35, "salespricerrp": 1.36, "sizevalue": 0.85, "sizeunit": "kg", "isWeighted": false, "bcrs": false, "country": null, "category": "pets", "labels": "Cat Tinned and Pouch Food; Pets; Pet Food"}, {"product_id": 20676, "product": "Princess Premium Class Chicken Lamb & Rice 170g", "salesprice": 1.89, "salespricerrp": 2.29, "sizevalue": 0.17, "sizeunit": "kg", "isWeighted": false, "bcrs": false, "country": null, "category": "pets", "labels": "Other Pet Food; Pets; Princess; Pet Food"}, {"product_id": 20688, "product": "Princess Lifestyle Pouches Chunks Salmon 100g", "salesprice": 0.82, "salespricerrp": 0.99, "sizevalue": 0.1, "sizeunit": "kg", "isWeighted": false, "bcrs": false, "country": null, "category": "pets", "labels": "Cat Dried Food; Pets; Princess; Pet Food"}, {"product_id": 20689, "product": "Monge Dog Fresh Lamb Foil 100g", "salesprice": 1.28, "salespricerrp": 1.35, "sizevalue": 0.1, "sizeunit": "kg", "isWeighted": false, "bcrs": false, "country": null, "category": "pets", "labels": "Pets; Dog Tinned and Pouch Food; Pet Food"}, {"product_id": 20737, "product": "Schesir Chicken & Pumpkin 285g", "salesprice": 2.87, "salespricerrp": 3.15, "sizevalue": 0.29, "sizeunit": "kg", "isWeighted": false, "bcrs": false, "country": null, "category": "pets", "labels": "Pets; Dog Tinned and Pouch Food; Pet Food"}, {"product_id": 20742, "product": "Natural Code Snack Adult Manzo E Curcuma 60g", "salesprice": 1.9, "salespricerrp": 2, "sizevalue": 1, "sizeunit": "p", "isWeighted": false, "bcrs": false, "country": null, "category": "pets", "labels": "Other Pet Food; Pets; Pet Food"}, {"product_id": 20743, "product": "Kidney Turtle Bowl Lg", "salesprice": 5.39, "salespricerrp": 5.5, "sizevalue": 0, "sizeunit": null, "isWeighted": false, "bcrs": false, "country": null, "category": "pets", "labels": "Other Pet Food; Pets; Pet Items"}, {"product_id": 20751, "product": "Schesir Tuna & Mango 75g", "salesprice": 1.44, "salespricerrp": 1.59, "sizevalue": 0.08, "sizeunit": "kg", "isWeighted": false, "bcrs": false, "country": null, "category": "pets", "labels": "Cat Tinned and Pouch Food; Pets; Pet Food"}, {"product_id": 20752, "product": "Schesir Chicken & Aloe 140g", "salesprice": 1.9, "salespricerrp": 2.09, "sizevalue": 0.14, "sizeunit": "kg", "isWeighted": false, "bcrs": false, "country": null, "category": "pets", "labels": "Cat Tinned and Pouch Food; Pets; Pet Food"}, {"product_id": 20783, "product": "Padovan Aqua Gold 100ml", "salesprice": 2.21, "salespricerrp": 2.34, "sizevalue": 0.1, "sizeunit": "l", "isWeighted": false, "bcrs": false, "country": null, "category": "pets", "labels": "Other Pet Food; Pets; Pet Food"}, {"product_id": 20825, "product": "Rabbit Cage 85 X 49 X 37 Cm", "salesprice": 28.91, "salespricerrp": 29.5, "sizevalue": 0, "sizeunit": null, "isWeighted": false, "bcrs": false, "country": null, "category": "pets", "labels": "Other Pet Food; Pets; Pet Items"}, {"product_id": 20829, "product": "Van Cat Grey 10l", "salesprice": 9.57, "salespricerrp": 10.53, "sizevalue": 10, "sizeunit": "l", "isWeighted": false, "bcrs": false, "country": null, "category": "pets", "labels": "Pets; Pet Hygiene"}, {"product_id": 20848, "product": "Pedigree Treat Beef Rodeo 4 Pcs 70g", "salesprice": 1.25, "salespricerrp": 1.28, "sizevalue": 0.07, "sizeunit": "kg", "isWeighted": false, "bcrs": false, "country": null, "category": "pets", "labels": "Pets; Dog Dried Food; Pedigree; Pet Food"}, {"product_id": 20855, "product": "Vitakraft Poesie Mousse Pollo/chick 85g", "salesprice": 0.79, "salespricerrp": 0.85, "sizevalue": 0.09, "sizeunit": "kg", "isWeighted": false, "bcrs": false, "country": null, "category": "pets", "labels": "Other Pet Food; Pets; Pet Food"}], "page": 3, "currentRecords": 20, "offset": 60, "totalRecords": 100, "totalPages": 4}