{"products": [{"product_id": 20896, "product": "Leonardo Fish & Shrimp", "salesprice": 1.3, "salespricerrp": 1.37, "sizevalue": 1, "sizeunit": "p", "isWeighted": false, "bcrs": false, "country": null, "category": "pets", "labels": "Cat Tinned and Pouch Food; Pets; Pet Food"}, {"product_id": 20901, "product": "Bird Toy", "salesprice": 4.89, "salespricerrp": 4.99, "sizevalue": 0, "sizeunit": null, "isWeighted": false, "bcrs": false, "country": null, "category": "pets", "labels": "Other Pet Food; Pets; Pet Items"}, {"product_id": 20904, "product": "Pedigree Dry Beef 3kg", "salesprice": 9.9, "salespricerrp": 10.12, "sizevalue": 3, "sizeunit": "kg", "isWeighted": false, "bcrs": false, "country": null, "category": "pets", "labels": "Pets; Dog Dried Food; Pedigree; Pet Food"}, {"product_id": 20911, "product": "Pedigree Tasty Minis Cheesy Nibbles 140g", "salesprice": 1.96, "salespricerrp": 2, "sizevalue": 0.14, "sizeunit": "kg", "isWeighted": false, "bcrs": false, "country": null, "category": "pets", "labels": "Pets; Dog Dried Food; Pedigree; Pet Food"}, {"product_id": 20923, "product": "Vitakraft Poesie Creation Sauce Crrt+beef 85g", "salesprice": 0.79, "salespricerrp": 0.85, "sizevalue": 0.09, "sizeunit": "kg", "isWeighted": false, "bcrs": false, "country": null, "category": "pets", "labels": "Other Pet Food; Pets; Pet Food"}, {"product_id": 20925, "product": "Princess Taste Of Nature Salmon 500g", "salesprice": 5.97, "salespricerrp": 6.86, "sizevalue": 0.5, "sizeunit": "kg", "isWeighted": false, "bcrs": false, "country": null, "category": "pets", "labels": "Cat Dried Food; Pets; Princess; Pet Food"}, {"product_id": 20951, "product": "Leonardo Venison+blueberry", "salesprice": 1.3, "salespricerrp": 1.37, "sizevalue": 1, "sizeunit": "p", "isWeighted": false, "bcrs": false, "country": null, "category": "pets", "labels": "Cat Tinned and Pouch Food; Pets; Pet Food"}, {"product_id": 20973, "product": "Trixie Denta Fun Chewing Sticks, Chicken", "salesprice": 2.28, "salespricerrp": 2.3, "sizevalue": 1, "sizeunit": "p", "isWeighted": false, "bcrs": false, "country": null, "category": "pets", "labels": "Other Pet Food; Pets; Trixie; Pet Food"}, {"product_id": 20974, "product": "Felix Sensations Chicken&carrot 85g", "salesprice": 0.57, "salespricerrp": 0.65, "sizevalue": 0.09, "sizeunit": "kg", "isWeighted": false, "bcrs": false, "country": null, "category": "pets", "labels": "Cat Tinned and Pouch Food; Pets; Felix; Pet Food"}, {"product_id": 20989, "product": "Monge Dog Fresh Salmon Foil 100g", "salesprice": 1.28, "salespricerrp": 1.35, "sizevalue": 0.1, "sizeunit": "kg", "isWeighted": false, "bcrs": false, "country": null, "category": "pets", "labels": "Pets; Dog Tinned and Pouch Food; Pet Food"}, {"product_id": 20990, "product": "Schesir Chicken Fillet & Ham 140g", "salesprice": 1.9, "salespricerrp": 2.09, "sizevalue": 0.14, "sizeunit": "kg", "isWeighted": false, "bcrs": false, "country": null, "category": "pets", "labels": "Cat Tinned and Pouch Food; Pets; Pet Food"}, {"product_id": 21002, "product": "Gourmet Gold Chicken 85g", "salesprice": 0.81, "salespricerrp": 0.96, "sizevalue": 0.09, "sizeunit": "kg", "isWeighted": false, "bcrs": false, "country": null, "category": "pets", "labels": "Cat Tinned and Pouch Food; Pets; Gourmet; Pet Food"}, {"product_id": 21012, "product": "Kirkland Siganture Extra-large Absorbent Pads 100pk", "salesprice": 39.95, "salespricerrp": 42, "sizevalue": 1, "sizeunit": "p", "isWeighted": false, "bcrs": false, "country": null, "category": "pets", "labels": "Other Pet Food; Pets; Kirkland; Pet Food"}, {"product_id": 21041, "product": "Prince Premium Class Pacific Tuna & Rice 170g", "salesprice": 1.89, "salespricerrp": 2.29, "sizevalue": 0.17, "sizeunit": "kg", "isWeighted": false, "bcrs": false, "country": null, "category": "pets", "labels": "Pets; Prince; Dog Tinned and Pouch Food; Pet Food"}, {"product_id": 21085, "product": "Whiskas Casserole Meat Classic Selection 4pack", "salesprice": 2.75, "salespricerrp": 2.85, "sizevalue": 1, "sizeunit": "p", "isWeighted": false, "bcrs": false, "country": null, "category": "pets", "labels": "Cat Tinned and Pouch Food; Whiskas; Pets; Pet Food"}, {"product_id": 21089, "product": "Trixie Rainbow Balls 4pcs", "salesprice": 1.95, "salespricerrp": 2.05, "sizevalue": 1, "sizeunit": "p", "isWeighted": false, "bcrs": false, "country": null, "category": "pets", "labels": "Pets; Trixie; Pet Accessories"}, {"product_id": 21123, "product": "Trixie Bird", "salesprice": 7.77, "salespricerrp": 7.85, "sizevalue": 1, "sizeunit": "p", "isWeighted": false, "bcrs": false, "country": null, "category": "pets", "labels": "Pets; Trixie; Pet Accessories"}, {"product_id": 21164, "product": "Bird Toy", "salesprice": 1.95, "salespricerrp": 1.99, "sizevalue": 0, "sizeunit": null, "isWeighted": false, "bcrs": false, "country": null, "category": "pets", "labels": "Other Pet Food; Pets; Pet Items"}, {"product_id": 21189, "product": "Trixie Cooling Bone, Natural Rubber, 11 Cm", "salesprice": 5.26, "salespricerrp": 5.31, "sizevalue": 1, "sizeunit": "p", "isWeighted": false, "bcrs": false, "country": null, "category": "pets", "labels": "Pets; Trixie; Pet Accessories"}, {"product_id": 21190, "product": "Pet Lifestyle & You Merry Woofmas Santa\u0092s Little Elf-er", "salesprice": 9.58, "salespricerrp": 9.99, "sizevalue": 1, "sizeunit": "p", "isWeighted": false, "bcrs": false, "country": null, "category": "pets", "labels": "Pets; Pet Accessories"}], "page": 4, "currentRecords": 20, "offset": 80, "totalRecords": 100, "totalPages": 4}