{"products": [{"product_id": 20886, "product": "American Ranch Breaded Chicken Goujons 500g", "salesprice": 4.25, "salespricerrp": 4.75, "sizevalue": 0, "sizeunit": null, "isWeighted": false, "bcrs": false, "country": null, "category": "butcher", "labels": "Refrigerated; Butcher; Frozen Chicken; Chicken"}, {"product_id": 20893, "product": "Mortadella Sausage", "salesprice": 14.18, "salespricerrp": 14.18, "sizevalue": 1, "sizeunit": "kg", "isWeighted": true, "bcrs": false, "country": "Malta", "category": "butcher", "labels": "Sausages; Refrigerated; Butcher; Fresh Sausages"}, {"product_id": 20912, "product": "New Zealand Lamb French Rack", "salesprice": 42, "salespricerrp": 42, "sizevalue": 1, "sizeunit": "kg", "isWeighted": true, "bcrs": false, "country": null, "category": "butcher", "labels": "Refrigerated; Butcher; Fresh Lamb; Lamb"}, {"product_id": 20966, "product": "Local Pork Chops", "salesprice": 7.64, "salespricerrp": 7.64, "sizevalue": 1, "sizeunit": "kg", "isWeighted": true, "bcrs": false, "country": null, "category": "butcher", "labels": "Fresh Pork; Refrigerated; Butcher; Pork"}, {"product_id": 21023, "product": "Frozen Sliced Beef", "salesprice": 11.25, "salespricerrp": 11.25, "sizevalue": 1, "sizeunit": "kg", "isWeighted": true, "bcrs": false, "country": "Ireland", "category": "butcher", "labels": "Fresh Beef; Beef; Refrigerated; Butcher"}, {"product_id": 21050, "product": "New Zealand Boneless Shoulder", "salesprice": 23.05, "salespricerrp": 23.05, "sizevalue": 1, "sizeunit": "kg", "isWeighted": true, "bcrs": false, "country": null, "category": "butcher", "labels": "Refrigerated; Butcher; Fresh Lamb; Lamb"}, {"product_id": 21103, "product": "Local Chick Wings Tom/herbs", "salesprice": 6.95, "salespricerrp": 6.95, "sizevalue": 1, "sizeunit": "kg", "isWeighted": true, "bcrs": false, "country": null, "category": "butcher", "labels": "Fresh Chicken; Refrigerated; Butcher; Chicken"}, {"product_id": 21131, "product": "New Hot Cajun Sausage", "salesprice": 8.99, "salespricerrp": 8.99, "sizevalue": 1, "sizeunit": "kg", "isWeighted": true, "bcrs": false, "country": null, "category": "butcher", "labels": "Sausages; Refrigerated; Butcher; Fresh Sausages"}, {"product_id": 21179, "product": "Fresh Whole Turkey", "salesprice": 7.88, "salespricerrp": 7.88, "sizevalue": 1, "sizeunit": "kg", "isWeighted": true, "bcrs": false, "country": null, "category": "butcher", "labels": "Turkey; Refrigerated; Fresh Turkey; Butcher"}, {"product_id": 21221, "product": "Local Chick Drumsticks Tom/herbs", "salesprice": 7.5, "salespricerrp": 7.5, "sizevalue": 1, "sizeunit": "kg", "isWeighted": true, "bcrs": false, "country": null, "category": "butcher", "labels": "Fresh Chicken; Refrigerated; Butcher; Chicken"}, {"product_id": 21262, "product": "Amadori Kebab 350g", "salesprice": 3.99, "salespricerrp": 4.8, "sizevalue": 0.35, "sizeunit": "kg", "isWeighted": false, "bcrs": false, "country": null, "category": "butcher", "labels": "Beef; Frozen Beef; Refrigerated; Butcher; Amadori"}, {"product_id": 21370, "product": "Osgrow Camel Steak", "salesprice": 75, "salespricerrp": 75, "sizevalue": 1, "sizeunit": "kg", "isWeighted": true, "bcrs": false, "country": null, "category": "butcher", "labels": "Other Butcher Items; Refrigerated; Butcher; Othe Fresh Butcher Items"}, {"product_id": 21380, "product": "Local Capon", "salesprice": 5.5, "salespricerrp": 5.5, "sizevalue": 1, "sizeunit": "kg", "isWeighted": true, "bcrs": false, "country": null, "category": "butcher", "labels": "Other Butcher Items; Refrigerated; Butcher; Othe Fresh Butcher Items"}, {"product_id": 21390, "product": "Scotch Aberdeen \r\nAngus \r\nOx Fillets", "salesprice": 59.5, "salespricerrp": 59.5, "sizevalue": 1, "sizeunit": "kg", "isWeighted": true, "bcrs": false, "country": null, "category": "butcher", "labels": "Fresh Beef; Beef; Refrigerated; Butcher"}, {"product_id": 21391, "product": "Chicken Thighs Indian Mystery", "salesprice": 10.5, "salespricerrp": 10.5, "sizevalue": 1, "sizeunit": "kg", "isWeighted": true, "bcrs": false, "country": "Malta", "category": "butcher", "labels": "Fresh Chicken; Refrigerated; Butcher; Chicken"}, {"product_id": 21546, "product": "Fresh Imported Leg Of Lamb", "salesprice": 24.9, "salespricerrp": 24.9, "sizevalue": 1, "sizeunit": "kg", "isWeighted": true, "bcrs": false, "country": "United Kingdom", "category": "butcher", "labels": "Refrigerated; Butcher; Fresh Lamb; Lamb"}, {"product_id": 21565, "product": "Veal Standing Rib", "salesprice": 30.5, "salespricerrp": 30.5, "sizevalue": 1, "sizeunit": "kg", "isWeighted": true, "bcrs": false, "country": "Italia", "category": "butcher", "labels": "Fresh Beef; Beef; Refrigerated; Butcher"}, {"product_id": 21597, "product": "Chicken Legs Argentina Fire", "salesprice": 6, "salespricerrp": 6, "sizevalue": 1, "sizeunit": "kg", "isWeighted": true, "bcrs": false, "country": "Malta", "category": "butcher", "labels": "Fresh Chicken; Refrigerated; Butcher; Chicken"}, {"product_id": 21645, "product": "Lamb Quarters", "salesprice": 18.4, "salespricerrp": 18.4, "sizevalue": 1, "sizeunit": "kg", "isWeighted": true, "bcrs": false, "country": "Italia", "category": "butcher", "labels": "Refrigerated; Butcher; Fresh Lamb; Lamb"}, {"product_id": 21919, "product": "Angus Beef Burger", "salesprice": 11.8, "salespricerrp": 11.8, "sizevalue": 0.1, "sizeunit": "kg", "isWeighted": true, "bcrs": false, "country": "Malta", "category": "butcher", "labels": "Fresh Beef; Beef; Refrigerated; Butcher"}], "page": 1, "currentRecords": 20, "offset": 20, "totalRecords": 100, "totalPages": 4}