{"products": [{"product_id": 22030, "product": "Classic Lincs Pork Sausages", "salesprice": 8.99, "salespricerrp": 8.99, "sizevalue": 1, "sizeunit": "kg", "isWeighted": true, "bcrs": false, "country": null, "category": "butcher", "labels": "Sausages; Refrigerated; Butcher; Fresh Sausages"}, {"product_id": 22114, "product": "Fresh Local Capons", "salesprice": 5.5, "salespricerrp": 5.5, "sizevalue": 1, "sizeunit": "kg", "isWeighted": true, "bcrs": false, "country": null, "category": "butcher", "labels": "Other Butcher Items; Refrigerated; Butcher; Othe Fresh Butcher Items"}, {"product_id": 22127, "product": "Pork & Chive Sausages", "salesprice": 8.99, "salespricerrp": 8.99, "sizevalue": 1, "sizeunit": "kg", "isWeighted": true, "bcrs": false, "country": null, "category": "butcher", "labels": "Sausages; Refrigerated; Butcher; Fresh Sausages"}, {"product_id": 22169, "product": "Carvery Rib Scottona", "salesprice": 31.2, "salespricerrp": 31.2, "sizevalue": 1, "sizeunit": "kg", "isWeighted": true, "bcrs": false, "country": "Italia", "category": "butcher", "labels": "Fresh Beef; Beef; Refrigerated; Butcher"}, {"product_id": 22187, "product": "Italian Beef Fillet", "salesprice": 48.29, "salespricerrp": 48.29, "sizevalue": 1, "sizeunit": "kg", "isWeighted": true, "bcrs": false, "country": null, "category": "butcher", "labels": "Fresh Beef; Beef; Refrigerated; Butcher"}, {"product_id": 22221, "product": "Fresh Whole Chicken", "salesprice": 4.5, "salespricerrp": 4.5, "sizevalue": 1, "sizeunit": "kg", "isWeighted": true, "bcrs": false, "country": "Italia", "category": "butcher", "labels": "Fresh Chicken; Refrigerated; Butcher; Chicken"}, {"product_id": 22245, "product": "New Zealand Leg Of Lamb", "salesprice": 14.5, "salespricerrp": 14.5, "sizevalue": 1, "sizeunit": "kg", "isWeighted": true, "bcrs": false, "country": null, "category": "butcher", "labels": "Refrigerated; Butcher; Fresh Lamb; Lamb"}, {"product_id": 22283, "product": "Imported Milk Fed Veal Topside", "salesprice": 24.99, "salespricerrp": 24.99, "sizevalue": 1, "sizeunit": "kg", "isWeighted": true, "bcrs": false, "country": "Netherlands", "category": "butcher", "labels": "Other Butcher Items; Refrigerated; Butcher; Othe Fresh Butcher Items"}, {"product_id": 22351, "product": "Amadori Chicken Nuggets 300g", "salesprice": 3.68, "salespricerrp": 4.72, "sizevalue": 0.3, "sizeunit": "p", "isWeighted": false, "bcrs": false, "country": null, "category": "butcher", "labels": "Fresh Chicken; Refrigerated; Butcher; Amadori; Chicken"}, {"product_id": 22381, "product": "Amadori Le Birbe (chicken) Pops 250gr", "salesprice": 3.14, "salespricerrp": 3.41, "sizevalue": 0.25, "sizeunit": "kg", "isWeighted": false, "bcrs": false, "country": null, "category": "butcher", "labels": "Fresh Chicken; Refrigerated; Butcher; Amadori; Chicken"}, {"product_id": 22402, "product": "Amadori Chicken With Smoked Paprika 500g", "salesprice": 5.2, "salespricerrp": 5.78, "sizevalue": 0.5, "sizeunit": "kg", "isWeighted": false, "bcrs": false, "country": null, "category": "butcher", "labels": "Fresh Chicken; Refrigerated; Butcher; Amadori; Chicken"}, {"product_id": 22521, "product": "Fresh Imported Lamb Fillets", "salesprice": 29.99, "salespricerrp": 29.99, "sizevalue": 1, "sizeunit": "kg", "isWeighted": true, "bcrs": false, "country": "Australia", "category": "butcher", "labels": "Refrigerated; Butcher; Fresh Lamb; Lamb"}, {"product_id": 22529, "product": "New Mexican Chilli Sausage", "salesprice": 8.99, "salespricerrp": 8.99, "sizevalue": 1, "sizeunit": "kg", "isWeighted": true, "bcrs": false, "country": null, "category": "butcher", "labels": "Sausages; Refrigerated; Butcher; Fresh Sausages"}, {"product_id": 22586, "product": "Mazzit Ta' Malta", "salesprice": 14.7, "salespricerrp": 14.7, "sizevalue": 1, "sizeunit": "kg", "isWeighted": true, "bcrs": false, "country": "Malta", "category": "butcher", "labels": "Other Butcher Items; Refrigerated; Butcher; Othe Fresh Butcher Items"}, {"product_id": 22703, "product": "Fresh Turkey Wings", "salesprice": 4.75, "salespricerrp": 4.75, "sizevalue": 1, "sizeunit": "kg", "isWeighted": true, "bcrs": false, "country": null, "category": "butcher", "labels": "Turkey; Refrigerated; Fresh Turkey; Butcher"}, {"product_id": 22726, "product": "Chicken Shish Smokey Bbq", "salesprice": 13.5, "salespricerrp": 13.5, "sizevalue": 1, "sizeunit": "kg", "isWeighted": true, "bcrs": false, "country": "China", "category": "butcher", "labels": "Fresh Chicken; Refrigerated; Butcher; Chicken"}, {"product_id": 22746, "product": "Uruguay 200 Day Ribeye Grass Fed", "salesprice": 32.5, "salespricerrp": 32.5, "sizevalue": 1, "sizeunit": "kg", "isWeighted": true, "bcrs": false, "country": null, "category": "butcher", "labels": "Fresh Beef; Beef; Refrigerated; Butcher"}, {"product_id": 22813, "product": "Chicken Breast Cubes", "salesprice": 9.5, "salespricerrp": 9.5, "sizevalue": 1, "sizeunit": "kg", "isWeighted": true, "bcrs": false, "country": "Malta", "category": "butcher", "labels": "Fresh Chicken; Refrigerated; Butcher; Chicken"}, {"product_id": 22832, "product": "Rabbit Shoulder", "salesprice": 10, "salespricerrp": 10, "sizevalue": 1, "sizeunit": "kg", "isWeighted": true, "bcrs": false, "country": null, "category": "butcher", "labels": "Rabbit; Fresh Rabbit; Refrigerated; Butcher"}, {"product_id": 22855, "product": "Whole Pheasants", "salesprice": 14.95, "salespricerrp": 14.95, "sizevalue": 1, "sizeunit": "kg", "isWeighted": true, "bcrs": false, "country": null, "category": "butcher", "labels": "Other Butcher Items; Refrigerated; Butcher; Othe Fresh Butcher Items"}], "page": 2, "currentRecords": 20, "offset": 40, "totalRecords": 100, "totalPages": 4}