{"products": [{"product_id": 22870, "product": "Local Pork Hocks", "salesprice": 4.99, "salespricerrp": 4.99, "sizevalue": 1, "sizeunit": "kg", "isWeighted": true, "bcrs": false, "country": null, "category": "butcher", "labels": "Fresh Pork; Refrigerated; Butcher; Pork"}, {"product_id": 22898, "product": "Amadori Qualita 10+ Fesa Di Tacchino A Fette 400g", "salesprice": 8.66, "salespricerrp": 8.66, "sizevalue": 0.4, "sizeunit": "p", "isWeighted": false, "bcrs": false, "country": null, "category": "butcher", "labels": "Fresh Chicken; Refrigerated; Butcher; Amadori; Chicken"}, {"product_id": 22937, "product": "Pork & Mustard Seed Sausages", "salesprice": 8.99, "salespricerrp": 8.99, "sizevalue": 1, "sizeunit": "kg", "isWeighted": true, "bcrs": false, "country": null, "category": "butcher", "labels": "Sausages; Refrigerated; Butcher; Fresh Sausages"}, {"product_id": 22960, "product": "Scottona Fillet", "salesprice": 47.9, "salespricerrp": 47.9, "sizevalue": 1, "sizeunit": "kg", "isWeighted": true, "bcrs": false, "country": "Italia", "category": "butcher", "labels": "Fresh Beef; Beef; Refrigerated; Butcher"}, {"product_id": 22962, "product": "Irish T-bone", "salesprice": 35.2, "salespricerrp": 35.2, "sizevalue": 1, "sizeunit": "kg", "isWeighted": true, "bcrs": false, "country": "Ireland", "category": "butcher", "labels": "Fresh Beef; Beef; Refrigerated; Butcher"}, {"product_id": 23012, "product": "Amadori Cordon Bleu 250g", "salesprice": 3.68, "salespricerrp": 4.72, "sizevalue": 0.25, "sizeunit": "p", "isWeighted": false, "bcrs": false, "country": null, "category": "butcher", "labels": "Fresh Chicken; Refrigerated; Butcher; Amadori; Chicken"}, {"product_id": 23025, "product": "Amadori Buona Domenica Ricotta & Spinach 700g", "salesprice": 8.35, "salespricerrp": 8.35, "sizevalue": 0.7, "sizeunit": "kg", "isWeighted": false, "bcrs": false, "country": null, "category": "butcher", "labels": "Fresh Chicken; Refrigerated; Butcher; Amadori; Chicken"}, {"product_id": 23026, "product": "Pork Celebration Sausages", "salesprice": 8.99, "salespricerrp": 8.99, "sizevalue": 1, "sizeunit": "kg", "isWeighted": true, "bcrs": false, "country": null, "category": "butcher", "labels": "Sausages; Refrigerated; Butcher; Fresh Sausages"}, {"product_id": 23108, "product": "New Zealand Lamb Tenderloins", "salesprice": 37.39, "salespricerrp": 37.39, "sizevalue": 1, "sizeunit": "kg", "isWeighted": true, "bcrs": false, "country": null, "category": "butcher", "labels": "Refrigerated; Butcher; Fresh Lamb; Lamb"}, {"product_id": 23140, "product": "Amadori Buona Domenica 700g", "salesprice": 8.35, "salespricerrp": 8.35, "sizevalue": 0.7, "sizeunit": "kg", "isWeighted": false, "bcrs": false, "country": null, "category": "butcher", "labels": "Fresh Beef; Beef; Refrigerated; Butcher; Amadori"}, {"product_id": 23144, "product": "Lean Beef Mince", "salesprice": 10.65, "salespricerrp": 10.65, "sizevalue": 1, "sizeunit": "kg", "isWeighted": true, "bcrs": false, "country": null, "category": "butcher", "labels": "Fresh Beef; Beef; Refrigerated; Butcher"}, {"product_id": 23149, "product": "Local Chick Breast Hot/spicy", "salesprice": 10.5, "salespricerrp": 10.5, "sizevalue": 1, "sizeunit": "kg", "isWeighted": true, "bcrs": false, "country": null, "category": "butcher", "labels": "Fresh Chicken; Refrigerated; Butcher; Chicken"}, {"product_id": 23263, "product": "Stuffed Chicken", "salesprice": 14.95, "salespricerrp": 14.95, "sizevalue": 1, "sizeunit": "kg", "isWeighted": true, "bcrs": false, "country": "Italia", "category": "butcher", "labels": "Fresh Chicken; Refrigerated; Butcher; Chicken"}, {"product_id": 23435, "product": "Involtini Di Pollo X4", "salesprice": 14.74, "salespricerrp": 14.74, "sizevalue": 1, "sizeunit": "kg", "isWeighted": true, "bcrs": false, "country": "Italia", "category": "butcher", "labels": "Other Butcher Items; Refrigerated; Butcher; Othe Fresh Butcher Items"}, {"product_id": 23445, "product": "Amadori Tenders Chicken 280g", "salesprice": 4.99, "salespricerrp": 5.4, "sizevalue": 0.28, "sizeunit": "kg", "isWeighted": false, "bcrs": false, "country": null, "category": "butcher", "labels": "Refrigerated; Butcher; Frozen Chicken; Amadori; Chicken"}, {"product_id": 23559, "product": "Amadori Gran Burger 280g", "salesprice": 3.68, "salespricerrp": 4.2, "sizevalue": 0.28, "sizeunit": "kg", "isWeighted": false, "bcrs": false, "country": null, "category": "butcher", "labels": "Fresh Chicken; Refrigerated; Butcher; Amadori; Chicken"}, {"product_id": 23567, "product": "Fresh Local Chicken Necks", "salesprice": 2.65, "salespricerrp": 2.65, "sizevalue": 1, "sizeunit": "kg", "isWeighted": true, "bcrs": false, "country": "Malta", "category": "butcher", "labels": "Fresh Chicken; Refrigerated; Butcher; Chicken"}, {"product_id": 23605, "product": "Chicken Drumsticks Mediterrne Herb", "salesprice": 7.5, "salespricerrp": 7.5, "sizevalue": 1, "sizeunit": "kg", "isWeighted": true, "bcrs": false, "country": "Malta", "category": "butcher", "labels": "Fresh Chicken; Refrigerated; Butcher; Chicken"}, {"product_id": 23653, "product": "Scotch Marinated Steak", "salesprice": 17.5, "salespricerrp": 17.5, "sizevalue": 1, "sizeunit": "kg", "isWeighted": true, "bcrs": false, "country": null, "category": "butcher", "labels": "Fresh Beef; Beef; Refrigerated; Butcher"}, {"product_id": 23723, "product": "Local Whole Chick Hot/spicy", "salesprice": 5.7, "salespricerrp": 5.7, "sizevalue": 1, "sizeunit": "kg", "isWeighted": true, "bcrs": false, "country": null, "category": "butcher", "labels": "Fresh Chicken; Refrigerated; Butcher; Chicken"}], "page": 3, "currentRecords": 20, "offset": 60, "totalRecords": 100, "totalPages": 4}