{"products": [{"product_id": 23732, "product": "Chicken Bones", "salesprice": 1, "salespricerrp": 1, "sizevalue": 1, "sizeunit": "kg", "isWeighted": true, "bcrs": false, "country": "Italia", "category": "butcher", "labels": "Fresh Chicken; Refrigerated; Butcher; Chicken"}, {"product_id": 23748, "product": "Fresh Imported Capons", "salesprice": 5.5, "salespricerrp": 5.5, "sizevalue": 1, "sizeunit": "kg", "isWeighted": true, "bcrs": false, "country": null, "category": "butcher", "labels": "Other Butcher Items; Refrigerated; Butcher; Othe Fresh Butcher Items"}, {"product_id": 23849, "product": "Local Chick Wings Bbq", "salesprice": 6.95, "salespricerrp": 6.95, "sizevalue": 1, "sizeunit": "kg", "isWeighted": true, "bcrs": false, "country": null, "category": "butcher", "labels": "Fresh Chicken; Refrigerated; Butcher; Chicken"}, {"product_id": 23919, "product": "Fresh Local Chicken Livers", "salesprice": 4.6, "salespricerrp": 4.6, "sizevalue": 1, "sizeunit": "kg", "isWeighted": true, "bcrs": false, "country": "Malta", "category": "butcher", "labels": "Fresh Chicken; Refrigerated; Butcher; Chicken"}, {"product_id": 23961, "product": "Dafgards Swedish Meatballs, 500g", "salesprice": 6.39, "salespricerrp": 6.49, "sizevalue": 0.5, "sizeunit": "kg", "isWeighted": false, "bcrs": false, "country": null, "category": "butcher", "labels": "Beef; Frozen Beef; Refrigerated; Butcher; Familjen Dafgard"}, {"product_id": 23974, "product": "Amadori Salsiccia Di Tacchino E Pollo (sausgaes) 650g", "salesprice": 5.94, "salespricerrp": 6.3, "sizevalue": 0.65, "sizeunit": "kg", "isWeighted": false, "bcrs": false, "country": null, "category": "butcher", "labels": "Fixed Price Prepack Sausages; Sausages; Refrigerated; Butcher; Amadori"}, {"product_id": 23995, "product": "Italian Rib Beef", "salesprice": 13.49, "salespricerrp": 13.49, "sizevalue": 1, "sizeunit": "kg", "isWeighted": true, "bcrs": false, "country": null, "category": "butcher", "labels": "Fresh Beef; Beef; Refrigerated; Butcher"}, {"product_id": 24018, "product": "Beef Bones", "salesprice": 4.2, "salespricerrp": 4.2, "sizevalue": 1, "sizeunit": "kg", "isWeighted": true, "bcrs": false, "country": null, "category": "butcher", "labels": "Fresh Beef; Beef; Refrigerated; Butcher"}, {"product_id": 24033, "product": "Local Pork Spare Ribs", "salesprice": 11.96, "salespricerrp": 11.96, "sizevalue": 1, "sizeunit": "kg", "isWeighted": true, "bcrs": false, "country": null, "category": "butcher", "labels": "Fresh Pork; Refrigerated; Butcher; Pork"}, {"product_id": 24159, "product": "Fresh Turkey Necks", "salesprice": 4.57, "salespricerrp": 4.57, "sizevalue": 1, "sizeunit": "kg", "isWeighted": true, "bcrs": false, "country": null, "category": "butcher", "labels": "Turkey; Refrigerated; Fresh Turkey; Butcher"}, {"product_id": 24163, "product": "Usda Heart Rump", "salesprice": 22.5, "salespricerrp": 22.5, "sizevalue": 1, "sizeunit": "kg", "isWeighted": true, "bcrs": false, "country": null, "category": "butcher", "labels": "Fresh Beef; Beef; Refrigerated; Butcher"}, {"product_id": 24307, "product": "Chicken Thighs Smokey Bbq", "salesprice": 10.5, "salespricerrp": 10.5, "sizevalue": 1, "sizeunit": "kg", "isWeighted": true, "bcrs": false, "country": "Malta", "category": "butcher", "labels": "Fresh Chicken; Refrigerated; Butcher; Chicken"}, {"product_id": 24323, "product": "Usda Aged Sirlow", "salesprice": 63.98, "salespricerrp": 63.98, "sizevalue": 1, "sizeunit": "kg", "isWeighted": true, "bcrs": false, "country": "USA", "category": "butcher", "labels": "Fresh Beef; Beef; Refrigerated; Butcher"}, {"product_id": 24358, "product": "Pork Rib Roast", "salesprice": 9.99, "salespricerrp": 9.99, "sizevalue": 1, "sizeunit": "kg", "isWeighted": true, "bcrs": false, "country": null, "category": "butcher", "labels": "Fresh Pork; Refrigerated; Butcher; Pork"}, {"product_id": 24460, "product": "Fresh Lamb Belly Roll", "salesprice": 18.65, "salespricerrp": 18.65, "sizevalue": 1, "sizeunit": "kg", "isWeighted": true, "bcrs": false, "country": "United Kingdom", "category": "butcher", "labels": "Refrigerated; Butcher; Fresh Lamb; Lamb"}, {"product_id": 24466, "product": "Chicken Shish Indian Mystery", "salesprice": 13.5, "salespricerrp": 13.5, "sizevalue": 1, "sizeunit": "kg", "isWeighted": true, "bcrs": false, "country": "China", "category": "butcher", "labels": "Fresh Chicken; Refrigerated; Butcher; Chicken"}, {"product_id": 24591, "product": "Local Pork Stuffed Neck", "salesprice": 10.5, "salespricerrp": 10.5, "sizevalue": 1, "sizeunit": "kg", "isWeighted": true, "bcrs": false, "country": null, "category": "butcher", "labels": "Fresh Pork; Refrigerated; Butcher; Pork"}, {"product_id": 24717, "product": "Pork & Beef Mince", "salesprice": 9.5, "salespricerrp": 9.5, "sizevalue": 1, "sizeunit": "kg", "isWeighted": true, "bcrs": false, "country": "Malta", "category": "butcher", "labels": "Fresh Beef; Beef; Refrigerated; Butcher"}, {"product_id": 24730, "product": "Italian Beef Rump Steak", "salesprice": 14.95, "salespricerrp": 14.95, "sizevalue": 1, "sizeunit": "kg", "isWeighted": true, "bcrs": false, "country": null, "category": "butcher", "labels": "Fresh Beef; Beef; Refrigerated; Butcher"}, {"product_id": 24786, "product": "Smoked Spare Ribs", "salesprice": 12.5, "salespricerrp": 12.5, "sizevalue": 1, "sizeunit": "kg", "isWeighted": true, "bcrs": false, "country": null, "category": "butcher", "labels": "Fresh Pork; Refrigerated; Butcher; Pork"}], "page": 4, "currentRecords": 20, "offset": 80, "totalRecords": 100, "totalPages": 4}