{"products": [{"product_id": 19583, "product": "Sella & Mosca Cannonau Di Sardegna 750ml", "salesprice": 10.86, "salespricerrp": 11.49, "sizevalue": 0.75, "sizeunit": "l", "isWeighted": false, "bcrs": false, "country": "Italia", "category": "winecellar", "labels": "Wines; Sella & Mosca; Wine Cellar; Foreign Wines"}, {"product_id": 19587, "product": "Kaiserdom Lemon Zero Alcohol 500ml", "salesprice": 1.15, "salespricerrp": 1.5, "sizevalue": 0.5, "sizeunit": "l", "isWeighted": false, "bcrs": true, "country": null, "category": "winecellar", "labels": "Beer and Ciders; Wine Cellar; Beers"}, {"product_id": 19603, "product": "Contrada Monte Gorna Etna Rosso Bio 750ml", "salesprice": 15.95, "salespricerrp": 20.5, "sizevalue": 0.75, "sizeunit": "l", "isWeighted": false, "bcrs": false, "country": null, "category": "winecellar", "labels": "NICO; Wines; Wine Cellar; Foreign Wines"}, {"product_id": 19626, "product": "Malibu 70cl", "salesprice": 15.7, "salespricerrp": 15.95, "sizevalue": 0.7, "sizeunit": "l", "isWeighted": false, "bcrs": false, "country": null, "category": "winecellar", "labels": "Malibu; Wine Cellar; Spirits"}, {"product_id": 19628, "product": "Farina Amarone Della Valpolicella 750ml", "salesprice": 42.79, "salespricerrp": 44.81, "sizevalue": 1, "sizeunit": "p", "isWeighted": false, "bcrs": false, "country": null, "category": "winecellar", "labels": "Wines; Wine Cellar; Foreign Wines"}, {"product_id": 19652, "product": "Bollinger Special Cuvee 75cl", "salesprice": 47.82, "salespricerrp": 49.02, "sizevalue": 0.75, "sizeunit": "l", "isWeighted": false, "bcrs": false, "country": null, "category": "winecellar", "labels": "Wines; Wine Cellar; Foreign Wines"}, {"product_id": 19654, "product": "Brussels Beer Project Jungle Joy 330ml", "salesprice": 3.44, "salespricerrp": 3.7, "sizevalue": 0.33, "sizeunit": "l", "isWeighted": false, "bcrs": true, "country": null, "category": "winecellar", "labels": "Beer and Ciders; Wine Cellar; Beers"}, {"product_id": 19663, "product": "Bordeaux Blanc Calvet Reserve Calvet 750ml", "salesprice": 8.87, "salespricerrp": 9.23, "sizevalue": 0.75, "sizeunit": "l", "isWeighted": false, "bcrs": false, "country": null, "category": "winecellar", "labels": "Wines; Wine Cellar; Foreign Wines"}, {"product_id": 19665, "product": "Blossom Hill White Zinfandel 750ml", "salesprice": 6.8, "salespricerrp": 7.25, "sizevalue": 0.75, "sizeunit": "l", "isWeighted": false, "bcrs": false, "country": null, "category": "winecellar", "labels": "Wines; Blossom; Wine Cellar; Foreign Wines"}, {"product_id": 19672, "product": "El Monstruo Malbec Bonarda Arg. 75cl", "salesprice": 9.83, "salespricerrp": 10.4, "sizevalue": 0.75, "sizeunit": "l", "isWeighted": false, "bcrs": false, "country": null, "category": "winecellar", "labels": "Wines; Wine Cellar; Foreign Wines"}, {"product_id": 19675, "product": "Bolla Soave 2021 37.5cl", "salesprice": 5.93, "salespricerrp": 6.61, "sizevalue": 0.38, "sizeunit": "l", "isWeighted": false, "bcrs": false, "country": null, "category": "winecellar", "labels": "Wines; Wine Cellar; Foreign Wines"}, {"product_id": 19686, "product": "9 Mile Vodka 700ml", "salesprice": 18.88, "salespricerrp": 19.28, "sizevalue": 0.7, "sizeunit": "l", "isWeighted": false, "bcrs": false, "country": null, "category": "winecellar", "labels": "Wine Cellar; Spirits"}, {"product_id": 19691, "product": "Nicosia Generazione 898 Merlot Igt 750ml", "salesprice": 5.98, "salespricerrp": 7.45, "sizevalue": 0.75, "sizeunit": "l", "isWeighted": false, "bcrs": false, "country": null, "category": "winecellar", "labels": "NICO; Wines; Wine Cellar; Foreign Wines"}, {"product_id": 19697, "product": "Prosecco Frizzante Docg Corda Gold 750ml", "salesprice": 8.25, "salespricerrp": 10.2, "sizevalue": 0.75, "sizeunit": "l", "isWeighted": false, "bcrs": false, "country": null, "category": "winecellar", "labels": "Champagne and Sparkling Wine; Tonon; Wines and Champagne; Wine Cellar"}, {"product_id": 19702, "product": "B&g Beaujolais Villages Passeport 2020 700ml", "salesprice": 9.57, "salespricerrp": 10.95, "sizevalue": 0.7, "sizeunit": "l", "isWeighted": false, "bcrs": false, "country": "France", "category": "winecellar", "labels": "Wines; Wine Cellar; Foreign Wines"}, {"product_id": 19703, "product": "Mureda Cabernet Sauvignon Organic 750ml", "salesprice": 3.93, "salespricerrp": 4.39, "sizevalue": 0.75, "sizeunit": "l", "isWeighted": false, "bcrs": false, "country": null, "category": "winecellar", "labels": "Wines; Mureda; Wine Cellar; Foreign Wines"}, {"product_id": 19722, "product": "Cignale 2012", "salesprice": 54.6, "salespricerrp": 65, "sizevalue": 0.75, "sizeunit": "l", "isWeighted": false, "bcrs": false, "country": null, "category": "winecellar", "labels": "Wines; Wine Cellar; Foreign Wines"}, {"product_id": 19725, "product": "La Traversata Vermentino Toscana 75cl", "salesprice": 6.95, "salespricerrp": 8, "sizevalue": 0.75, "sizeunit": "l", "isWeighted": false, "bcrs": false, "country": null, "category": "winecellar", "labels": "Wines; Wine Cellar; Foreign Wines"}, {"product_id": 19729, "product": "Kirin Ichiban Btls 330ml", "salesprice": 1.75, "salespricerrp": 2.59, "sizevalue": 0.33, "sizeunit": "l", "isWeighted": false, "bcrs": true, "country": null, "category": "winecellar", "labels": "Beer and Ciders; Nabeer; Wine Cellar; Beers"}, {"product_id": 19768, "product": "Malfy Original 70cl", "salesprice": 34.75, "salespricerrp": 34.82, "sizevalue": 0.7, "sizeunit": "l", "isWeighted": false, "bcrs": false, "country": null, "category": "winecellar", "labels": "Wine Cellar; Spirits"}], "page": 1, "currentRecords": 20, "offset": 20, "totalRecords": 100, "totalPages": 4}