{"products": [{"product_id": 19771, "product": "La Chica Gold Tequila 70cl", "salesprice": 14.68, "salespricerrp": 14.92, "sizevalue": 0.7, "sizeunit": "l", "isWeighted": false, "bcrs": false, "country": null, "category": "winecellar", "labels": "Wine Cellar; Spirits"}, {"product_id": 19772, "product": "Caleo 2021 Negroamaro Igt 750ml", "salesprice": 5.18, "salespricerrp": 5.5, "sizevalue": 0.75, "sizeunit": "l", "isWeighted": false, "bcrs": false, "country": null, "category": "winecellar", "labels": "Wines; Wine Cellar; Foreign Wines; Caleo"}, {"product_id": 19777, "product": "Jp Chenet Fashion Watermelon 750ml", "salesprice": 6.95, "salespricerrp": 7.99, "sizevalue": 0.75, "sizeunit": "l", "isWeighted": false, "bcrs": false, "country": null, "category": "winecellar", "labels": "Wines; J.P. Chenet; Wine Cellar; Foreign Wines"}, {"product_id": 19779, "product": "Etsu Japanese Gin 43% - 6x70cl", "salesprice": 42.88, "salespricerrp": 45.8, "sizevalue": 0.7, "sizeunit": "l", "isWeighted": false, "bcrs": false, "country": null, "category": "winecellar", "labels": "Wines; Wine Cellar; Foreign Wines"}, {"product_id": 19806, "product": "Deutz Champagne Rose Classic 75cl", "salesprice": 71.47, "salespricerrp": 76.57, "sizevalue": 0.75, "sizeunit": "l", "isWeighted": false, "bcrs": false, "country": null, "category": "winecellar", "labels": "Champagne and Sparkling Wine; Wines and Champagne; Wine Cellar"}, {"product_id": 19809, "product": "Triplica Greco Di Tufo Triplica 75cl", "salesprice": 12.07, "salespricerrp": 12.46, "sizevalue": 0.75, "sizeunit": "l", "isWeighted": false, "bcrs": false, "country": null, "category": "winecellar", "labels": "Wines; Wine Cellar; Foreign Wines"}, {"product_id": 19811, "product": "Pitters Tawny Port 750ml", "salesprice": 10.22, "salespricerrp": 10.99, "sizevalue": 0.75, "sizeunit": "l", "isWeighted": false, "bcrs": false, "country": null, "category": "winecellar", "labels": "Wine Cellar; Port and Sherry Wine"}, {"product_id": 19828, "product": "Vinironia Prosecco Organic 750ml", "salesprice": 10.45, "salespricerrp": 11.09, "sizevalue": 0.75, "sizeunit": "l", "isWeighted": false, "bcrs": false, "country": null, "category": "winecellar", "labels": "Wine Cellar; Spirits"}, {"product_id": 19839, "product": "Bacchus Vermentino 75cl", "salesprice": 5.48, "salespricerrp": 6.08, "sizevalue": 0.75, "sizeunit": "l", "isWeighted": false, "bcrs": false, "country": null, "category": "winecellar", "labels": "Wines; Wine Cellar; Foreign Wines"}, {"product_id": 19854, "product": "Corvezzo Bianco Sauvignon 75cl", "salesprice": 7.95, "salespricerrp": 9.95, "sizevalue": 0.75, "sizeunit": "l", "isWeighted": false, "bcrs": false, "country": null, "category": "winecellar", "labels": "Wines; Wine Cellar; Foreign Wines"}, {"product_id": 19855, "product": "Freixenet Pinot Grigio Garda Doc 750ml", "salesprice": 10.42, "salespricerrp": 10.99, "sizevalue": 0.75, "sizeunit": "l", "isWeighted": false, "bcrs": false, "country": null, "category": "winecellar", "labels": "Wines; Wine Cellar; Foreign Wines"}, {"product_id": 19857, "product": "Frontera Cabernet Sauvignon 750ml", "salesprice": 4.67, "salespricerrp": 5.99, "sizevalue": 0.75, "sizeunit": "l", "isWeighted": false, "bcrs": false, "country": null, "category": "winecellar", "labels": "Wines; Wine Cellar; Foreign Wines; Frontera"}, {"product_id": 19879, "product": "Moscato D'asti 2022", "salesprice": 5.49, "salespricerrp": 7, "sizevalue": 0.75, "sizeunit": "l", "isWeighted": false, "bcrs": false, "country": null, "category": "winecellar", "labels": "Wines; Wine Cellar; Foreign Wines"}, {"product_id": 19880, "product": "Chimay Gold 330ml", "salesprice": 3.08, "salespricerrp": 3.13, "sizevalue": 0.33, "sizeunit": "l", "isWeighted": false, "bcrs": true, "country": null, "category": "winecellar", "labels": "Beer and Ciders; Wine Cellar; Beers"}, {"product_id": 19891, "product": "Flinders Rose", "salesprice": 3.49, "salespricerrp": 3.55, "sizevalue": 0.33, "sizeunit": "l", "isWeighted": false, "bcrs": true, "country": null, "category": "winecellar", "labels": "Beer and Ciders; Lord Chambray; Wine Cellar; Beers"}, {"product_id": 19893, "product": "Clarendelle Medoc Rouge 750ml", "salesprice": 22.47, "salespricerrp": 24.4, "sizevalue": 0.75, "sizeunit": "l", "isWeighted": false, "bcrs": false, "country": null, "category": "winecellar", "labels": "Wines; Wine Cellar; Foreign Wines"}, {"product_id": 19903, "product": "19 Crimes The Banished 750ml", "salesprice": 11.37, "salespricerrp": 11.99, "sizevalue": 0.75, "sizeunit": "l", "isWeighted": false, "bcrs": false, "country": null, "category": "winecellar", "labels": "Wines; Wine Cellar; Foreign Wines"}, {"product_id": 19919, "product": "Hawkes Pineapple Punch Cider 330ml Can", "salesprice": 2.87, "salespricerrp": 2.95, "sizevalue": 0.33, "sizeunit": "l", "isWeighted": false, "bcrs": true, "country": null, "category": "winecellar", "labels": "Beer and Ciders; Wine Cellar; Beers"}, {"product_id": 19954, "product": "Fireball Cinnamon  Whisky Liquor 70cl", "salesprice": 17.62, "salespricerrp": 17.98, "sizevalue": 0.7, "sizeunit": "l", "isWeighted": false, "bcrs": false, "country": null, "category": "winecellar", "labels": "Wine Cellar; Spirits"}, {"product_id": 19964, "product": "Kalinska Vodka 1l", "salesprice": 11.98, "salespricerrp": 12.98, "sizevalue": 1, "sizeunit": "l", "isWeighted": false, "bcrs": false, "country": null, "category": "winecellar", "labels": "Wine Cellar; Spirits"}], "page": 2, "currentRecords": 20, "offset": 40, "totalRecords": 100, "totalPages": 4}