{"products": [{"product_id": 19981, "product": "Sierra Atomic Torpedo 355ml", "salesprice": 2.87, "salespricerrp": 2.96, "sizevalue": 0.36, "sizeunit": "l", "isWeighted": false, "bcrs": true, "country": null, "category": "winecellar", "labels": "Beer and Ciders; Wine Cellar; Beers"}, {"product_id": 19986, "product": "Zeppi's Rummiena 500ml", "salesprice": 9.95, "salespricerrp": 10.76, "sizevalue": 0.5, "sizeunit": "l", "isWeighted": false, "bcrs": false, "country": null, "category": "winecellar", "labels": "Liquours; Zeppi; Wine Cellar; Spirits"}, {"product_id": 19994, "product": "Miguel Torres Santa Digna Sauvignon Blanc Vegan 750ml", "salesprice": 7.82, "salespricerrp": 8.99, "sizevalue": 0.75, "sizeunit": "l", "isWeighted": false, "bcrs": false, "country": null, "category": "winecellar", "labels": "Wines; Wine Cellar; Foreign Wines"}, {"product_id": 19995, "product": "Rustico Rose 75cl", "salesprice": 6.35, "salespricerrp": 7.08, "sizevalue": 0.75, "sizeunit": "l", "isWeighted": false, "bcrs": false, "country": null, "category": "winecellar", "labels": "Wines; Wine Cellar; Foreign Wines"}, {"product_id": 20009, "product": "Diplom\u00e1tico Planas Ultra Premium White Rum 47%", "salesprice": 32.26, "salespricerrp": 33.19, "sizevalue": 0.7, "sizeunit": "l", "isWeighted": false, "bcrs": false, "country": null, "category": "winecellar", "labels": "Wine Cellar; Spirits"}, {"product_id": 20017, "product": "Kumala Reserve Chenin Blanc 750ml", "salesprice": 8.52, "salespricerrp": 8.99, "sizevalue": 0.75, "sizeunit": "l", "isWeighted": false, "bcrs": false, "country": null, "category": "winecellar", "labels": "Wines; Wine Cellar; Foreign Wines"}, {"product_id": 20024, "product": "Surrau Sole Di Surrau 375ml", "salesprice": 19.95, "salespricerrp": 26, "sizevalue": 0.38, "sizeunit": "l", "isWeighted": false, "bcrs": false, "country": null, "category": "winecellar", "labels": "Wines; Wine Cellar; Foreign Wines"}, {"product_id": 20030, "product": "Verdala Frizzante Girgentina 750ml", "salesprice": 4.98, "salespricerrp": 5.59, "sizevalue": 0.75, "sizeunit": "l", "isWeighted": false, "bcrs": false, "country": null, "category": "winecellar", "labels": "Wines; Wine Cellar; Marsovin; Local Wine"}, {"product_id": 20034, "product": "Casillero Del Diablo Sauvignon Blanc 750ml", "salesprice": 6.99, "salespricerrp": 8.99, "sizevalue": 0.75, "sizeunit": "l", "isWeighted": false, "bcrs": false, "country": null, "category": "winecellar", "labels": "Casillero; Wines; Wine Cellar; Foreign Wines"}, {"product_id": 20037, "product": "Chenin Blanc Cape Creek 750ml", "salesprice": 5.8, "salespricerrp": 6.04, "sizevalue": 0.75, "sizeunit": "l", "isWeighted": false, "bcrs": false, "country": null, "category": "winecellar", "labels": "Wines; Wine Cellar; Foreign Wines"}, {"product_id": 20039, "product": "Papa Figos Portugal 750ml", "salesprice": 12.05, "salespricerrp": 12.59, "sizevalue": 0.75, "sizeunit": "l", "isWeighted": false, "bcrs": false, "country": null, "category": "winecellar", "labels": "Wines; Wine Cellar; Foreign Wines"}, {"product_id": 20048, "product": "Jp Chenet Ice Edition Sparkling Blanc 750ml", "salesprice": 6.63, "salespricerrp": 8.5, "sizevalue": 0.75, "sizeunit": "l", "isWeighted": false, "bcrs": false, "country": null, "category": "winecellar", "labels": "Wines; J.P. Chenet; Wine Cellar; Foreign Wines"}, {"product_id": 20057, "product": "Talisker Storm 700ml", "salesprice": 61.89, "salespricerrp": 62.87, "sizevalue": 0.7, "sizeunit": "l", "isWeighted": false, "bcrs": false, "country": null, "category": "winecellar", "labels": "Wine Cellar; Spirits"}, {"product_id": 20065, "product": "Conde Jose Sauvignon Blanc 75cl", "salesprice": 8.82, "salespricerrp": 10.5, "sizevalue": 0.75, "sizeunit": "l", "isWeighted": false, "bcrs": false, "country": null, "category": "winecellar", "labels": "Wines; Wine Cellar; Foreign Wines"}, {"product_id": 20076, "product": "Drumshanbo Gunpowder Irish Gin With Sardinian Citrus 700ml", "salesprice": 45.61, "salespricerrp": 47.26, "sizevalue": 0.7, "sizeunit": "l", "isWeighted": false, "bcrs": false, "country": null, "category": "winecellar", "labels": "Wine Cellar; Spirits"}, {"product_id": 20093, "product": "Puiss Saintemilion Chatmoulindecurat 750ml", "salesprice": 17.95, "salespricerrp": 19, "sizevalue": 0.75, "sizeunit": "l", "isWeighted": false, "bcrs": false, "country": null, "category": "winecellar", "labels": "Wines; Wine Cellar; Foreign Wines"}, {"product_id": 20098, "product": "Leopard's Leap Chenin Blanc 750ml", "salesprice": 8.21, "salespricerrp": 9.17, "sizevalue": 0.75, "sizeunit": "l", "isWeighted": false, "bcrs": false, "country": "South Africa", "category": "winecellar", "labels": "Wines; Wine Cellar; Foreign Wines"}, {"product_id": 20111, "product": "Les Breteches Rouge Chateau Kefraya Lebanon 75cl", "salesprice": 13.22, "salespricerrp": 13.99, "sizevalue": 0.75, "sizeunit": "l", "isWeighted": false, "bcrs": false, "country": null, "category": "winecellar", "labels": "Wines; Wine Cellar; Foreign Wines"}, {"product_id": 20116, "product": "Sierra Nevada California Ipa Can 355ml", "salesprice": 2.9, "salespricerrp": 2.96, "sizevalue": 0.36, "sizeunit": "l", "isWeighted": false, "bcrs": true, "country": null, "category": "winecellar", "labels": "Beer and Ciders; Wine Cellar; Beers"}, {"product_id": 20126, "product": "Franziskanser Dunkel 500ml", "salesprice": 2.25, "salespricerrp": 2.5, "sizevalue": 0.5, "sizeunit": "l", "isWeighted": false, "bcrs": true, "country": null, "category": "winecellar", "labels": "Beer and Ciders; Wine Cellar; Beers"}], "page": 3, "currentRecords": 20, "offset": 60, "totalRecords": 100, "totalPages": 4}