{"products": [{"product_id": 20136, "product": "Sierra Torpedo Can 355ml", "salesprice": 2.87, "salespricerrp": 2.96, "sizevalue": 0.36, "sizeunit": "l", "isWeighted": false, "bcrs": true, "country": null, "category": "winecellar", "labels": "Beer and Ciders; Wine Cellar; Beers"}, {"product_id": 20139, "product": "Flor De Vetus Do Rueda 75cl", "salesprice": 9.95, "salespricerrp": 13.37, "sizevalue": 0.75, "sizeunit": "l", "isWeighted": false, "bcrs": false, "country": null, "category": "winecellar", "labels": "Wines; Wine Cellar; Foreign Wines"}, {"product_id": 20142, "product": "J.koll Liebfraumilch Blue Bottle 750ml", "salesprice": 7.09, "salespricerrp": 7.14, "sizevalue": 0.75, "sizeunit": "l", "isWeighted": false, "bcrs": false, "country": null, "category": "winecellar", "labels": "Wine Cellar; Spirits"}, {"product_id": 20149, "product": "Leasingham Jam Shed Malbec 750ml", "salesprice": 5.68, "salespricerrp": 5.99, "sizevalue": 0.75, "sizeunit": "l", "isWeighted": false, "bcrs": false, "country": null, "category": "winecellar", "labels": "Wines; Wine Cellar; Foreign Wines"}, {"product_id": 20175, "product": "Santero 958 Rossini 750ml", "salesprice": 7.61, "salespricerrp": 7.99, "sizevalue": 0.75, "sizeunit": "l", "isWeighted": false, "bcrs": false, "country": null, "category": "winecellar", "labels": "Wines; Wine Cellar; Foreign Wines"}, {"product_id": 20180, "product": "Marsovin Citadella White 750ml Exc Empty Bottle", "salesprice": 3.68, "salespricerrp": 4.11, "sizevalue": 0.75, "sizeunit": "l", "isWeighted": false, "bcrs": false, "country": null, "category": "winecellar", "labels": "Wines; Wine Cellar; Marsovin; Local Wine"}, {"product_id": 20191, "product": "Chateau Laurens Lnguedoc Faugere Bio 75cl", "salesprice": 9.95, "salespricerrp": 12, "sizevalue": 0.75, "sizeunit": "l", "isWeighted": false, "bcrs": false, "country": null, "category": "winecellar", "labels": "Wines; Wine Cellar; Foreign Wines"}, {"product_id": 20201, "product": "Calvet Cabernet Sauvignon 2019 750ml", "salesprice": 5.73, "salespricerrp": 5.99, "sizevalue": 0.75, "sizeunit": "l", "isWeighted": false, "bcrs": false, "country": null, "category": "winecellar", "labels": "Wines; Wine Cellar; Foreign Wines"}, {"product_id": 20202, "product": "Paolini Vino Frappato 75cl", "salesprice": 3.95, "salespricerrp": 4.75, "sizevalue": 0.75, "sizeunit": "l", "isWeighted": false, "bcrs": false, "country": null, "category": "winecellar", "labels": "Wines; Wine Cellar; Foreign Wines"}, {"product_id": 20205, "product": "Nicosia Spumante Gari' Grillo Doc Sicilia 750ml", "salesprice": 8.98, "salespricerrp": 11.25, "sizevalue": 0.75, "sizeunit": "l", "isWeighted": false, "bcrs": false, "country": null, "category": "winecellar", "labels": "NICO; Champagne and Sparkling Wine; Wines and Champagne; Wine Cellar"}, {"product_id": 20206, "product": "Barone Di Bernaj Cabernet Sauvignon 75cl", "salesprice": 3.95, "salespricerrp": 4.29, "sizevalue": 0.75, "sizeunit": "l", "isWeighted": false, "bcrs": false, "country": null, "category": "winecellar", "labels": "Wines; BARONE DI BERNAJ; Wine Cellar; Foreign Wines"}, {"product_id": 20218, "product": "Ulysses Chenin Chardonnay 750ml", "salesprice": 11.26, "salespricerrp": 12.03, "sizevalue": 0.75, "sizeunit": "l", "isWeighted": false, "bcrs": false, "country": null, "category": "winecellar", "labels": "Wines; Wine Cellar; Marsovin; Local Wine"}, {"product_id": 20221, "product": "Tommasi Ripasso Valpolicella 750ml", "salesprice": 31.61, "salespricerrp": 33.45, "sizevalue": 0.75, "sizeunit": "l", "isWeighted": false, "bcrs": false, "country": null, "category": "winecellar", "labels": "Wines; Wine Cellar; Foreign Wines"}, {"product_id": 20223, "product": "Jacobs Creek Shiraz Cabernet Classic 750ml", "salesprice": 8.69, "salespricerrp": 9.69, "sizevalue": 0.75, "sizeunit": "l", "isWeighted": false, "bcrs": false, "country": null, "category": "winecellar", "labels": "Wines; Wine Cellar; Foreign Wines; Jacob'S Creek"}, {"product_id": 20232, "product": "Curatolo Zibibbo Liquoroso 750ml", "salesprice": 18.82, "salespricerrp": 19.91, "sizevalue": 0.75, "sizeunit": "l", "isWeighted": false, "bcrs": false, "country": null, "category": "winecellar", "labels": "Wines; Wine Cellar; Foreign Wines"}, {"product_id": 20236, "product": "Chateau Moulinet La Serre 750ml", "salesprice": 39.85, "salespricerrp": 52, "sizevalue": 0.75, "sizeunit": "l", "isWeighted": false, "bcrs": false, "country": null, "category": "winecellar", "labels": "Wines; Wine Cellar; Foreign Wines"}, {"product_id": 20240, "product": "Montecore Primitivo 75cl", "salesprice": 5.95, "salespricerrp": 8, "sizevalue": 0.75, "sizeunit": "l", "isWeighted": false, "bcrs": false, "country": null, "category": "winecellar", "labels": "Wines; Wine Cellar; Foreign Wines"}, {"product_id": 20241, "product": "Dewar's Scotch Whisky White Label, 700ml", "salesprice": 13.91, "salespricerrp": 16.99, "sizevalue": 0.7, "sizeunit": "l", "isWeighted": false, "bcrs": false, "country": null, "category": "winecellar", "labels": "DEWARS; Wine Cellar; Spirits"}, {"product_id": 20245, "product": "Canti Cuvee Dolce Rose 750ml", "salesprice": 8.11, "salespricerrp": 8.53, "sizevalue": 0.75, "sizeunit": "l", "isWeighted": false, "bcrs": false, "country": null, "category": "winecellar", "labels": "Wines; Wine Cellar; Foreign Wines"}, {"product_id": 20272, "product": "Viu Manent Malbec Rose 750ml", "salesprice": 8.63, "salespricerrp": 8.83, "sizevalue": 0.75, "sizeunit": "l", "isWeighted": false, "bcrs": false, "country": null, "category": "winecellar", "labels": "Wines; Wine Cellar; Foreign Wines"}], "page": 4, "currentRecords": 20, "offset": 80, "totalRecords": 100, "totalPages": 4}