{"products": [{"product_id": 19735, "product": "Kiwi Small", "salesprice": 4.75, "salespricerrp": 4.75, "sizevalue": 1, "sizeunit": "kg", "isWeighted": true, "bcrs": false, "country": null, "category": "fruitsandvegetables", "labels": "Fruit; Kiwi; Fruits and Vegetables"}, {"product_id": 19787, "product": "Aloc X Amazonica", "salesprice": 16.18, "salespricerrp": 16.18, "sizevalue": 1, "sizeunit": "p", "isWeighted": false, "bcrs": false, "country": null, "category": "fruitsandvegetables", "labels": "Flowers; Fruits and Vegetables"}, {"product_id": 19791, "product": "Pineapple, Fennel & Ginger Juice", "salesprice": 2.95, "salespricerrp": 2.95, "sizevalue": 1, "sizeunit": "p", "isWeighted": false, "bcrs": false, "country": null, "category": "fruitsandvegetables", "labels": "Other Vegetables; Fruits and Vegetables; Vegetables"}, {"product_id": 19833, "product": "Tofu/vegetable Kebab", "salesprice": 1.25, "salespricerrp": 1.25, "sizevalue": 1, "sizeunit": "p", "isWeighted": false, "bcrs": false, "country": null, "category": "fruitsandvegetables", "labels": "Other Vegetables; Fruits and Vegetables; Vegetables"}, {"product_id": 19834, "product": "Aglaonema", "salesprice": 23.6, "salespricerrp": 23.6, "sizevalue": 1, "sizeunit": "p", "isWeighted": false, "bcrs": false, "country": null, "category": "fruitsandvegetables", "labels": "Flowers; Fruits and Vegetables"}, {"product_id": 19846, "product": "Pink Oyster Mushrooms", "salesprice": 50.06, "salespricerrp": 50.06, "sizevalue": 1, "sizeunit": "kg", "isWeighted": true, "bcrs": false, "country": null, "category": "fruitsandvegetables", "labels": "Weighted Vegetables; Fruits and Vegetables; Vegetables"}, {"product_id": 19868, "product": "White Diced Onions 200g", "salesprice": 0.99, "salespricerrp": 0.99, "sizevalue": 1, "sizeunit": "p", "isWeighted": false, "bcrs": false, "country": null, "category": "fruitsandvegetables", "labels": "Other Vegetables; Fruits and Vegetables; Vegetables"}, {"product_id": 19908, "product": "Peperomia", "salesprice": 11.67, "salespricerrp": 11.67, "sizevalue": 1, "sizeunit": "p", "isWeighted": false, "bcrs": false, "country": null, "category": "fruitsandvegetables", "labels": "Flowers; Fruits and Vegetables"}, {"product_id": 19913, "product": "Apple Wedges", "salesprice": 0.98, "salespricerrp": 0.98, "sizevalue": 1, "sizeunit": "p", "isWeighted": false, "bcrs": false, "country": null, "category": "fruitsandvegetables", "labels": "Other Vegetables; Fruits and Vegetables; Vegetables"}, {"product_id": 19928, "product": "Aloc X Amazonica", "salesprice": 52.99, "salespricerrp": 52.99, "sizevalue": 1, "sizeunit": "p", "isWeighted": false, "bcrs": false, "country": null, "category": "fruitsandvegetables", "labels": "Flowers; Fruits and Vegetables"}, {"product_id": 19939, "product": "Calat Sanderiana", "salesprice": 52.99, "salespricerrp": 52.99, "sizevalue": 1, "sizeunit": "p", "isWeighted": false, "bcrs": false, "country": null, "category": "fruitsandvegetables", "labels": "Flowers; Fruits and Vegetables"}, {"product_id": 19948, "product": "Potatoes ( 4kg Bag )", "salesprice": 4.8, "salespricerrp": 4.8, "sizevalue": 1, "sizeunit": "p", "isWeighted": false, "bcrs": false, "country": null, "category": "fruitsandvegetables", "labels": "Potatoes; Fruits and Vegetables; Vegetables"}, {"product_id": 19984, "product": "Rhubarb Per Kg", "salesprice": 8.02, "salespricerrp": 8.02, "sizevalue": 1, "sizeunit": "kg", "isWeighted": true, "bcrs": false, "country": null, "category": "fruitsandvegetables", "labels": "Weighted Vegetables; Fruits and Vegetables; Vegetables"}, {"product_id": 20011, "product": "Coriander In Pot", "salesprice": 4.13, "salespricerrp": 4.13, "sizevalue": 1, "sizeunit": "p", "isWeighted": false, "bcrs": false, "country": null, "category": "fruitsandvegetables", "labels": "Herbs Spices and Cubes; Herbs; Fruits and Vegetables"}, {"product_id": 20016, "product": "Pears ( Peeled Prickley Pears )", "salesprice": 4.95, "salespricerrp": 4.95, "sizevalue": 1, "sizeunit": "p", "isWeighted": false, "bcrs": false, "country": null, "category": "fruitsandvegetables", "labels": "Other Vegetables; Fruits and Vegetables; Vegetables"}, {"product_id": 20027, "product": "Hericot Verts", "salesprice": 3.74, "salespricerrp": 3.74, "sizevalue": 1, "sizeunit": "p", "isWeighted": false, "bcrs": false, "country": null, "category": "fruitsandvegetables", "labels": "Other Vegetables; Fruits and Vegetables; Vegetables"}, {"product_id": 20070, "product": "Carrots Spaggetti Fresh", "salesprice": 2.95, "salespricerrp": 2.95, "sizevalue": 1, "sizeunit": "p", "isWeighted": false, "bcrs": false, "country": null, "category": "fruitsandvegetables", "labels": "Other Vegetables; Fruits and Vegetables; Vegetables"}, {"product_id": 20074, "product": "Chicken Hazelnut Ceaser", "salesprice": 5.95, "salespricerrp": 5.95, "sizevalue": 1, "sizeunit": "p", "isWeighted": false, "bcrs": false, "country": null, "category": "fruitsandvegetables", "labels": "Other Vegetables; Fruits and Vegetables; Vegetables"}, {"product_id": 20087, "product": "Barlotti Pears", "salesprice": 4.95, "salespricerrp": 4.95, "sizevalue": 1, "sizeunit": "kg", "isWeighted": true, "bcrs": false, "country": null, "category": "fruitsandvegetables", "labels": "Apples and Pears; Fruit; Fruits and Vegetables"}, {"product_id": 20148, "product": "Vriesea Astrid", "salesprice": 15.12, "salespricerrp": 15.12, "sizevalue": 1, "sizeunit": "p", "isWeighted": false, "bcrs": false, "country": null, "category": "fruitsandvegetables", "labels": "Flowers; Fruits and Vegetables"}], "page": 1, "currentRecords": 20, "offset": 20, "totalRecords": 100, "totalPages": 4}