{"products": [{"product_id": 20174, "product": "Pear ( Prickly Pears ) Per Kg", "salesprice": 3.45, "salespricerrp": 3.45, "sizevalue": 1, "sizeunit": "p", "isWeighted": true, "bcrs": false, "country": null, "category": "fruitsandvegetables", "labels": "Apples and Pears; Fruit; Fruits and Vegetables"}, {"product_id": 20234, "product": "Fic Beng Roy", "salesprice": 12.79, "salespricerrp": 12.79, "sizevalue": 1, "sizeunit": "p", "isWeighted": false, "bcrs": false, "country": null, "category": "fruitsandvegetables", "labels": "Flowers; Fruits and Vegetables"}, {"product_id": 20247, "product": "Doreoc Special Frites 2.5kg", "salesprice": 2.95, "salespricerrp": 2.95, "sizevalue": 0, "sizeunit": null, "isWeighted": false, "bcrs": false, "country": null, "category": "fruitsandvegetables", "labels": "Other Vegetables; Fruits and Vegetables; Vegetables"}, {"product_id": 20319, "product": "Vegetable Couscous", "salesprice": 8.93, "salespricerrp": 8.93, "sizevalue": 1, "sizeunit": "kg", "isWeighted": true, "bcrs": false, "country": "Malta", "category": "fruitsandvegetables", "labels": "Salads; Fruits and Vegetables"}, {"product_id": 20382, "product": "Peperomia", "salesprice": 11.42, "salespricerrp": 11.42, "sizevalue": 1, "sizeunit": "p", "isWeighted": false, "bcrs": false, "country": null, "category": "fruitsandvegetables", "labels": "Flowers; Fruits and Vegetables"}, {"product_id": 20389, "product": "Fruit Salad Cups", "salesprice": 2.25, "salespricerrp": 2.25, "sizevalue": 1, "sizeunit": "p", "isWeighted": false, "bcrs": false, "country": null, "category": "fruitsandvegetables", "labels": "Salads; Other Pre-Packed Salads; Fruits and Vegetables"}, {"product_id": 20405, "product": "Ger Colourgame Gem", "salesprice": 5.1, "salespricerrp": 5.1, "sizevalue": 1, "sizeunit": "p", "isWeighted": false, "bcrs": false, "country": null, "category": "fruitsandvegetables", "labels": "Flowers; Fruits and Vegetables"}, {"product_id": 20406, "product": "White Grapes, 1kg", "salesprice": 4.95, "salespricerrp": 4.95, "sizevalue": 1, "sizeunit": "kg", "isWeighted": true, "bcrs": false, "country": null, "category": "fruitsandvegetables", "labels": "Fruit; Fruits and Vegetables; Grapes"}, {"product_id": 20416, "product": "Dra Gem", "salesprice": 19.34, "salespricerrp": 19.34, "sizevalue": 1, "sizeunit": "p", "isWeighted": false, "bcrs": false, "country": null, "category": "fruitsandvegetables", "labels": "Flowers; Fruits and Vegetables"}, {"product_id": 20425, "product": "Pumpkin Qararotta", "salesprice": 1.75, "salespricerrp": 1.75, "sizevalue": 1, "sizeunit": "kg", "isWeighted": true, "bcrs": false, "country": null, "category": "fruitsandvegetables", "labels": "Weighted Vegetables; Fruits and Vegetables; Vegetables"}, {"product_id": 20428, "product": "Beef & Fagioli Soup 500ml", "salesprice": 4.95, "salespricerrp": 5.2, "sizevalue": 0.5, "sizeunit": "l", "isWeighted": false, "bcrs": false, "country": "Malta", "category": "fruitsandvegetables", "labels": "Other Vegetables; Fruits and Vegetables; Vegetables"}, {"product_id": 20430, "product": "Apple & Ginger Juice 500ml", "salesprice": 5.75, "salespricerrp": 5.75, "sizevalue": 1, "sizeunit": "p", "isWeighted": false, "bcrs": false, "country": null, "category": "fruitsandvegetables", "labels": "Other Vegetables; Fruits and Vegetables; Vegetables"}, {"product_id": 20450, "product": "Chicken Katsu Baguette", "salesprice": 5.45, "salespricerrp": 5.72, "sizevalue": 1, "sizeunit": "p", "isWeighted": false, "bcrs": false, "country": null, "category": "fruitsandvegetables", "labels": "Other Vegetables; Fruits and Vegetables; Vegetables"}, {"product_id": 20454, "product": "Papaya,mango & Dragon Fruit Platter", "salesprice": 3.95, "salespricerrp": 3.95, "sizevalue": 1, "sizeunit": "p", "isWeighted": false, "bcrs": false, "country": null, "category": "fruitsandvegetables", "labels": "Other Vegetables; Fruits and Vegetables; Vegetables"}, {"product_id": 20465, "product": "Ro Baby Jewel", "salesprice": 6.69, "salespricerrp": 6.69, "sizevalue": 1, "sizeunit": "p", "isWeighted": false, "bcrs": false, "country": null, "category": "fruitsandvegetables", "labels": "Flowers; Fruits and Vegetables"}, {"product_id": 20472, "product": "Kiwi Gold", "salesprice": 8, "salespricerrp": 8, "sizevalue": 1, "sizeunit": "kg", "isWeighted": true, "bcrs": false, "country": null, "category": "fruitsandvegetables", "labels": "Fruit; Kiwi; Fruits and Vegetables"}, {"product_id": 20482, "product": "Coconut", "salesprice": 1.65, "salespricerrp": 1.65, "sizevalue": 1, "sizeunit": "p", "isWeighted": false, "bcrs": false, "country": null, "category": "fruitsandvegetables", "labels": "Fruit; Exotic Fruit; Fruits and Vegetables"}, {"product_id": 20484, "product": "Aloe Vera", "salesprice": 12.41, "salespricerrp": 12.41, "sizevalue": 1, "sizeunit": "p", "isWeighted": false, "bcrs": false, "country": null, "category": "fruitsandvegetables", "labels": "Flowers; Fruits and Vegetables"}, {"product_id": 20491, "product": "Avocado Ready To Eat Per Piece", "salesprice": 1.4, "salespricerrp": 1.4, "sizevalue": 1, "sizeunit": "p", "isWeighted": false, "bcrs": false, "country": null, "category": "fruitsandvegetables", "labels": "Other Vegetables; Fruits and Vegetables; Vegetables"}, {"product_id": 20500, "product": "Naga Jolokia 80g", "salesprice": 10.96, "salespricerrp": 10.96, "sizevalue": 1, "sizeunit": "kg", "isWeighted": true, "bcrs": false, "country": null, "category": "fruitsandvegetables", "labels": "Fresh Green Vegetables; Fruits and Vegetables; Vegetables"}], "page": 2, "currentRecords": 20, "offset": 40, "totalRecords": 100, "totalPages": 4}