{"products": [{"product_id": 20518, "product": "Swede Per Kg", "salesprice": 2.69, "salespricerrp": 2.69, "sizevalue": 1, "sizeunit": "kg", "isWeighted": true, "bcrs": false, "country": null, "category": "fruitsandvegetables", "labels": "Weighted Vegetables; Fruits and Vegetables; Vegetables"}, {"product_id": 20519, "product": "Wallnuts In Figs/dates/apricots", "salesprice": 16.95, "salespricerrp": 16.95, "sizevalue": 1, "sizeunit": "kg", "isWeighted": true, "bcrs": false, "country": null, "category": "fruitsandvegetables", "labels": "Weighted Vegetables; Fruits and Vegetables; Vegetables"}, {"product_id": 20553, "product": "Aubergines By Kg", "salesprice": 3.24, "salespricerrp": 3.24, "sizevalue": 1, "sizeunit": "p", "isWeighted": true, "bcrs": false, "country": null, "category": "fruitsandvegetables", "labels": "Aubergines; Fruits and Vegetables; Vegetables"}, {"product_id": 20558, "product": "Spaghetti Squash Per Kg", "salesprice": 4.7, "salespricerrp": 4.7, "sizevalue": 1, "sizeunit": "kg", "isWeighted": true, "bcrs": false, "country": null, "category": "fruitsandvegetables", "labels": "Weighted Vegetables; Fruits and Vegetables; Vegetables"}, {"product_id": 20625, "product": "Cut Beans", "salesprice": 12.63, "salespricerrp": 12.63, "sizevalue": 1, "sizeunit": "kg", "isWeighted": true, "bcrs": false, "country": null, "category": "fruitsandvegetables", "labels": "Beans; Beans Peas and Sprouts; Fruits and Vegetables"}, {"product_id": 20793, "product": "Red Watermelons Quarter", "salesprice": 3.22, "salespricerrp": 3.22, "sizevalue": 1, "sizeunit": "p", "isWeighted": true, "bcrs": false, "country": null, "category": "fruitsandvegetables", "labels": "Melons; Fruits and Vegetables; Vegetables"}, {"product_id": 20820, "product": "Nettle Leaves 110g", "salesprice": 4.12, "salespricerrp": 4.12, "sizevalue": 0.11, "sizeunit": "kg", "isWeighted": false, "bcrs": false, "country": null, "category": "fruitsandvegetables", "labels": "Herbs Spices and Cubes; Herbs; Fruits and Vegetables"}, {"product_id": 20932, "product": "Mixed Fruit Smoothie", "salesprice": 2.95, "salespricerrp": 2.95, "sizevalue": 1, "sizeunit": "p", "isWeighted": false, "bcrs": false, "country": null, "category": "fruitsandvegetables", "labels": "Other Vegetables; Fruits and Vegetables; Vegetables"}, {"product_id": 20976, "product": "Ginger", "salesprice": 6.8, "salespricerrp": 6.8, "sizevalue": 1, "sizeunit": "p", "isWeighted": true, "bcrs": false, "country": null, "category": "fruitsandvegetables", "labels": "Ginger; Fruits and Vegetables; Vegetables"}, {"product_id": 20984, "product": "Erica Darley White Perfect", "salesprice": 4.78, "salespricerrp": 4.78, "sizevalue": 1, "sizeunit": "p", "isWeighted": false, "bcrs": false, "country": null, "category": "fruitsandvegetables", "labels": "Flowers; Fruits and Vegetables"}, {"product_id": 20986, "product": "Chrys Gem In Pot", "salesprice": 5.86, "salespricerrp": 5.86, "sizevalue": 1, "sizeunit": "p", "isWeighted": false, "bcrs": false, "country": null, "category": "fruitsandvegetables", "labels": "Flowers; Fruits and Vegetables"}, {"product_id": 21019, "product": "Plum Vine Tomatoes", "salesprice": 5.31, "salespricerrp": 5.31, "sizevalue": 1, "sizeunit": "kg", "isWeighted": true, "bcrs": false, "country": null, "category": "fruitsandvegetables", "labels": "Weighted Vegetables; Fruits and Vegetables; Vegetables"}, {"product_id": 21058, "product": "Yellow French Beans By Kg", "salesprice": 16.13, "salespricerrp": 16.13, "sizevalue": 1, "sizeunit": "kg", "isWeighted": true, "bcrs": false, "country": null, "category": "fruitsandvegetables", "labels": "Weighted Vegetables; Fruits and Vegetables; Vegetables"}, {"product_id": 21067, "product": "Mango Smoothie", "salesprice": 2.95, "salespricerrp": 2.95, "sizevalue": 1, "sizeunit": "p", "isWeighted": false, "bcrs": false, "country": null, "category": "fruitsandvegetables", "labels": "Other Vegetables; Fruits and Vegetables; Vegetables"}, {"product_id": 21069, "product": "Shredded Tri Colori X300g", "salesprice": 1.98, "salespricerrp": 1.98, "sizevalue": 0.2, "sizeunit": "p", "isWeighted": false, "bcrs": false, "country": "Italia", "category": "fruitsandvegetables", "labels": "Fruit and Vegetable (Freshly Cut); Fresh Cut Fruit and Vegetables; Fruits and Vegetables"}, {"product_id": 21072, "product": "Calat Ov", "salesprice": 10.1, "salespricerrp": 10.1, "sizevalue": 1, "sizeunit": "p", "isWeighted": false, "bcrs": false, "country": null, "category": "fruitsandvegetables", "labels": "Flowers; Fruits and Vegetables"}, {"product_id": 21086, "product": "Pomegranate Seed", "salesprice": 3.95, "salespricerrp": 3.95, "sizevalue": 1, "sizeunit": "p", "isWeighted": false, "bcrs": false, "country": null, "category": "fruitsandvegetables", "labels": "Other Vegetables; Fruits and Vegetables; Vegetables"}, {"product_id": 21091, "product": "Ginger & Turmeric Shots 150ml", "salesprice": 2.75, "salespricerrp": 2.75, "sizevalue": 1, "sizeunit": "p", "isWeighted": false, "bcrs": false, "country": null, "category": "fruitsandvegetables", "labels": "Other Vegetables; Fruits and Vegetables; Vegetables"}, {"product_id": 21113, "product": "Carrots With Leafs", "salesprice": 2.06, "salespricerrp": 2.06, "sizevalue": 1, "sizeunit": "kg", "isWeighted": false, "bcrs": false, "country": null, "category": "fruitsandvegetables", "labels": "Other Vegetables; Fruits and Vegetables; Vegetables"}, {"product_id": 21142, "product": "Turnips ( Foreign Turnips )", "salesprice": 2.19, "salespricerrp": 2.19, "sizevalue": 1, "sizeunit": "kg", "isWeighted": true, "bcrs": false, "country": null, "category": "fruitsandvegetables", "labels": "Weighted Vegetables; Fruits and Vegetables; Vegetables"}], "page": 3, "currentRecords": 20, "offset": 60, "totalRecords": 100, "totalPages": 4}