{"products": [{"product_id": 21183, "product": "Apples ( Golden Delicious Apples ) By Kg", "salesprice": 2.82, "salespricerrp": 2.82, "sizevalue": 1, "sizeunit": "kg", "isWeighted": true, "bcrs": false, "country": null, "category": "fruitsandvegetables", "labels": "Apples and Pears; Fruit; Fruits and Vegetables"}, {"product_id": 21195, "product": "Pineapple ( Peeled Pineapple )", "salesprice": 3.75, "salespricerrp": 3.75, "sizevalue": 1, "sizeunit": "p", "isWeighted": false, "bcrs": false, "country": null, "category": "fruitsandvegetables", "labels": "Fruit; Pineapple; Fruits and Vegetables"}, {"product_id": 21208, "product": "Sliced Red Onions 500g", "salesprice": 1.75, "salespricerrp": 1.75, "sizevalue": 0.5, "sizeunit": "kg", "isWeighted": false, "bcrs": false, "country": null, "category": "fruitsandvegetables", "labels": "Other Vegetables; Fruits and Vegetables; Vegetables"}, {"product_id": 21261, "product": "Marjoram In Pot", "salesprice": 4.2, "salespricerrp": 4.2, "sizevalue": 1, "sizeunit": "p", "isWeighted": false, "bcrs": false, "country": null, "category": "fruitsandvegetables", "labels": "Herbs Spices and Cubes; Herbs; Fruits and Vegetables"}, {"product_id": 21297, "product": "Figs ( Fresh Figs ) By Kg", "salesprice": 33.82, "salespricerrp": 33.82, "sizevalue": 1, "sizeunit": "kg", "isWeighted": true, "bcrs": false, "country": null, "category": "fruitsandvegetables", "labels": "Fruit; Organic Fruit; Fruits and Vegetables"}, {"product_id": 21324, "product": "Ro Am Inf Soft Pink", "salesprice": 7.93, "salespricerrp": 7.93, "sizevalue": 1, "sizeunit": "p", "isWeighted": false, "bcrs": false, "country": null, "category": "fruitsandvegetables", "labels": "Flowers; Fruits and Vegetables"}, {"product_id": 21325, "product": "Toffee & Cinnamon Apple Granola Cup", "salesprice": 2.45, "salespricerrp": 2.45, "sizevalue": 1, "sizeunit": "p", "isWeighted": false, "bcrs": false, "country": null, "category": "fruitsandvegetables", "labels": "Other Vegetables; Fruits and Vegetables; Vegetables"}, {"product_id": 21338, "product": "Baby Roses Plantx12", "salesprice": 55, "salespricerrp": 55, "sizevalue": 1, "sizeunit": "p", "isWeighted": false, "bcrs": false, "country": null, "category": "fruitsandvegetables", "labels": "Flowers; Fruits and Vegetables"}, {"product_id": 21350, "product": "Pachira Aquatica", "salesprice": 15.13, "salespricerrp": 15.13, "sizevalue": 1, "sizeunit": "p", "isWeighted": false, "bcrs": false, "country": null, "category": "fruitsandvegetables", "labels": "Flowers; Fruits and Vegetables"}, {"product_id": 21360, "product": "Duck Bao Buns", "salesprice": 7.45, "salespricerrp": 7.82, "sizevalue": 1, "sizeunit": "p", "isWeighted": false, "bcrs": false, "country": null, "category": "fruitsandvegetables", "labels": "Other Vegetables; Fruits and Vegetables; Vegetables"}, {"product_id": 21388, "product": "Yellow Tomatoes", "salesprice": 6.19, "salespricerrp": 6.19, "sizevalue": 1, "sizeunit": "kg", "isWeighted": true, "bcrs": false, "country": null, "category": "fruitsandvegetables", "labels": "Tomatoes; Fruits and Vegetables; Vegetables"}, {"product_id": 21427, "product": "Pteris Straminea", "salesprice": 9.62, "salespricerrp": 9.62, "sizevalue": 1, "sizeunit": "p", "isWeighted": false, "bcrs": false, "country": null, "category": "fruitsandvegetables", "labels": "Flowers; Fruits and Vegetables"}, {"product_id": 21439, "product": "Mill Kcina Taz Zija Freskezza Spinach 300g", "salesprice": 2.74, "salespricerrp": 2.85, "sizevalue": 0.3, "sizeunit": "p", "isWeighted": false, "bcrs": false, "country": null, "category": "fruitsandvegetables", "labels": "Salads; Mil-Kcina Taz-Zija; Other Pre-Packed Salads; Fruits and Vegetables"}, {"product_id": 21460, "product": "Figs Smoothie", "salesprice": 2.95, "salespricerrp": 2.95, "sizevalue": 1, "sizeunit": "p", "isWeighted": false, "bcrs": false, "country": null, "category": "fruitsandvegetables", "labels": "Other Vegetables; Fruits and Vegetables; Vegetables"}, {"product_id": 21464, "product": "Herbs ( Fresh Thyme ) Pkts", "salesprice": 1.45, "salespricerrp": 1.45, "sizevalue": 1, "sizeunit": "p", "isWeighted": false, "bcrs": false, "country": null, "category": "fruitsandvegetables", "labels": "Herbs Spices and Cubes; Herbs; Fruits and Vegetables"}, {"product_id": 21478, "product": "Baby Spinach 350g", "salesprice": 5.5, "salespricerrp": 5.5, "sizevalue": 1, "sizeunit": "kg", "isWeighted": false, "bcrs": false, "country": null, "category": "fruitsandvegetables", "labels": "Salads; Other Pre-Packed Salads; Fruits and Vegetables"}, {"product_id": 21503, "product": "Mustard Ground 350g", "salesprice": 4.35, "salespricerrp": 4.35, "sizevalue": 0.35, "sizeunit": "kg", "isWeighted": false, "bcrs": false, "country": null, "category": "fruitsandvegetables", "labels": "Herbs Spices and Cubes; Herbs; Fruits and Vegetables"}, {"product_id": 21531, "product": "Grapefruit Juice 250ml", "salesprice": 2.58, "salespricerrp": 2.58, "sizevalue": 1, "sizeunit": "p", "isWeighted": false, "bcrs": false, "country": null, "category": "fruitsandvegetables", "labels": "Other Vegetables; Fruits and Vegetables; Vegetables"}, {"product_id": 21532, "product": "Arr  Strelitzia L%", "salesprice": 15.38, "salespricerrp": 15.38, "sizevalue": 1, "sizeunit": "p", "isWeighted": false, "bcrs": false, "country": null, "category": "fruitsandvegetables", "labels": "Flowers; Fruits and Vegetables"}, {"product_id": 21535, "product": "Beg Du Gem", "salesprice": 7.81, "salespricerrp": 7.81, "sizevalue": 1, "sizeunit": "p", "isWeighted": false, "bcrs": false, "country": null, "category": "fruitsandvegetables", "labels": "Flowers; Fruits and Vegetables"}], "page": 4, "currentRecords": 20, "offset": 80, "totalRecords": 100, "totalPages": 4}