{"products": [{"product_id": 19670, "product": "Smart Organic Sesame Seeds 250g", "salesprice": 2.74, "salespricerrp": 2.85, "sizevalue": 0.25, "sizeunit": "kg", "isWeighted": false, "bcrs": false, "country": null, "category": "organic", "labels": "Organic; Smart Organic; Organic Food; Dietary Food"}, {"product_id": 19676, "product": "Misura Biscotti Fibrextra Integrali 330g", "salesprice": 3.06, "salespricerrp": 3.29, "sizevalue": 0.33, "sizeunit": "kg", "isWeighted": false, "bcrs": false, "country": null, "category": "organic", "labels": "Organic; Misura; Dietary Food"}, {"product_id": 19688, "product": "Alpro Yofu Nas Single Passion Fruit 135g", "salesprice": 1.53, "salespricerrp": 1.85, "sizevalue": 0.14, "sizeunit": "kg", "isWeighted": false, "bcrs": false, "country": null, "category": "organic", "labels": "Organic; Gluten Free Products; Dietary Food; Alpro"}, {"product_id": 19701, "product": "Kelkin Peanut Butter Smooth 350g", "salesprice": 4.12, "salespricerrp": 4.4, "sizevalue": 0.35, "sizeunit": "kg", "isWeighted": false, "bcrs": false, "country": null, "category": "organic", "labels": "Organic; Gluten Free Products; Dietary Food; Kelkin"}, {"product_id": 19704, "product": "Powerbar Natural Energy Bar Vegan Sweet And Salty 40g", "salesprice": 1.42, "salespricerrp": 1.49, "sizevalue": 0.04, "sizeunit": "kg", "isWeighted": false, "bcrs": false, "country": null, "category": "organic", "labels": "Organic; Dietary Food"}, {"product_id": 19718, "product": "Biona Rye Bread Amaranth 500g", "salesprice": 3.37, "salespricerrp": 3.5, "sizevalue": 0.5, "sizeunit": "kg", "isWeighted": false, "bcrs": false, "country": null, "category": "organic", "labels": "Biona; Organic; Organic Food; Dietary Food"}, {"product_id": 19736, "product": "Damhert Apricot Jam 210g", "salesprice": 2.58, "salespricerrp": 2.86, "sizevalue": 0.21, "sizeunit": "kg", "isWeighted": false, "bcrs": false, "country": null, "category": "organic", "labels": "Organic; Sugar Free Products; Dietary Food"}, {"product_id": 19739, "product": "Pensa Bio Pealed Sunflower Seeds 250g", "salesprice": 2.54, "salespricerrp": 2.65, "sizevalue": 0.25, "sizeunit": "kg", "isWeighted": false, "bcrs": false, "country": null, "category": "organic", "labels": "Organic; Dietary Food"}, {"product_id": 19742, "product": "Vitalp Sugar Free Orange 25g", "salesprice": 1.2, "salespricerrp": 1.2, "sizevalue": 0.25, "sizeunit": "kg", "isWeighted": false, "bcrs": false, "country": null, "category": "organic", "labels": "Organic; Sugar Free Products; Dietary Food"}, {"product_id": 19745, "product": "Biona Cider Vinegar Mother 750ml", "salesprice": 4.28, "salespricerrp": 4.45, "sizevalue": 0.75, "sizeunit": "l", "isWeighted": false, "bcrs": false, "country": null, "category": "organic", "labels": "Biona; Organic; Organic Food; Dietary Food"}, {"product_id": 19747, "product": "Dragon Tapioca Flour 200g", "salesprice": 2.92, "salespricerrp": 3, "sizevalue": 0.2, "sizeunit": "kg", "isWeighted": false, "bcrs": false, "country": null, "category": "organic", "labels": "Organic; Dragon; Organic Food; Dietary Food"}, {"product_id": 19757, "product": "Biona Agave Light Syrup 700g", "salesprice": 8.95, "salespricerrp": 9.3, "sizevalue": 0.7, "sizeunit": "kg", "isWeighted": false, "bcrs": false, "country": null, "category": "organic", "labels": "Biona; Organic; Organic Food; Dietary Food"}, {"product_id": 19758, "product": "Dragon Immunity Mix 150g", "salesprice": 12.51, "salespricerrp": 13, "sizevalue": 0.15, "sizeunit": "kg", "isWeighted": false, "bcrs": false, "country": null, "category": "organic", "labels": "Organic; Dragon; Dietary Food"}, {"product_id": 19766, "product": "Eat Real Chips Straws Veggie Kale 113g 66c Off", "salesprice": 1.89, "salespricerrp": 2.55, "sizevalue": 0.11, "sizeunit": "kg", "isWeighted": false, "bcrs": false, "country": null, "category": "organic", "labels": "Organic; Dietary Food; Eat Real"}, {"product_id": 19781, "product": "Bombus Raw Energy Maracuja & Coconut 50g", "salesprice": 0.95, "salespricerrp": 0.99, "sizevalue": 0.05, "sizeunit": "kg", "isWeighted": false, "bcrs": false, "country": null, "category": "organic", "labels": "Organic; Dietary Food"}, {"product_id": 19792, "product": "Servivita Bbq Sauce 320ml", "salesprice": 4.19, "salespricerrp": 4.35, "sizevalue": 0.32, "sizeunit": "kg", "isWeighted": false, "bcrs": false, "country": null, "category": "organic", "labels": "Organic; Dietary Food; SERVIVITA"}, {"product_id": 19797, "product": "Meridian Peanut & Coconut Butter 280g", "salesprice": 5.6, "salespricerrp": 6.21, "sizevalue": 0.28, "sizeunit": "kg", "isWeighted": false, "bcrs": false, "country": null, "category": "organic", "labels": "Organic; Dietary Food; Meridiana"}, {"product_id": 19799, "product": "Schar Cereal Flakes 300g", "salesprice": 4.05, "salespricerrp": 4.29, "sizevalue": 0.3, "sizeunit": "kg", "isWeighted": false, "bcrs": false, "country": null, "category": "organic", "labels": "Organic; Schar; Gluten Free Products; Dietary Food"}, {"product_id": 19814, "product": "Dragon Turmeric Curcuma Powder 150g", "salesprice": 4.33, "salespricerrp": 4.5, "sizevalue": 0.15, "sizeunit": "kg", "isWeighted": false, "bcrs": false, "country": null, "category": "organic", "labels": "Organic; Dragon; Organic Food; Dietary Food"}, {"product_id": 19817, "product": "Rice Up Rice Cakes Millet & Amaranth 120g", "salesprice": 1.13, "salespricerrp": 1.29, "sizevalue": 0.12, "sizeunit": "kg", "isWeighted": false, "bcrs": false, "country": null, "category": "organic", "labels": "Organic; Rice Up; Gluten Free Products; Dietary Food"}], "page": 1, "currentRecords": 20, "offset": 20, "totalRecords": 100, "totalPages": 4}