{"products": [{"product_id": 19848, "product": "Pasta Natura Organic Gluten Free Penne Peas 250g", "salesprice": 2.56, "salespricerrp": 2.75, "sizevalue": 0.25, "sizeunit": "kg", "isWeighted": false, "bcrs": false, "country": null, "category": "organic", "labels": "Organic; Gluten Free Pasta; Dietary Food"}, {"product_id": 19851, "product": "Schar Wafers Lemon 125g", "salesprice": 2.13, "salespricerrp": 2.25, "sizevalue": 0.13, "sizeunit": "kg", "isWeighted": false, "bcrs": false, "country": null, "category": "organic", "labels": "Organic; Schar; Gluten Free Products; Dietary Food"}, {"product_id": 19873, "product": "Golden Harvest Gf Buns X2", "salesprice": 2.11, "salespricerrp": 2.11, "sizevalue": 1, "sizeunit": "p", "isWeighted": false, "bcrs": false, "country": null, "category": "organic", "labels": "Organic; Golden Harvest; Gluten Free Products; Dietary Food"}, {"product_id": 19883, "product": "Brain Foods Hazelnut Wafer 40g", "salesprice": 2.32, "salespricerrp": 2.44, "sizevalue": 0.04, "sizeunit": "kg", "isWeighted": false, "bcrs": false, "country": null, "category": "organic", "labels": "Organic; Gluten Free Products; Dietary Food"}, {"product_id": 19892, "product": "Biona Spelt Noodles 250g", "salesprice": 3.99, "salespricerrp": 4.15, "sizevalue": 0.25, "sizeunit": "kg", "isWeighted": false, "bcrs": false, "country": null, "category": "organic", "labels": "Biona; Organic; Organic Food; Dietary Food"}, {"product_id": 19898, "product": "Biona Pumpernickle Bread 500g", "salesprice": 3.32, "salespricerrp": 3.45, "sizevalue": 0.75, "sizeunit": "kg", "isWeighted": false, "bcrs": false, "country": null, "category": "organic", "labels": "Biona; Organic; Organic Food; Dietary Food"}, {"product_id": 19907, "product": "Servivita Spicy Chilli 320ml", "salesprice": 4.24, "salespricerrp": 4.35, "sizevalue": 1, "sizeunit": "p", "isWeighted": false, "bcrs": false, "country": null, "category": "organic", "labels": "Organic; Dietary Food; SERVIVITA"}, {"product_id": 19929, "product": "Tezori Gluten Free Vegan Ftira 200g", "salesprice": 1.9, "salespricerrp": 1.99, "sizevalue": 0.2, "sizeunit": "kg", "isWeighted": false, "bcrs": false, "country": null, "category": "organic", "labels": "Organic; Gluten Free Products; Dietary Food"}, {"product_id": 19933, "product": "Schar Fette Croccanti Toast 150g", "salesprice": 1.94, "salespricerrp": 2.05, "sizevalue": 0.15, "sizeunit": "kg", "isWeighted": false, "bcrs": false, "country": null, "category": "organic", "labels": "Organic; Schar; Gluten Free Products; Dietary Food"}, {"product_id": 19934, "product": "Rebeko Mayonnaise Sauce 425ml", "salesprice": 5.57, "salespricerrp": 5.99, "sizevalue": 0.43, "sizeunit": "l", "isWeighted": false, "bcrs": false, "country": null, "category": "organic", "labels": "Organic; Dietary Food"}, {"product_id": 19944, "product": "Sanum Per Fructus Acacia Honey 300g", "salesprice": 5.73, "salespricerrp": 6.03, "sizevalue": 1, "sizeunit": "p", "isWeighted": false, "bcrs": false, "country": null, "category": "organic", "labels": "Organic; Dietary Food"}, {"product_id": 19947, "product": "Pensa Bio Pearly Spelt 500g", "salesprice": 3.61, "salespricerrp": 3.75, "sizevalue": 0.5, "sizeunit": "kg", "isWeighted": false, "bcrs": false, "country": null, "category": "organic", "labels": "Organic; Dietary Food"}, {"product_id": 19962, "product": "Radisson Diet Whole Rice Cakes 130g", "salesprice": 1.94, "salespricerrp": 1.99, "sizevalue": 0.13, "sizeunit": "kg", "isWeighted": false, "bcrs": false, "country": null, "category": "organic", "labels": "Organic; Radisson; Dietary Food"}, {"product_id": 19974, "product": "Skinny Bar Cookies & Cream 60g", "salesprice": 2.26, "salespricerrp": 2.4, "sizevalue": 0.06, "sizeunit": "kg", "isWeighted": false, "bcrs": false, "country": null, "category": "organic", "labels": "Organic; Low Fat products; Dietary Food"}, {"product_id": 19983, "product": "Aubergines Organic", "salesprice": 3.7, "salespricerrp": 3.7, "sizevalue": 1, "sizeunit": "kg", "isWeighted": false, "bcrs": false, "country": null, "category": "organic", "labels": "Organic; Organic Food; Dietary Food"}, {"product_id": 19988, "product": "Sz Dolce Soffice No Added Sugars 650g", "salesprice": 14.07, "salespricerrp": 15, "sizevalue": 0.65, "sizeunit": "kg", "isWeighted": false, "bcrs": false, "country": null, "category": "organic", "labels": "Organic; Sugar Free Products; Dietary Food"}, {"product_id": 19992, "product": "Mr.yummy Black Cookie Protein Bagel 60g", "salesprice": 1.92, "salespricerrp": 1.99, "sizevalue": 0.06, "sizeunit": "kg", "isWeighted": false, "bcrs": false, "country": null, "category": "organic", "labels": "Organic; Dietary Food"}, {"product_id": 20005, "product": "Riso Scotti Bio Rice And Almond 1l", "salesprice": 2.47, "salespricerrp": 2.75, "sizevalue": 1, "sizeunit": "l", "isWeighted": false, "bcrs": false, "country": null, "category": "organic", "labels": "Organic; Riso Scotti; Low Fat products; Dietary Food"}, {"product_id": 20035, "product": "Plants Smooth Roasted Almond Butter With Ginger Cinnamon & Vanilla 170g", "salesprice": 5.28, "salespricerrp": 5.5, "sizevalue": 0.17, "sizeunit": "kg", "isWeighted": false, "bcrs": false, "country": null, "category": "organic", "labels": "Organic; Dietary Food"}, {"product_id": 20049, "product": "Pensa Bio Biscotti Integrali Farro Uvetta Bacche Goji Bio  250g", "salesprice": 3.94, "salespricerrp": 4.09, "sizevalue": 0.25, "sizeunit": "kg", "isWeighted": false, "bcrs": false, "country": null, "category": "organic", "labels": "Organic; Dietary Food"}], "page": 2, "currentRecords": 20, "offset": 40, "totalRecords": 100, "totalPages": 4}