{"products": [{"product_id": 20051, "product": "Apples ( Organic Apples )", "salesprice": 8.16, "salespricerrp": 8.16, "sizevalue": 1, "sizeunit": "p", "isWeighted": false, "bcrs": false, "country": null, "category": "organic", "labels": "Organic; Organic Food; Dietary Food"}, {"product_id": 20068, "product": "Skinny Crunch Chocolate Hoops & Marshmallows Cereal 375g", "salesprice": 4.18, "salespricerrp": 4.5, "sizevalue": 0.38, "sizeunit": "kg", "isWeighted": false, "bcrs": false, "country": null, "category": "organic", "labels": "Organic; Dietary Food"}, {"product_id": 20072, "product": "Servivita Balsamic Dressing  320ml", "salesprice": 4.24, "salespricerrp": 4.35, "sizevalue": 1, "sizeunit": "p", "isWeighted": false, "bcrs": false, "country": null, "category": "organic", "labels": "Organic; Dietary Food; SERVIVITA"}, {"product_id": 20079, "product": "Riso Scotti Riso Vital Soya 1l", "salesprice": 1.48, "salespricerrp": 1.65, "sizevalue": 1, "sizeunit": "l", "isWeighted": false, "bcrs": false, "country": null, "category": "organic", "labels": "Organic; Riso Scotti; Low Fat products; Dietary Food"}, {"product_id": 20090, "product": "Body Attack Protein Donut Blueberry 60g", "salesprice": 2.64, "salespricerrp": 2.75, "sizevalue": 0.06, "sizeunit": "kg", "isWeighted": false, "bcrs": false, "country": null, "category": "organic", "labels": "Organic; Dietary Food"}, {"product_id": 20091, "product": "Orgran Pasta Garden Veggie Spirals 350g", "salesprice": 4.97, "salespricerrp": 5.3, "sizevalue": 0.35, "sizeunit": "kg", "isWeighted": false, "bcrs": false, "country": null, "category": "organic", "labels": "Organic; Organic Food; Dietary Food; Orgran"}, {"product_id": 20092, "product": "Trevijano Quinoa 1kg", "salesprice": 8.95, "salespricerrp": 11, "sizevalue": 0.1, "sizeunit": "kg", "isWeighted": false, "bcrs": false, "country": null, "category": "organic", "labels": "Organic; Organic Food; Dietary Food"}, {"product_id": 20094, "product": "Whole Earth Butter Original Smooth Peanut 1kg", "salesprice": 11.76, "salespricerrp": 12.25, "sizevalue": 1, "sizeunit": "kg", "isWeighted": false, "bcrs": false, "country": null, "category": "organic", "labels": "Organic; Organic Food; Dietary Food"}, {"product_id": 20110, "product": "Im Protein Creme Choc Almond 250g", "salesprice": 7.39, "salespricerrp": 7.95, "sizevalue": 0.25, "sizeunit": "kg", "isWeighted": false, "bcrs": false, "country": null, "category": "organic", "labels": "Organic; Dietary Food"}, {"product_id": 20113, "product": "Pellito Lov Almond & Greek Raisin Oat Bites 70g", "salesprice": 2.16, "salespricerrp": 2.25, "sizevalue": 0.07, "sizeunit": "kg", "isWeighted": false, "bcrs": false, "country": null, "category": "organic", "labels": "Organic; Gluten Free Products; Pellito; Dietary Food"}, {"product_id": 20119, "product": "Pensa Bio Curry 40g", "salesprice": 3.18, "salespricerrp": 3.3, "sizevalue": 0.04, "sizeunit": "kg", "isWeighted": false, "bcrs": false, "country": null, "category": "organic", "labels": "Organic; Dietary Food"}, {"product_id": 20143, "product": "Vivo Shaker", "salesprice": 13.35, "salespricerrp": 13.9, "sizevalue": 1, "sizeunit": "p", "isWeighted": false, "bcrs": false, "country": null, "category": "organic", "labels": "Organic; Dietary Food"}, {"product_id": 20158, "product": "Genuine Coconut Chips Vanilla & Cacao 34g", "salesprice": 1.25, "salespricerrp": 1.75, "sizevalue": 0.03, "sizeunit": "kg", "isWeighted": false, "bcrs": false, "country": null, "category": "organic", "labels": "Organic; Organic Food; Dietary Food"}, {"product_id": 20160, "product": "Biona Organic Tempeh 400g", "salesprice": 5.24, "salespricerrp": 5.45, "sizevalue": 0.4, "sizeunit": "kg", "isWeighted": false, "bcrs": false, "country": null, "category": "organic", "labels": "Biona; Organic; Organic Food; Dietary Food"}, {"product_id": 20166, "product": "Made Good Granola Bars Chocolate Chip 144g", "salesprice": 4.14, "salespricerrp": 4.3, "sizevalue": 0.14, "sizeunit": "kg", "isWeighted": false, "bcrs": false, "country": null, "category": "organic", "labels": "Organic; Madegood; Organic Food; Dietary Food"}, {"product_id": 20183, "product": "Rummo Legume Maccheroncelli 300g", "salesprice": 2.65, "salespricerrp": 3.4, "sizevalue": 0.3, "sizeunit": "kg", "isWeighted": false, "bcrs": false, "country": null, "category": "organic", "labels": "Organic; Rummo; Gluten Free Products; Dietary Food"}, {"product_id": 20196, "product": "Pukka Organic Turmeric Gold X20", "salesprice": 6.07, "salespricerrp": 6.5, "sizevalue": 20, "sizeunit": "p", "isWeighted": false, "bcrs": false, "country": "United Kingdom", "category": "organic", "labels": "Organic; Pukka; Dietary Food"}, {"product_id": 20237, "product": "Brain Foods Flapjack Chocolate & Orange 70g", "salesprice": 2.79, "salespricerrp": 2.98, "sizevalue": 0.07, "sizeunit": "kg", "isWeighted": false, "bcrs": false, "country": null, "category": "organic", "labels": "Organic; Gluten Free Products; Dietary Food"}, {"product_id": 20243, "product": "Doves Farm Flour Gluten Free White Bread 1kg", "salesprice": 4.08, "salespricerrp": 4.25, "sizevalue": 1, "sizeunit": "kg", "isWeighted": false, "bcrs": false, "country": null, "category": "organic", "labels": "Organic; Gluten Free Products; Doves Farm Organic; Dietary Food"}, {"product_id": 20246, "product": "Delba Organic Sunflower Seed Bread", "salesprice": 1.98, "salespricerrp": 2.15, "sizevalue": 1, "sizeunit": "p", "isWeighted": false, "bcrs": false, "country": null, "category": "organic", "labels": "Organic; Organic Food; Dietary Food"}], "page": 3, "currentRecords": 20, "offset": 60, "totalRecords": 100, "totalPages": 4}