{"products": [{"product_id": 20251, "product": "Lovemore Stem Ginger Cookies 150g", "salesprice": 4.95, "salespricerrp": 5.5, "sizevalue": 0.15, "sizeunit": "kg", "isWeighted": false, "bcrs": false, "country": null, "category": "organic", "labels": "Organic; Lovemore; Dietary Food"}, {"product_id": 20253, "product": "Orgran Spliits Pumpkin 125g", "salesprice": 4.03, "salespricerrp": 4.3, "sizevalue": 0.13, "sizeunit": "kg", "isWeighted": false, "bcrs": false, "country": null, "category": "organic", "labels": "Organic; Organic Food; Dietary Food; Orgran"}, {"product_id": 20266, "product": "Healthy Leaf Chocolate Organge Truffles 135g", "salesprice": 5.8, "salespricerrp": 5.99, "sizevalue": 0.14, "sizeunit": "kg", "isWeighted": false, "bcrs": false, "country": null, "category": "organic", "labels": "Organic; Gluten Free Products; Dietary Food; HEALTHY LEAF"}, {"product_id": 20279, "product": "Pukka Organic Three Ginger X20", "salesprice": 6.07, "salespricerrp": 6.5, "sizevalue": 20, "sizeunit": "p", "isWeighted": false, "bcrs": false, "country": null, "category": "organic", "labels": "Organic; Pukka; Dietary Food"}, {"product_id": 20286, "product": "Orgran Mix Brownie Choc 400g", "salesprice": 5.02, "salespricerrp": 5.35, "sizevalue": 0.4, "sizeunit": "kg", "isWeighted": false, "bcrs": false, "country": null, "category": "organic", "labels": "Organic; Gluten Free Products; Dietary Food; Orgran"}, {"product_id": 20309, "product": "Orgran Pasta Rice & Corn Macaroni Large 350g", "salesprice": 4.97, "salespricerrp": 5.3, "sizevalue": 0.35, "sizeunit": "kg", "isWeighted": false, "bcrs": false, "country": null, "category": "organic", "labels": "Organic; Organic Food; Dietary Food; Orgran"}, {"product_id": 20312, "product": "Deliciously Ella Apple Oat Bar 50g", "salesprice": 1.73, "salespricerrp": 1.8, "sizevalue": 0.05, "sizeunit": "kg", "isWeighted": false, "bcrs": false, "country": null, "category": "organic", "labels": "Organic; Dietary Food"}, {"product_id": 20326, "product": "Schar Pasta Pipe 500g", "salesprice": 2.98, "salespricerrp": 3.15, "sizevalue": 0.5, "sizeunit": "kg", "isWeighted": false, "bcrs": false, "country": null, "category": "organic", "labels": "Organic; Schar; Gluten Free Products; Dietary Food"}, {"product_id": 20332, "product": "Rice Up Rice Cakes 120g Super Seeds", "salesprice": 1.24, "salespricerrp": 1.29, "sizevalue": 0.12, "sizeunit": "kg", "isWeighted": false, "bcrs": false, "country": null, "category": "organic", "labels": "Organic; Rice Up; Gluten Free Products; Dietary Food"}, {"product_id": 20334, "product": "Rice Up Bar Dark Chocolate Orange 18g", "salesprice": 0.39, "salespricerrp": 0.45, "sizevalue": 0.02, "sizeunit": "kg", "isWeighted": false, "bcrs": false, "country": null, "category": "organic", "labels": "Organic; Rice Up; Dietary Food"}, {"product_id": 20336, "product": "Purasana Vegan Protein Mix 55%pea Sunflower Hemp Banana 400g", "salesprice": 19.19, "salespricerrp": 20.2, "sizevalue": 1, "sizeunit": "p", "isWeighted": false, "bcrs": false, "country": null, "category": "organic", "labels": "Organic; Organic Food; Dietary Food"}, {"product_id": 20340, "product": "Nature Oat & Almond Drink 1l", "salesprice": 2.13, "salespricerrp": 2.45, "sizevalue": 1, "sizeunit": "l", "isWeighted": false, "bcrs": false, "country": null, "category": "organic", "labels": "Organic; Dietary Food; Nature; Dairy Free Products"}, {"product_id": 20352, "product": "Riso Scotti Riso Vital Rice Coconut Added Sugar 1l", "salesprice": 1.8, "salespricerrp": 2, "sizevalue": 1, "sizeunit": "l", "isWeighted": false, "bcrs": false, "country": null, "category": "organic", "labels": "Organic; Riso Scotti; Low Fat products; Dietary Food"}, {"product_id": 20353, "product": "Deliciously Ella Hazelnut Nut Butter Balls 36g", "salesprice": 2.11, "salespricerrp": 2.2, "sizevalue": 0.04, "sizeunit": "kg", "isWeighted": false, "bcrs": false, "country": null, "category": "organic", "labels": "Organic; Dietary Food"}, {"product_id": 20375, "product": "Gen Veg Taro Truffata Chips 45g", "salesprice": 1.75, "salespricerrp": 2.25, "sizevalue": 0.05, "sizeunit": "kg", "isWeighted": false, "bcrs": false, "country": null, "category": "organic", "labels": "Organic; Organic Food; Dietary Food"}, {"product_id": 20377, "product": "Pasta Natura Gluten Free Oat Flour 250g", "salesprice": 2.98, "salespricerrp": 3.1, "sizevalue": 0.25, "sizeunit": "kg", "isWeighted": false, "bcrs": false, "country": null, "category": "organic", "labels": "Organic; Dietary Food"}, {"product_id": 20380, "product": "The Beginnings Oat Caramel Cookies Soft Baked 80g", "salesprice": 3.6, "salespricerrp": 3.75, "sizevalue": 0.08, "sizeunit": "kg", "isWeighted": false, "bcrs": false, "country": null, "category": "organic", "labels": "Organic; Dietary Food"}, {"product_id": 20402, "product": "Nairns Oatcakes Gluten Free Oat Cakes 200g", "salesprice": 3.46, "salespricerrp": 3.6, "sizevalue": 0.2, "sizeunit": "kg", "isWeighted": false, "bcrs": false, "country": null, "category": "organic", "labels": "Nairn'S; Organic; Gluten Free Products; Dietary Food"}, {"product_id": 20408, "product": "Mestemacher Sunflower Bread 500g", "salesprice": 2.6, "salespricerrp": 2.75, "sizevalue": 0.5, "sizeunit": "kg", "isWeighted": false, "bcrs": false, "country": null, "category": "organic", "labels": "Organic; Mestemacher; Dietary Food"}, {"product_id": 20410, "product": "Diablo Sugar Free Chocolate Muffin 45g", "salesprice": 0.77, "salespricerrp": 0.99, "sizevalue": 0.05, "sizeunit": "kg", "isWeighted": false, "bcrs": false, "country": null, "category": "organic", "labels": "Organic; Dietary Food; Diablo"}], "page": 4, "currentRecords": 20, "offset": 80, "totalRecords": 100, "totalPages": 4}