{"products": [{"product_id": 19754, "product": "Salted Anchovies", "salesprice": 37.8, "salespricerrp": 37.8, "sizevalue": 1, "sizeunit": "kg", "isWeighted": true, "bcrs": false, "country": null, "category": "delicatessen", "labels": "Antipasto; Antipasto Food; Refrigerated; Delicatessen"}, {"product_id": 19756, "product": "Cheddar With Apple, Cinnamon And Raisin", "salesprice": 26, "salespricerrp": 26, "sizevalue": 1, "sizeunit": "kg", "isWeighted": true, "bcrs": false, "country": "United Kingdom", "category": "delicatessen", "labels": "Cheeses; Fresh Cheese; Refrigerated; Delicatessen"}, {"product_id": 19762, "product": "Maltese Smoked Sausage", "salesprice": 8.61, "salespricerrp": 8.61, "sizevalue": 1, "sizeunit": "kg", "isWeighted": true, "bcrs": false, "country": "Malta", "category": "delicatessen", "labels": "Fresh Ham and Salami; Ham and Salami; Refrigerated; Delicatessen"}, {"product_id": 19769, "product": "Fiorucci Salame Ungherese", "salesprice": 16.28, "salespricerrp": 16.28, "sizevalue": 1, "sizeunit": "kg", "isWeighted": true, "bcrs": false, "country": "Italia", "category": "delicatessen", "labels": "Fresh Ham and Salami; Ham and Salami; Refrigerated; Delicatessen"}, {"product_id": 19782, "product": "Beaufort Savoie", "salesprice": 49.98, "salespricerrp": 49.98, "sizevalue": 1, "sizeunit": "kg", "isWeighted": true, "bcrs": false, "country": "France", "category": "delicatessen", "labels": "Cheeses; Fresh Cheese; Refrigerated; Delicatessen"}, {"product_id": 19798, "product": "Galbanone", "salesprice": 16.43, "salespricerrp": 16.43, "sizevalue": 1, "sizeunit": "kg", "isWeighted": true, "bcrs": false, "country": "Italia", "category": "delicatessen", "labels": "Cheeses; Fresh Cheese; Refrigerated; Delicatessen"}, {"product_id": 19802, "product": "Latteria Montello Stracchino Nonno Nanni 125g", "salesprice": 3.52, "salespricerrp": 3.85, "sizevalue": 0.13, "sizeunit": "kg", "isWeighted": false, "bcrs": false, "country": null, "category": "delicatessen", "labels": "Cheeses; Deli Cheese; Delicatessen; Latteria Montello"}, {"product_id": 19812, "product": "Bo F Di Castag Cheese", "salesprice": 68.25, "salespricerrp": 68.25, "sizevalue": 1, "sizeunit": "p", "isWeighted": true, "bcrs": false, "country": null, "category": "delicatessen", "labels": "Deli Seasonal Goods; Delicatessen; Seasonal"}, {"product_id": 19838, "product": "Fior Di Vita Cheddar Garlic & Chive 120g", "salesprice": 2.47, "salespricerrp": 2.55, "sizevalue": 0.12, "sizeunit": "kg", "isWeighted": false, "bcrs": false, "country": null, "category": "delicatessen", "labels": "Cheeses; Refrigerated; Cheddar; Fior Di Vita; Delicatessen"}, {"product_id": 19841, "product": "Zanetti Grana Flakes Cut 100g", "salesprice": 2.5, "salespricerrp": 2.59, "sizevalue": 0.1, "sizeunit": "kg", "isWeighted": false, "bcrs": false, "country": null, "category": "delicatessen", "labels": "Zinetti; Cheeses; Deli Cheese; Delicatessen"}, {"product_id": 19869, "product": "Inalpi Fettine Grana Padano 150g", "salesprice": 1.58, "salespricerrp": 2, "sizevalue": 0.15, "sizeunit": "kg", "isWeighted": false, "bcrs": false, "country": null, "category": "delicatessen", "labels": "Cheeses; Refrigerated; Cheese Slices; Inalpi; Delicatessen"}, {"product_id": 19885, "product": "Basiron Pesto Verde Cheese Slices 150g", "salesprice": 3.37, "salespricerrp": 3.5, "sizevalue": 0.15, "sizeunit": "kg", "isWeighted": false, "bcrs": false, "country": null, "category": "delicatessen", "labels": "Cheeses; Deli Cheese; Delicatessen"}, {"product_id": 19887, "product": "Lardo Alle Erbe", "salesprice": 15.62, "salespricerrp": 15.62, "sizevalue": 1, "sizeunit": "p", "isWeighted": true, "bcrs": false, "country": "Italia", "category": "delicatessen", "labels": "Fresh Ham and Salami; Ham and Salami; Refrigerated; Delicatessen"}, {"product_id": 19894, "product": "Negroni Golosino 3 X 250g", "salesprice": 5.9, "salespricerrp": 6.6, "sizevalue": 0.25, "sizeunit": "kg", "isWeighted": false, "bcrs": false, "country": null, "category": "delicatessen", "labels": "Negroni; Chilled Ham and Salami; Ham and Salami; Delicatessen"}, {"product_id": 19905, "product": "Bayernland Edam Sliced 140g", "salesprice": 2.33, "salespricerrp": 2.35, "sizevalue": 0.14, "sizeunit": "kg", "isWeighted": false, "bcrs": false, "country": null, "category": "delicatessen", "labels": "Bayernland; Cheeses; Refrigerated; Cheese Slices; Delicatessen"}, {"product_id": 19949, "product": "Coombe Castle Lancashire 200g", "salesprice": 3.23, "salespricerrp": 3.41, "sizevalue": 0.2, "sizeunit": "kg", "isWeighted": false, "bcrs": false, "country": null, "category": "delicatessen", "labels": "Cheeses; Deli Cheese; Delicatessen"}, {"product_id": 19957, "product": "Lucky Cow Combi 200g", "salesprice": 1.5, "salespricerrp": 1.55, "sizevalue": 0.2, "sizeunit": "kg", "isWeighted": false, "bcrs": false, "country": null, "category": "delicatessen", "labels": "Cheeses; Feta Cheese; Delicatessen"}, {"product_id": 19971, "product": "Vonk Cheese Slices Catering 800g", "salesprice": 6.99, "salespricerrp": 7.45, "sizevalue": 0.8, "sizeunit": "kg", "isWeighted": false, "bcrs": false, "country": null, "category": "delicatessen", "labels": "Cheeses; Refrigerated; Cheese Slices; Vonk; Delicatessen"}, {"product_id": 19972, "product": "Lacey Light", "salesprice": 20.53, "salespricerrp": 20.53, "sizevalue": 1, "sizeunit": "kg", "isWeighted": true, "bcrs": false, "country": "Finland", "category": "delicatessen", "labels": "Cheeses; Fresh Cheese; Refrigerated; Delicatessen"}, {"product_id": 19979, "product": "Ambrosi Pecorino Romano 200g", "salesprice": 7.15, "salespricerrp": 7.6, "sizevalue": 0.2, "sizeunit": "kg", "isWeighted": false, "bcrs": false, "country": null, "category": "delicatessen", "labels": "Cheeses; Delicatessen; Other Types of Cheese"}], "page": 1, "currentRecords": 20, "offset": 20, "totalRecords": 100, "totalPages": 4}