{"products": [{"product_id": 20015, "product": "Vergeer Pasta Cheese 150g", "salesprice": 2.67, "salespricerrp": 2.69, "sizevalue": 0.15, "sizeunit": "kg", "isWeighted": false, "bcrs": false, "country": null, "category": "delicatessen", "labels": "Vergeer; Cheeses; Refrigerated; Cheese Slices; Delicatessen"}, {"product_id": 20025, "product": "Proscuitto San Daniele Friulano", "salesprice": 30.24, "salespricerrp": 30.24, "sizevalue": 1, "sizeunit": "kg", "isWeighted": true, "bcrs": false, "country": "Italia", "category": "delicatessen", "labels": "Fresh Ham and Salami; Ham and Salami; Refrigerated; Delicatessen"}, {"product_id": 20029, "product": "Prosciutto Cotto With Herbs", "salesprice": 20.95, "salespricerrp": 20.95, "sizevalue": 1, "sizeunit": "kg", "isWeighted": true, "bcrs": false, "country": "Italia", "category": "delicatessen", "labels": "Fresh Ham and Salami; Ham and Salami; Refrigerated; Delicatessen"}, {"product_id": 20036, "product": "Ambrosi Pecorino Romano Fresh Grated 100g", "salesprice": 4.57, "salespricerrp": 4.85, "sizevalue": 0.1, "sizeunit": "kg", "isWeighted": false, "bcrs": false, "country": null, "category": "delicatessen", "labels": "Cheeses; Refrigerated; Parmessan; Delicatessen"}, {"product_id": 20040, "product": "Ile De France Tartare Cote D'azur 100g", "salesprice": 3.99, "salespricerrp": 4.2, "sizevalue": 0.1, "sizeunit": "kg", "isWeighted": false, "bcrs": false, "country": null, "category": "delicatessen", "labels": "Cheeses; Delicatessen; Other Types of Cheese"}, {"product_id": 20046, "product": "Glenstal Extra Mature Cheddar 200g", "salesprice": 4.1, "salespricerrp": 4.25, "sizevalue": 0.2, "sizeunit": "kg", "isWeighted": false, "bcrs": false, "country": null, "category": "delicatessen", "labels": "Cheeses; Refrigerated; Cheddar; Delicatessen"}, {"product_id": 20054, "product": "Galbani.dolcelatte X150g", "salesprice": 3.62, "salespricerrp": 4.25, "sizevalue": 0.15, "sizeunit": "kg", "isWeighted": false, "bcrs": false, "country": null, "category": "delicatessen", "labels": "Mozzarella; Cheeses; Galbani; Refrigerated; Delicatessen"}, {"product_id": 20064, "product": "Porminho Sandwich Ham 98% Low Fat", "salesprice": 6.98, "salespricerrp": 6.98, "sizevalue": 1, "sizeunit": "kg", "isWeighted": true, "bcrs": false, "country": "Malta", "category": "delicatessen", "labels": "Fresh Ham and Salami; Ham and Salami; Refrigerated; Delicatessen"}, {"product_id": 20075, "product": "Vio Creamy Garlic & Herbs 150g", "salesprice": 3.13, "salespricerrp": 3.3, "sizevalue": 0.15, "sizeunit": "kg", "isWeighted": false, "bcrs": false, "country": null, "category": "delicatessen", "labels": "Cheeses; Delicatessen; Other Types of Cheese; VIOLIFE"}, {"product_id": 20077, "product": "Bontafette Petto Di Tacchino Arrosto M&c 60gr", "salesprice": 1.21, "salespricerrp": 1.34, "sizevalue": 0.06, "sizeunit": "kg", "isWeighted": false, "bcrs": false, "country": null, "category": "delicatessen", "labels": "Chilled Ham and Salami; Ham and Salami; Delicatessen"}, {"product_id": 20099, "product": "Square Blue Cheese", "salesprice": 14.49, "salespricerrp": 14.49, "sizevalue": 1, "sizeunit": "kg", "isWeighted": true, "bcrs": false, "country": "Denmark", "category": "delicatessen", "labels": "Cheeses; Fresh Cheese; Refrigerated; Delicatessen"}, {"product_id": 20137, "product": "Chamois Dor Cheese", "salesprice": 25.2, "salespricerrp": 25.2, "sizevalue": 1, "sizeunit": "kg", "isWeighted": true, "bcrs": false, "country": "Italia", "category": "delicatessen", "labels": "Cheeses; Fresh Cheese; Refrigerated; Delicatessen"}, {"product_id": 20138, "product": "Gardani Crudo 18 Months", "salesprice": 28.09, "salespricerrp": 28.09, "sizevalue": 1, "sizeunit": "kg", "isWeighted": true, "bcrs": false, "country": "Italia", "category": "delicatessen", "labels": "Fresh Ham and Salami; Ham and Salami; Refrigerated; Delicatessen"}, {"product_id": 20162, "product": "Creamy Goat Cheese  With Honey", "salesprice": 30.99, "salespricerrp": 30.99, "sizevalue": 1, "sizeunit": "kg", "isWeighted": true, "bcrs": false, "country": "France", "category": "delicatessen", "labels": "Cheeses; Fresh Cheese; Refrigerated; Delicatessen"}, {"product_id": 20163, "product": "Kolios Feta 150g", "salesprice": 3.19, "salespricerrp": 3.29, "sizevalue": 0.15, "sizeunit": "kg", "isWeighted": false, "bcrs": false, "country": null, "category": "delicatessen", "labels": "Cheeses; Feta Cheese; Delicatessen; Kolios"}, {"product_id": 20195, "product": "Auricchio Wedge Granapadano 200g", "salesprice": 5.41, "salespricerrp": 5.49, "sizevalue": 0.2, "sizeunit": "kg", "isWeighted": false, "bcrs": false, "country": null, "category": "delicatessen", "labels": "Cheeses; Refrigerated; Ricotta and Cottage cheese; Delicatessen; Auricchio"}, {"product_id": 20258, "product": "Fior Di Vita Edam Cheese Slices 150g", "salesprice": 2.27, "salespricerrp": 2.29, "sizevalue": 0.15, "sizeunit": "kg", "isWeighted": false, "bcrs": false, "country": null, "category": "delicatessen", "labels": "Cheeses; Refrigerated; Cheese Slices; Fior Di Vita; Delicatessen"}, {"product_id": 20268, "product": "Montagna Nduja Piccante", "salesprice": 22.93, "salespricerrp": 22.93, "sizevalue": 1, "sizeunit": "kg", "isWeighted": true, "bcrs": false, "country": "Italia", "category": "delicatessen", "labels": "Fresh Ham and Salami; Ham and Salami; Refrigerated; Delicatessen"}, {"product_id": 20276, "product": "Fior Di Vita Mozzarella Cheese Slices 150g", "salesprice": 2.57, "salespricerrp": 2.59, "sizevalue": 0.15, "sizeunit": "kg", "isWeighted": false, "bcrs": false, "country": null, "category": "delicatessen", "labels": "Cheeses; Refrigerated; Cheese Slices; Fior Di Vita; Delicatessen"}, {"product_id": 20325, "product": "Babybel Mini Rolls 85g", "salesprice": 3.95, "salespricerrp": 3.99, "sizevalue": 0.09, "sizeunit": "kg", "isWeighted": false, "bcrs": false, "country": null, "category": "delicatessen", "labels": "Cheeses; Babybel; Delicatessen; Other Types of Cheese"}], "page": 2, "currentRecords": 20, "offset": 40, "totalRecords": 100, "totalPages": 4}