{"products": [{"product_id": 20343, "product": "Delta Feta Cheese Block 200gr", "salesprice": 3.75, "salespricerrp": 4, "sizevalue": 0.2, "sizeunit": "kg", "isWeighted": false, "bcrs": false, "country": null, "category": "delicatessen", "labels": "Cheeses; Feta Cheese; Delicatessen"}, {"product_id": 20357, "product": "Jolly Square Ham", "salesprice": 6.5, "salespricerrp": 6.5, "sizevalue": 1, "sizeunit": "kg", "isWeighted": true, "bcrs": false, "country": "Malta", "category": "delicatessen", "labels": "Fresh Ham and Salami; Ham and Salami; Refrigerated; Delicatessen"}, {"product_id": 20370, "product": "Snowdonia Black Bomber", "salesprice": 31.92, "salespricerrp": 31.92, "sizevalue": 1, "sizeunit": "kg", "isWeighted": true, "bcrs": false, "country": "United Kingdom", "category": "delicatessen", "labels": "Cheeses; Fresh Cheese; Refrigerated; Delicatessen"}, {"product_id": 20371, "product": "Rana Ravioli Formaggio 400g", "salesprice": 5.39, "salespricerrp": 5.49, "sizevalue": 0.4, "sizeunit": "kg", "isWeighted": false, "bcrs": false, "country": null, "category": "delicatessen", "labels": "Rana; Fresh Pasta; Delicatessen"}, {"product_id": 20391, "product": "Snowdonia Truffle", "salesprice": 39.38, "salespricerrp": 39.38, "sizevalue": 1, "sizeunit": "kg", "isWeighted": true, "bcrs": false, "country": "United Kingdom", "category": "delicatessen", "labels": "Cheeses; Fresh Cheese; Refrigerated; Delicatessen"}, {"product_id": 20404, "product": "Lardo Di Colonnata", "salesprice": 36.75, "salespricerrp": 36.75, "sizevalue": 1, "sizeunit": "kg", "isWeighted": true, "bcrs": false, "country": "Italia", "category": "delicatessen", "labels": "Cheeses; Refrigerated; Prepacked Cheese; Delicatessen"}, {"product_id": 20423, "product": "Delice Des Cremiers", "salesprice": 31.45, "salespricerrp": 31.45, "sizevalue": 1, "sizeunit": "kg", "isWeighted": true, "bcrs": false, "country": "France", "category": "delicatessen", "labels": "Cheeses; Foreign Cheese; Refrigerated; Delicatessen"}, {"product_id": 20479, "product": "Babybel Mini 120g", "salesprice": 3.95, "salespricerrp": 3.99, "sizevalue": 0.12, "sizeunit": "kg", "isWeighted": false, "bcrs": false, "country": null, "category": "delicatessen", "labels": "Cheeses; Babybel; Delicatessen; Other Types of Cheese"}, {"product_id": 20515, "product": "Comte Trad Emot", "salesprice": 32.22, "salespricerrp": 32.22, "sizevalue": 1, "sizeunit": "kg", "isWeighted": true, "bcrs": false, "country": "France", "category": "delicatessen", "labels": "Cheeses; Fresh Cheese; Refrigerated; Delicatessen"}, {"product_id": 20544, "product": "Basiron Mixed Nuts", "salesprice": 17.17, "salespricerrp": 17.17, "sizevalue": 1, "sizeunit": "kg", "isWeighted": true, "bcrs": false, "country": "Netherlands", "category": "delicatessen", "labels": "Cheeses; Fresh Cheese; Refrigerated; Delicatessen"}, {"product_id": 20585, "product": "Emborg Red Cheddar 200g", "salesprice": 3.84, "salespricerrp": 3.99, "sizevalue": 0.2, "sizeunit": "kg", "isWeighted": false, "bcrs": false, "country": null, "category": "delicatessen", "labels": "Cheeses; Refrigerated; Cheddar; Delicatessen; Emborg"}, {"product_id": 20608, "product": "Reny Picot Mozzarella Shredded 150g", "salesprice": 2.9, "salespricerrp": 3.08, "sizevalue": 0.15, "sizeunit": "kg", "isWeighted": false, "bcrs": false, "country": null, "category": "delicatessen", "labels": "Mozzarella; Cheeses; Refrigerated; Delicatessen; Reny Picot"}, {"product_id": 20612, "product": "Bigilla", "salesprice": 7.88, "salespricerrp": 7.88, "sizevalue": 1, "sizeunit": "kg", "isWeighted": true, "bcrs": false, "country": "Malta", "category": "delicatessen", "labels": "Antipasto; Antipasto Food; Refrigerated; Delicatessen"}, {"product_id": 20617, "product": "Auricchio Wedge Parmegiano Reggiano 200g", "salesprice": 6.81, "salespricerrp": 6.99, "sizevalue": 0.2, "sizeunit": "kg", "isWeighted": false, "bcrs": false, "country": null, "category": "delicatessen", "labels": "Cheeses; Refrigerated; Parmessan; Delicatessen; Auricchio"}, {"product_id": 20623, "product": "Brie Goat Cheese", "salesprice": 32.13, "salespricerrp": 32.13, "sizevalue": 1, "sizeunit": "kg", "isWeighted": true, "bcrs": false, "country": "France", "category": "delicatessen", "labels": "Cheeses; Fresh Cheese; Refrigerated; Delicatessen"}, {"product_id": 20633, "product": "Benna Rikotta 250g", "salesprice": 1.95, "salespricerrp": 1.95, "sizevalue": 0.25, "sizeunit": "kg", "isWeighted": false, "bcrs": false, "country": null, "category": "delicatessen", "labels": "Benna; Cheeses; Refrigerated; Ricotta and Cottage cheese; Delicatessen"}, {"product_id": 20643, "product": "Galbani Mozzarella Di Bufala 125g", "salesprice": 3.72, "salespricerrp": 3.75, "sizevalue": 0.13, "sizeunit": "kg", "isWeighted": false, "bcrs": false, "country": null, "category": "delicatessen", "labels": "Mozzarella; Cheeses; Galbani; Refrigerated; Delicatessen"}, {"product_id": 20644, "product": "Manchego Dop Cheese", "salesprice": 44.95, "salespricerrp": 44.95, "sizevalue": 1, "sizeunit": "kg", "isWeighted": true, "bcrs": false, "country": "Spain", "category": "delicatessen", "labels": "Cheeses; Foreign Cheese; Refrigerated; Delicatessen"}, {"product_id": 20673, "product": "Hanini Fresh Goat Gbejniet X2", "salesprice": 2.69, "salespricerrp": 2.79, "sizevalue": 0.25, "sizeunit": "kg", "isWeighted": false, "bcrs": false, "country": null, "category": "delicatessen", "labels": "Hanini; Cheeses; Refrigerated; Delicatessen; Goats Cheese"}, {"product_id": 20683, "product": "Dodoni Feta  In Oil And Oregano 150g", "salesprice": 5.37, "salespricerrp": 5.45, "sizevalue": 0.15, "sizeunit": "kg", "isWeighted": false, "bcrs": false, "country": null, "category": "delicatessen", "labels": "Dodoni; Cheeses; Feta Cheese; Delicatessen"}], "page": 3, "currentRecords": 20, "offset": 60, "totalRecords": 100, "totalPages": 4}