{"products": [{"product_id": 20685, "product": "Trevalli Formaggio Misto Noci 180g", "salesprice": 3.56, "salespricerrp": 3.99, "sizevalue": 0.18, "sizeunit": "kg", "isWeighted": false, "bcrs": false, "country": null, "category": "delicatessen", "labels": "Trevalli; Cheeses; Delicatessen; Other Types of Cheese"}, {"product_id": 20694, "product": "Auricchio Mozzarella Bufala 125g", "salesprice": 3.17, "salespricerrp": 3.25, "sizevalue": 0.13, "sizeunit": "kg", "isWeighted": false, "bcrs": false, "country": null, "category": "delicatessen", "labels": "Mozzarella; Cheeses; Refrigerated; Delicatessen; Auricchio"}, {"product_id": 20703, "product": "La Contadina Mozzarella Di Bufala Lacto Free 125g", "salesprice": 3.19, "salespricerrp": 3.27, "sizevalue": 0.13, "sizeunit": "kg", "isWeighted": false, "bcrs": false, "country": null, "category": "delicatessen", "labels": "Mozzarella; Cheeses; La Contadina; Refrigerated; Delicatessen"}, {"product_id": 20704, "product": "Old Irish Cheese Luck'o", "salesprice": 26.2, "salespricerrp": 26.2, "sizevalue": 1, "sizeunit": "kg", "isWeighted": true, "bcrs": false, "country": "United Kingdom", "category": "delicatessen", "labels": "Cheeses; Fresh Cheese; Refrigerated; Delicatessen"}, {"product_id": 20713, "product": "Fior Di Vita Havarti Cheese Slices 150g", "salesprice": 2.86, "salespricerrp": 2.99, "sizevalue": 0.15, "sizeunit": "kg", "isWeighted": false, "bcrs": false, "country": null, "category": "delicatessen", "labels": "Cheeses; Refrigerated; Cheese Slices; Fior Di Vita; Delicatessen"}, {"product_id": 20735, "product": "Olympus Feta Cheese 200g", "salesprice": 3.9, "salespricerrp": 3.95, "sizevalue": 0.2, "sizeunit": "kg", "isWeighted": false, "bcrs": false, "country": null, "category": "delicatessen", "labels": "Cheeses; Feta Cheese; Olympus; Delicatessen"}, {"product_id": 20740, "product": "Cacio Cavallo Fresco", "salesprice": 42, "salespricerrp": 42, "sizevalue": 1, "sizeunit": "p", "isWeighted": true, "bcrs": false, "country": "Italia", "category": "delicatessen", "labels": "Deli Seasonal Goods; Delicatessen; Seasonal"}, {"product_id": 20756, "product": "Gbejniet Moxxi Dry", "salesprice": 23.8, "salespricerrp": 23.8, "sizevalue": 1, "sizeunit": "kg", "isWeighted": true, "bcrs": false, "country": "Malta", "category": "delicatessen", "labels": "Cheeses; Fresh Cheese; Refrigerated; Delicatessen"}, {"product_id": 20775, "product": "Kerrygold Mild White Cheddar 200g", "salesprice": 3.69, "salespricerrp": 3.79, "sizevalue": 0.2, "sizeunit": "kg", "isWeighted": false, "bcrs": false, "country": null, "category": "delicatessen", "labels": "Cheeses; Kerrygold; Refrigerated; Cheddar; Delicatessen"}, {"product_id": 20803, "product": "Mortadella Tartufo", "salesprice": 20.97, "salespricerrp": 20.97, "sizevalue": 1, "sizeunit": "p", "isWeighted": true, "bcrs": false, "country": "Italia", "category": "delicatessen", "labels": "Antipasto; Antipasto Food; Refrigerated; Delicatessen"}, {"product_id": 20812, "product": "Arla Apetina Feta In Oil 275g", "salesprice": 3.76, "salespricerrp": 3.99, "sizevalue": 0.28, "sizeunit": "kg", "isWeighted": false, "bcrs": false, "country": null, "category": "delicatessen", "labels": "Cheeses; Feta Cheese; Arla; Delicatessen"}, {"product_id": 20817, "product": "Sant Dalmai Chorizo Extra 100g", "salesprice": 2.71, "salespricerrp": 2.75, "sizevalue": 0.1, "sizeunit": "kg", "isWeighted": false, "bcrs": false, "country": null, "category": "delicatessen", "labels": "Chilled Ham and Salami; Ham and Salami; Delicatessen; Sant Dalmai"}, {"product_id": 20832, "product": "Negroni San Daniele Prosciutto Crudo 80g", "salesprice": 4.65, "salespricerrp": 4.72, "sizevalue": 1, "sizeunit": "p", "isWeighted": false, "bcrs": false, "country": null, "category": "delicatessen", "labels": "Negroni; Chilled Ham and Salami; Ham and Salami; Delicatessen"}, {"product_id": 20851, "product": "Chocolate And Orange Cheese", "salesprice": 29.35, "salespricerrp": 29.35, "sizevalue": 1, "sizeunit": "kg", "isWeighted": true, "bcrs": false, "country": "United Kingdom", "category": "delicatessen", "labels": "Cheeses; Foreign Cheese; Refrigerated; Delicatessen"}, {"product_id": 20860, "product": "Hanini Fresh Cow  2x100g", "salesprice": 2.49, "salespricerrp": 2.59, "sizevalue": 0.2, "sizeunit": "kg", "isWeighted": false, "bcrs": false, "country": null, "category": "delicatessen", "labels": "Hanini; Cheeses; Delicatessen; Other Types of Cheese"}, {"product_id": 20894, "product": "Elite Deli To Go Shredded White Cheddar 150g", "salesprice": 2.61, "salespricerrp": 2.65, "sizevalue": 0.15, "sizeunit": "kg", "isWeighted": false, "bcrs": false, "country": null, "category": "delicatessen", "labels": "Elite; Cheeses; Deli Cheese; Delicatessen"}, {"product_id": 20919, "product": "Gouda Cheese Lactose Free", "salesprice": 18.11, "salespricerrp": 18.11, "sizevalue": 1, "sizeunit": "kg", "isWeighted": true, "bcrs": false, "country": "Netherlands", "category": "delicatessen", "labels": "Cheeses; Fresh Cheese; Refrigerated; Delicatessen"}, {"product_id": 20931, "product": "Morbier Cheese", "salesprice": 31.5, "salespricerrp": 31.5, "sizevalue": 1, "sizeunit": "p", "isWeighted": true, "bcrs": false, "country": "France", "category": "delicatessen", "labels": "Deli Seasonal Goods; Delicatessen; Seasonal"}, {"product_id": 20937, "product": "Chicken Roll ( On Offer )", "salesprice": 11.5, "salespricerrp": 11.5, "sizevalue": 1, "sizeunit": "kg", "isWeighted": true, "bcrs": false, "country": "Malta", "category": "delicatessen", "labels": "Fresh Ham and Salami; Ham and Salami; Refrigerated; Delicatessen"}, {"product_id": 20969, "product": "Stuffed Vine Leaves", "salesprice": 21.78, "salespricerrp": 21.78, "sizevalue": 1, "sizeunit": "kg", "isWeighted": true, "bcrs": false, "country": "Greece", "category": "delicatessen", "labels": "Antipasto; Antipasto Food; Refrigerated; Delicatessen"}], "page": 4, "currentRecords": 20, "offset": 80, "totalRecords": 100, "totalPages": 4}