{"products": [{"product_id": 19752, "product": "Cheeson Soft Cheese Full Fat 150g", "salesprice": 2.55, "salespricerrp": 2.6, "sizevalue": 0.15, "sizeunit": "kg", "isWeighted": false, "bcrs": false, "country": null, "category": "chilledanddairy", "labels": "Butter Dips and Spreadables; Chilled and Dairy; Refrigerated; Pates And Related Spreadables"}, {"product_id": 19761, "product": "Stuffer Da Bere Lattosio Banana 500g", "salesprice": 2.36, "salespricerrp": 2.75, "sizevalue": 0.5, "sizeunit": "kg", "isWeighted": false, "bcrs": false, "country": null, "category": "chilledanddairy", "labels": "Yoghurt And Dessert; Chilled and Dairy; Refrigerated; Stuffer; Yoghurts and Desserts"}, {"product_id": 19778, "product": "Noel Fuet Vela Extra 170g", "salesprice": 3.36, "salespricerrp": 3.63, "sizevalue": 0.17, "sizeunit": "kg", "isWeighted": false, "bcrs": false, "country": null, "category": "chilledanddairy", "labels": "Chilled Meat; Chilled Foods; Chilled and Dairy; Refrigerated"}, {"product_id": 19795, "product": "Cheese & Sun-dried Tomatoes 200g", "salesprice": 3.85, "salespricerrp": 3.9, "sizevalue": 0.2, "sizeunit": "kg", "isWeighted": false, "bcrs": false, "country": null, "category": "chilledanddairy", "labels": "Butter Dips and Spreadables; Chilled and Dairy; Camel Brand; Refrigerated; Dips"}, {"product_id": 19796, "product": "Cameo Muu Muu Vaniglia X4", "salesprice": 3.99, "salespricerrp": 4.5, "sizevalue": 0.5, "sizeunit": "kg", "isWeighted": false, "bcrs": false, "country": null, "category": "chilledanddairy", "labels": "Yoghurt And Dessert; Chilled and Dairy; Refrigerated; Cameo; Yoghurts and Desserts"}, {"product_id": 19808, "product": "Stuffer Yogurt Latosio  Banana 0.1% 125g", "salesprice": 1.65, "salespricerrp": 2, "sizevalue": 0.13, "sizeunit": "kg", "isWeighted": false, "bcrs": false, "country": null, "category": "chilledanddairy", "labels": "Chilled Foods; Chilled and Dairy; Refrigerated; Stuffer; Dairy Free Porducts"}, {"product_id": 19856, "product": "Espana Chorizo Sarta Extra Picante 200g", "salesprice": 2.99, "salespricerrp": 3.5, "sizevalue": 0.2, "sizeunit": "kg", "isWeighted": false, "bcrs": false, "country": null, "category": "chilledanddairy", "labels": "Chilled Meat; Chilled Foods; Chilled and Dairy; Refrigerated"}, {"product_id": 19860, "product": "Alpha Gefsi Cream Cheese Feta & Greek Yogurt Speard 200g", "salesprice": 3.09, "salespricerrp": 3.15, "sizevalue": 0.2, "sizeunit": "kg", "isWeighted": false, "bcrs": false, "country": null, "category": "chilledanddairy", "labels": "Butter Dips and Spreadables; Chilled and Dairy; Refrigerated; Dips"}, {"product_id": 19872, "product": "Fiorucci Rostello Afftettato 130g", "salesprice": 5.99, "salespricerrp": 6.09, "sizevalue": 0.13, "sizeunit": "kg", "isWeighted": false, "bcrs": false, "country": null, "category": "chilledanddairy", "labels": "Chilled Meat; Chilled Foods; Chilled and Dairy; Fiorucci; Refrigerated"}, {"product_id": 19906, "product": "Parmalat Chef Panna Cremosa E Omogenea 200ml", "salesprice": 1.95, "salespricerrp": 2.28, "sizevalue": 0.2, "sizeunit": "l", "isWeighted": false, "bcrs": false, "country": null, "category": "chilledanddairy", "labels": "Chilled and Dairy; Fresh Cream; Refrigerated; Creams"}, {"product_id": 19942, "product": "Danone Hipro Cup Mirtilllo 160g", "salesprice": 1.91, "salespricerrp": 1.99, "sizevalue": 0.16, "sizeunit": "l", "isWeighted": false, "bcrs": false, "country": null, "category": "chilledanddairy", "labels": "Yoghurt And Dessert; Chilled and Dairy; Refrigerated; Danone; Yoghurts and Desserts"}, {"product_id": 19952, "product": "Arizona Half & Half Iced Tea Tropical 680ml", "salesprice": 1.89, "salespricerrp": 2.5, "sizevalue": 0.68, "sizeunit": "l", "isWeighted": false, "bcrs": true, "country": null, "category": "chilledanddairy", "labels": "Chilled and Dairy; Chilled Beverages; Arizona; Refrigerated"}, {"product_id": 19955, "product": "Alpha Gefsi Spicy Cheese Dip With Feta 200g", "salesprice": 2.74, "salespricerrp": 2.8, "sizevalue": 0.2, "sizeunit": "kg", "isWeighted": false, "bcrs": false, "country": null, "category": "chilledanddairy", "labels": "Butter Dips and Spreadables; Chilled and Dairy; Refrigerated; Dips"}, {"product_id": 19967, "product": "Dairymaid Prm.spread 454g", "salesprice": 3.29, "salespricerrp": 3.4, "sizevalue": 500, "sizeunit": "kg", "isWeighted": false, "bcrs": false, "country": null, "category": "chilledanddairy", "labels": "Butter; Butter Dips and Spreadables; Chilled and Dairy; Refrigerated"}, {"product_id": 19975, "product": "Schar Veggie Pizza Cereali 390g", "salesprice": 5.8, "salespricerrp": 6.45, "sizevalue": 0.39, "sizeunit": "kg", "isWeighted": false, "bcrs": false, "country": null, "category": "chilledanddairy", "labels": "Chilled Foods; Chilled and Dairy; Schar; Refrigerated; Chilled Gluten Free Products "}, {"product_id": 20013, "product": "Arla Cream Cheese Pineapple 200g", "salesprice": 2.52, "salespricerrp": 2.6, "sizevalue": 0.2, "sizeunit": "kg", "isWeighted": false, "bcrs": false, "country": null, "category": "chilledanddairy", "labels": "Butter Dips and Spreadables; Chilled and Dairy; Refrigerated; Pates And Related Spreadables; Arla"}, {"product_id": 20023, "product": "Balut Eggs X6", "salesprice": 1.72, "salespricerrp": 1.94, "sizevalue": 6, "sizeunit": "p", "isWeighted": false, "bcrs": false, "country": null, "category": "chilledanddairy", "labels": "Chilled and Dairy; Milk and Eggs; Refrigerated; Eggs; Ballut"}, {"product_id": 20055, "product": "Philadelphia Fantasie Salmone X6", "salesprice": 3.95, "salespricerrp": 4.5, "sizevalue": 6, "sizeunit": "p", "isWeighted": false, "bcrs": false, "country": null, "category": "chilledanddairy", "labels": "Butter Dips and Spreadables; Chilled and Dairy; Refrigerated; Pates And Related Spreadables; Philadelphia"}, {"product_id": 20056, "product": "Muller Yogurt Di Crema Ciliegia 250g", "salesprice": 1.56, "salespricerrp": 1.75, "sizevalue": 1, "sizeunit": "p", "isWeighted": false, "bcrs": false, "country": null, "category": "chilledanddairy", "labels": "Yoghurt And Dessert; Chilled and Dairy; Muller; Refrigerated; Yoghurts and Desserts"}, {"product_id": 20059, "product": "Bluecheese Dip", "salesprice": 11.55, "salespricerrp": 11.55, "sizevalue": 1, "sizeunit": "kg", "isWeighted": true, "bcrs": false, "country": "Malta", "category": "chilledanddairy", "labels": "Butter Dips and Spreadables; Chilled and Dairy; Refrigerated; Dips"}], "page": 1, "currentRecords": 20, "offset": 20, "totalRecords": 100, "totalPages": 4}