{"products": [{"product_id": 20060, "product": "Quescrem Spread Cheese With Garlic 200g", "salesprice": 3.35, "salespricerrp": 3.38, "sizevalue": 0.2, "sizeunit": "kg", "isWeighted": false, "bcrs": false, "country": null, "category": "chilledanddairy", "labels": "Butter Dips and Spreadables; Chilled and Dairy; Refrigerated; Pates And Related Spreadables"}, {"product_id": 20066, "product": "Steril Yoghurt Maxi Fragola 500g", "salesprice": 1.94, "salespricerrp": 1.99, "sizevalue": 0.5, "sizeunit": "kg", "isWeighted": false, "bcrs": false, "country": null, "category": "chilledanddairy", "labels": "Yoghurt And Dessert; Chilled and Dairy; Sterilgarda; Refrigerated; Yoghurts and Desserts"}, {"product_id": 20097, "product": "Muller Bianco Seto Mirtilli E Vanila 2 X 250g", "salesprice": 1.54, "salespricerrp": 1.76, "sizevalue": 0.25, "sizeunit": "kg", "isWeighted": false, "bcrs": false, "country": null, "category": "chilledanddairy", "labels": "Yoghurt And Dessert; Chilled and Dairy; Muller; Refrigerated; Yoghurts and Desserts"}, {"product_id": 20109, "product": "Artichokes Dip", "salesprice": 11.55, "salespricerrp": 11.55, "sizevalue": 1, "sizeunit": "kg", "isWeighted": true, "bcrs": false, "country": "Malta", "category": "chilledanddairy", "labels": "Butter Dips and Spreadables; Chilled and Dairy; Refrigerated; Dips"}, {"product_id": 20117, "product": "Vitalite Standard 500g", "salesprice": 4.13, "salespricerrp": 4.19, "sizevalue": 0.5, "sizeunit": "kg", "isWeighted": false, "bcrs": false, "country": null, "category": "chilledanddairy", "labels": "Butter; Butter Dips and Spreadables; Chilled and Dairy; Refrigerated; Vitalite"}, {"product_id": 20132, "product": "Espana Salchichon Extra 100g", "salesprice": 1.84, "salespricerrp": 2.5, "sizevalue": 0.1, "sizeunit": "kg", "isWeighted": false, "bcrs": false, "country": null, "category": "chilledanddairy", "labels": "Chilled Meat; Chilled Foods; Chilled and Dairy; Refrigerated"}, {"product_id": 20134, "product": "Berchtesgadener Land Alpenzwerg Organic-chocolate-milk 1,5% 250g", "salesprice": 1.2, "salespricerrp": 1.22, "sizevalue": 0.25, "sizeunit": "kg", "isWeighted": false, "bcrs": false, "country": null, "category": "chilledanddairy", "labels": "Chilled Foods; Chilled and Dairy; Refrigerated; Chilled Organic Weighted"}, {"product_id": 20185, "product": "Alpha Gefsi Tzatziki Dip 200g", "salesprice": 2.38, "salespricerrp": 2.5, "sizevalue": 0.2, "sizeunit": "kg", "isWeighted": false, "bcrs": false, "country": null, "category": "chilledanddairy", "labels": "Butter Dips and Spreadables; Chilled and Dairy; Refrigerated; Dips"}, {"product_id": 20198, "product": "Halta Margarina Vegetale 250g", "salesprice": 1.03, "salespricerrp": 1.35, "sizevalue": 0.25, "sizeunit": "kg", "isWeighted": false, "bcrs": false, "country": null, "category": "chilledanddairy", "labels": "Butter; Butter Dips and Spreadables; Chilled and Dairy; Refrigerated; Halta"}, {"product_id": 20209, "product": "Delta Natural Greek Yog 10% 150g", "salesprice": 1.67, "salespricerrp": 1.69, "sizevalue": 0.15, "sizeunit": "kg", "isWeighted": false, "bcrs": false, "country": null, "category": "chilledanddairy", "labels": "Yoghurt And Dessert; Chilled and Dairy; Refrigerated; Delta; Yoghurts and Desserts"}, {"product_id": 20211, "product": "Delta Greek Yogurt 0% Cherry 150g", "salesprice": 1.72, "salespricerrp": 1.75, "sizevalue": 0.15, "sizeunit": "kg", "isWeighted": false, "bcrs": false, "country": null, "category": "chilledanddairy", "labels": "Yoghurt And Dessert; Chilled and Dairy; Refrigerated; Yoghurts and Desserts"}, {"product_id": 20216, "product": "Zott Monte Single Pot 150g", "salesprice": 1.55, "salespricerrp": 1.59, "sizevalue": 0.15, "sizeunit": "kg", "isWeighted": false, "bcrs": false, "country": null, "category": "chilledanddairy", "labels": "Yoghurt And Dessert; Chilled and Dairy; Refrigerated; Monte; Yoghurts and Desserts"}, {"product_id": 20219, "product": "Wuber Frankfuter 200gr", "salesprice": 2.99, "salespricerrp": 3.7, "sizevalue": 0.2, "sizeunit": "kg", "isWeighted": false, "bcrs": false, "country": null, "category": "chilledanddairy", "labels": "Chilled Foods; Chilled and Dairy; Chilled Sausages; Refrigerated"}, {"product_id": 20244, "product": "President Unsalted Butter 250g", "salesprice": 4.82, "salespricerrp": 5.48, "sizevalue": 0.25, "sizeunit": "kg", "isWeighted": false, "bcrs": false, "country": null, "category": "chilledanddairy", "labels": "Butter; Butter Dips and Spreadables; Chilled and Dairy; Refrigerated; President"}, {"product_id": 20256, "product": "Hanini Creamylight Cooking Cream", "salesprice": 1.24, "salespricerrp": 1.28, "sizevalue": 0.16, "sizeunit": "kg", "isWeighted": false, "bcrs": false, "country": null, "category": "chilledanddairy", "labels": "Hanini; Chilled and Dairy; Fresh Cream; Refrigerated; Creams"}, {"product_id": 20260, "product": "Discus Coleslaw 250g", "salesprice": 2.52, "salespricerrp": 2.52, "sizevalue": 0.25, "sizeunit": "kg", "isWeighted": false, "bcrs": false, "country": null, "category": "chilledanddairy", "labels": "Discus; Butter Dips and Spreadables; Chilled and Dairy; Refrigerated; Dips"}, {"product_id": 20263, "product": "Rudolfs Joyful Bio Banana Strawberry Smoothie 260ml", "salesprice": 2.61, "salespricerrp": 2.72, "sizevalue": 0.26, "sizeunit": "l", "isWeighted": false, "bcrs": false, "country": null, "category": "chilledanddairy", "labels": "Chilled Foods; Chilled and Dairy; Refrigerated; Chilled Organic Weighted"}, {"product_id": 20275, "product": "Philadelphia Cottage Cheese 200g", "salesprice": 3.3, "salespricerrp": 3.39, "sizevalue": 0.2, "sizeunit": "kg", "isWeighted": false, "bcrs": false, "country": null, "category": "chilledanddairy", "labels": "Butter Dips and Spreadables; Chilled and Dairy; Refrigerated; Pates And Related Spreadables; Philadelphia"}, {"product_id": 20287, "product": "Zott Protein Pudding Caramel 200g", "salesprice": 1.43, "salespricerrp": 1.49, "sizevalue": 0.2, "sizeunit": "kg", "isWeighted": false, "bcrs": false, "country": null, "category": "chilledanddairy", "labels": "Yoghurt And Dessert; Chilled and Dairy; Zott; Refrigerated; Yoghurts and Desserts"}, {"product_id": 20292, "product": "Cucina D'oro Uht Cooking Cream 200ml", "salesprice": 1.08, "salespricerrp": 1.09, "sizevalue": 0.2, "sizeunit": "l", "isWeighted": false, "bcrs": false, "country": null, "category": "chilledanddairy", "labels": "Chilled and Dairy; Fresh Cream; Refrigerated; Creams"}], "page": 2, "currentRecords": 20, "offset": 40, "totalRecords": 100, "totalPages": 4}