{"products": [{"product_id": 20317, "product": "I Can't Believe It's Not Butter Spread 500g", "salesprice": 2.99, "salespricerrp": 3.59, "sizevalue": 0.5, "sizeunit": "kg", "isWeighted": false, "bcrs": false, "country": null, "category": "chilledanddairy", "labels": "Butter; Butter Dips and Spreadables; Chilled and Dairy; Refrigerated; I Can'T Believe It'S Not Butter"}, {"product_id": 20328, "product": "Delta Greek Yogurt Coconut Choc  150g", "salesprice": 1.72, "salespricerrp": 1.75, "sizevalue": 0.15, "sizeunit": "kg", "isWeighted": false, "bcrs": false, "country": null, "category": "chilledanddairy", "labels": "Yoghurt And Dessert; Chilled and Dairy; Refrigerated; Yoghurts and Desserts"}, {"product_id": 20351, "product": "Lurpak Butter Latte Fresco 10 X 100g", "salesprice": 2.59, "salespricerrp": 3.11, "sizevalue": 0.1, "sizeunit": "kg", "isWeighted": false, "bcrs": false, "country": null, "category": "chilledanddairy", "labels": "Butter; Lurpak; Butter Dips and Spreadables; Chilled and Dairy; Refrigerated"}, {"product_id": 20355, "product": "Dany Original Chicken Luncheonmeat 300g", "salesprice": 2.65, "salespricerrp": 2.79, "sizevalue": 0.3, "sizeunit": "kg", "isWeighted": false, "bcrs": false, "country": null, "category": "chilledanddairy", "labels": "Chilled and Dairy; Mortadella and Luncheon Meat; Chilled Luncheonmeat/Mortadella; Dany"}, {"product_id": 20415, "product": "Olympus Drink Kefir Plain 1% 500ml", "salesprice": 1.65, "salespricerrp": 1.74, "sizevalue": 0.5, "sizeunit": "l", "isWeighted": false, "bcrs": false, "country": null, "category": "chilledanddairy", "labels": "Yoghurt And Dessert; Chilled and Dairy; Refrigerated; Olympus; Yoghurts and Desserts"}, {"product_id": 20426, "product": "Cranberry Skin Pate", "salesprice": 39.99, "salespricerrp": 39.99, "sizevalue": 1, "sizeunit": "kg", "isWeighted": true, "bcrs": false, "country": "Belgium", "category": "chilledanddairy", "labels": "Butter Dips and Spreadables; Chilled and Dairy; Refrigerated; Dips"}, {"product_id": 20427, "product": "Muller Dessert Proteico Vaniglia Panna 200g", "salesprice": 2.63, "salespricerrp": 3.25, "sizevalue": 0.2, "sizeunit": "kg", "isWeighted": false, "bcrs": false, "country": null, "category": "chilledanddairy", "labels": "Yoghurt And Dessert; Chilled and Dairy; Muller; Refrigerated; Yoghurts and Desserts"}, {"product_id": 20440, "product": "Berchtesgadener Land Bio-fruit Quark Strawberry 200g", "salesprice": 1.76, "salespricerrp": 1.8, "sizevalue": 0.2, "sizeunit": "kg", "isWeighted": false, "bcrs": false, "country": null, "category": "chilledanddairy", "labels": "Chilled Foods; Chilled and Dairy; Refrigerated; Chilled Organic Weighted"}, {"product_id": 20480, "product": "Fage Fruyo Coconut 1.3% 150g", "salesprice": 1.87, "salespricerrp": 1.92, "sizevalue": 0.15, "sizeunit": "kg", "isWeighted": false, "bcrs": false, "country": null, "category": "chilledanddairy", "labels": "Yoghurt And Dessert; Chilled and Dairy; Fage; Refrigerated; Yoghurts and Desserts"}, {"product_id": 20496, "product": "Danone Activia 0.1% Pesca 4x125g", "salesprice": 3.5, "salespricerrp": 3.65, "sizevalue": 0.13, "sizeunit": "kg", "isWeighted": false, "bcrs": false, "country": null, "category": "chilledanddairy", "labels": "Yoghurt And Dessert; Chilled and Dairy; Refrigerated; Danone; Yoghurts and Desserts"}, {"product_id": 20499, "product": "Stuffer Dessert Proteico Vaniglia 200g", "salesprice": 1.95, "salespricerrp": 2.45, "sizevalue": 0.2, "sizeunit": "kg", "isWeighted": false, "bcrs": false, "country": null, "category": "chilledanddairy", "labels": "Yoghurt And Dessert; Chilled and Dairy; Refrigerated; Stuffer; Yoghurts and Desserts"}, {"product_id": 20527, "product": "Kolios Hercules High Protein Greek Yogurt 0% 200g", "salesprice": 1.99, "salespricerrp": 2.09, "sizevalue": 0.2, "sizeunit": "kg", "isWeighted": false, "bcrs": false, "country": null, "category": "chilledanddairy", "labels": "Yoghurt And Dessert; Chilled and Dairy; Refrigerated; Kolios; Yoghurts and Desserts"}, {"product_id": 20542, "product": "Danone Hipro Mango 300g", "salesprice": 2.82, "salespricerrp": 2.95, "sizevalue": 0.3, "sizeunit": "kg", "isWeighted": false, "bcrs": false, "country": null, "category": "chilledanddairy", "labels": "Yoghurt And Dessert; Chilled and Dairy; Refrigerated; Danone; Yoghurts and Desserts"}, {"product_id": 20545, "product": "Zott Jogobella Panna Cotta 150g", "salesprice": 0.65, "salespricerrp": 0.69, "sizevalue": 0.15, "sizeunit": "kg", "isWeighted": false, "bcrs": false, "country": null, "category": "chilledanddairy", "labels": "Yoghurt And Dessert; Chilled and Dairy; Zott; Refrigerated; Yoghurts and Desserts"}, {"product_id": 20546, "product": "Valsoia Bonta Salute Yosoi Vaniglia 2 X 125g", "salesprice": 2.25, "salespricerrp": 2.4, "sizevalue": 0.25, "sizeunit": "kg", "isWeighted": false, "bcrs": false, "country": null, "category": "chilledanddairy", "labels": "Yoghurt And Dessert; Chilled and Dairy; Refrigerated; Valsoia; Yoghurts and Desserts"}, {"product_id": 20556, "product": "Pascual Flavoured Vanilla 4x125g", "salesprice": 2.64, "salespricerrp": 2.8, "sizevalue": 0.5, "sizeunit": "kg", "isWeighted": false, "bcrs": false, "country": null, "category": "chilledanddairy", "labels": "Yoghurt And Dessert; Chilled and Dairy; Refrigerated; Pascual; Yoghurts and Desserts"}, {"product_id": 20565, "product": "Devon Double Cream 170g", "salesprice": 4.43, "salespricerrp": 4.5, "sizevalue": 0.17, "sizeunit": "kg", "isWeighted": false, "bcrs": false, "country": null, "category": "chilledanddairy", "labels": "Chilled and Dairy; Fresh Cream; Refrigerated; Creams; Devon"}, {"product_id": 20573, "product": "Lurpak Spreadable Light 250g", "salesprice": 4.54, "salespricerrp": 4.55, "sizevalue": 0.25, "sizeunit": "kg", "isWeighted": false, "bcrs": false, "country": null, "category": "chilledanddairy", "labels": "Butter; Butter Dips and Spreadables; Chilled and Dairy; Refrigerated"}, {"product_id": 20574, "product": "Vegan Deli Chives 100g", "salesprice": 3.39, "salespricerrp": 3.59, "sizevalue": 0.1, "sizeunit": "kg", "isWeighted": false, "bcrs": false, "country": null, "category": "chilledanddairy", "labels": "Chilled Foods; Chilled and Dairy; Refrigerated; Chilled Vegetarian Products"}, {"product_id": 20587, "product": "Montare D'oro Spray  241ml", "salesprice": 2.45, "salespricerrp": 2.49, "sizevalue": 0.24, "sizeunit": "l", "isWeighted": false, "bcrs": false, "country": null, "category": "chilledanddairy", "labels": "Chilled and Dairy; Other Chilled; Refrigerated"}], "page": 3, "currentRecords": 20, "offset": 60, "totalRecords": 100, "totalPages": 4}