{"products": [{"product_id": 20592, "product": "Camel Brand Salami Dip 230g", "salesprice": 3.69, "salespricerrp": 3.75, "sizevalue": 0.23, "sizeunit": "kg", "isWeighted": false, "bcrs": false, "country": null, "category": "chilledanddairy", "labels": "Chilled and Dairy; Other Chilled; Camel Brand; Refrigerated"}, {"product_id": 20594, "product": "Remia Sunflower Margerine 500g + 250g Free", "salesprice": 4.41, "salespricerrp": 4.49, "sizevalue": 0.5, "sizeunit": "kg", "isWeighted": false, "bcrs": false, "country": null, "category": "chilledanddairy", "labels": "Butter; Butter Dips and Spreadables; Chilled and Dairy; Refrigerated; Remia"}, {"product_id": 20600, "product": "Pascual Yogikids Duo Chocolate 2x80g", "salesprice": 2.85, "salespricerrp": 2.9, "sizevalue": 0.16, "sizeunit": "kg", "isWeighted": false, "bcrs": false, "country": null, "category": "chilledanddairy", "labels": "Yoghurt And Dessert; Chilled and Dairy; Refrigerated; Pascual; Yoghurts and Desserts"}, {"product_id": 20607, "product": "Tulip Pancetta A Cubetti 100g", "salesprice": 2.24, "salespricerrp": 2.29, "sizevalue": 0.1, "sizeunit": "kg", "isWeighted": false, "bcrs": false, "country": null, "category": "chilledanddairy", "labels": "Tulip; Chilled Foods; Chilled and Dairy; Chilled Bacon"}, {"product_id": 20622, "product": "Pinsa Cuore Italiano Integrale 460gr", "salesprice": 6.25, "salespricerrp": 7, "sizevalue": 0.23, "sizeunit": "l", "isWeighted": false, "bcrs": false, "country": null, "category": "chilledanddairy", "labels": "Chilled Foods; Chilled and Dairy; Chilled Pasta; Refrigerated"}, {"product_id": 20626, "product": "Divella Tagliatelle Uovo 250g", "salesprice": 1.52, "salespricerrp": 2, "sizevalue": 0.25, "sizeunit": "kg", "isWeighted": false, "bcrs": false, "country": null, "category": "chilledanddairy", "labels": "Chilled Foods; Chilled and Dairy; Chilled Pasta; Divella; Refrigerated"}, {"product_id": 20630, "product": "Danone Actimel Fragola X6", "salesprice": 4.26, "salespricerrp": 4.7, "sizevalue": 6, "sizeunit": "p", "isWeighted": false, "bcrs": false, "country": null, "category": "chilledanddairy", "labels": "Yoghurt And Dessert; Chilled and Dairy; Refrigerated; Danone; Yoghurts and Desserts"}, {"product_id": 20632, "product": "Mevgal Autentic Greek Yogurt 0% Fat 900g", "salesprice": 5.99, "salespricerrp": 6.15, "sizevalue": 0.9, "sizeunit": "kg", "isWeighted": false, "bcrs": false, "country": null, "category": "chilledanddairy", "labels": "Yoghurt And Dessert; Chilled and Dairy; Mevgal; Refrigerated; Yoghurts and Desserts"}, {"product_id": 20638, "product": "Milk Pro Protein Source Snack Fresco Al Cacao 4x40gr", "salesprice": 6.5, "salespricerrp": 8, "sizevalue": 0.16, "sizeunit": "kg", "isWeighted": false, "bcrs": false, "country": null, "category": "chilledanddairy", "labels": "Yoghurt And Dessert; Chilled and Dairy; Refrigerated; Yoghurts and Desserts"}, {"product_id": 20650, "product": "Camel Brand Capers  X 300g", "salesprice": 2.75, "salespricerrp": 2.8, "sizevalue": 0.3, "sizeunit": "kg", "isWeighted": false, "bcrs": false, "country": null, "category": "chilledanddairy", "labels": "Chilled and Dairy; Other Chilled; Camel Brand; Refrigerated"}, {"product_id": 20710, "product": "President Whipping Cream 500ml", "salesprice": 6.69, "salespricerrp": 6.75, "sizevalue": 0.5, "sizeunit": "kg", "isWeighted": false, "bcrs": false, "country": null, "category": "chilledanddairy", "labels": "Chilled and Dairy; Fresh Cream; Refrigerated; Creams; President"}, {"product_id": 20716, "product": "Discus Danish White Cheese With Chilli", "salesprice": 1.4, "salespricerrp": 1.4, "sizevalue": 1, "sizeunit": "p", "isWeighted": false, "bcrs": false, "country": null, "category": "chilledanddairy", "labels": "Discus; Butter Dips and Spreadables; Chilled and Dairy; Refrigerated; Dips"}, {"product_id": 20732, "product": "Muller Mix Pistacchios Mandorle 150g", "salesprice": 1.52, "salespricerrp": 1.55, "sizevalue": 0.15, "sizeunit": "kg", "isWeighted": false, "bcrs": false, "country": null, "category": "chilledanddairy", "labels": "Yoghurt And Dessert; Chilled and Dairy; Muller; Refrigerated; Yoghurts and Desserts"}, {"product_id": 20763, "product": "Parmalat Kyr Fragola 2x125gr", "salesprice": 1.99, "salespricerrp": 2.5, "sizevalue": 0.13, "sizeunit": "kg", "isWeighted": false, "bcrs": false, "country": null, "category": "chilledanddairy", "labels": "Yoghurt And Dessert; Chilled and Dairy; Refrigerated; Yoghurts and Desserts; Parmalat"}, {"product_id": 20768, "product": "Danone Danacol Fragola\u00a08x100ml", "salesprice": 7.99, "salespricerrp": 8.49, "sizevalue": 0.1, "sizeunit": "l", "isWeighted": false, "bcrs": false, "country": null, "category": "chilledanddairy", "labels": "Yoghurt And Dessert; Chilled and Dairy; Refrigerated; Danone; Yoghurts and Desserts"}, {"product_id": 20804, "product": "Regilait Frappe Latte Caffe 250ml", "salesprice": 2.27, "salespricerrp": 2.5, "sizevalue": 0.25, "sizeunit": "l", "isWeighted": false, "bcrs": true, "country": null, "category": "chilledanddairy", "labels": "Regilait; Chilled and Dairy; Chilled Beverages; Refrigerated"}, {"product_id": 20845, "product": "Milk Snack Al Latte 4x28g", "salesprice": 1.99, "salespricerrp": 2.19, "sizevalue": 0.03, "sizeunit": "kg", "isWeighted": false, "bcrs": false, "country": null, "category": "chilledanddairy", "labels": "Yoghurt And Dessert; Chilled and Dairy; Refrigerated; Yoghurts and Desserts"}, {"product_id": 20895, "product": "Country Life Butter Salted 250g", "salesprice": 6.29, "salespricerrp": 6.41, "sizevalue": 0.25, "sizeunit": "kg", "isWeighted": false, "bcrs": false, "country": null, "category": "chilledanddairy", "labels": "Butter; Butter Dips and Spreadables; Chilled and Dairy; Refrigerated; Countre"}, {"product_id": 20902, "product": "Leoncini Pancetta Affumicata Cubetti 2x50g", "salesprice": 2.27, "salespricerrp": 2.4, "sizevalue": 0.1, "sizeunit": "kg", "isWeighted": false, "bcrs": false, "country": null, "category": "chilledanddairy", "labels": "Leoncini; Chilled Foods; Chilled and Dairy; Chilled Bacon"}, {"product_id": 20921, "product": "Josefa Blue Cheese Dip  195g", "salesprice": 2.19, "salespricerrp": 2.85, "sizevalue": 0.2, "sizeunit": "kg", "isWeighted": false, "bcrs": false, "country": null, "category": "chilledanddairy", "labels": "Butter Dips and Spreadables; Chilled and Dairy; Josefa; Refrigerated; Dips"}], "page": 4, "currentRecords": 20, "offset": 80, "totalRecords": 100, "totalPages": 4}