{"products": [{"product_id": 19481, "product": "Mlindo Blue Liquid 930ml", "salesprice": 2.5, "salespricerrp": 3, "sizevalue": 0.93, "sizeunit": "l", "isWeighted": false, "bcrs": false, "country": null, "category": "household", "labels": "Household Care and Essentials; All Purpose Cleaners; Mastro Lindo; Household"}, {"product_id": 19483, "product": "Brown Watson Now I Can Read:stories For Boys", "salesprice": 5.5, "salespricerrp": 5.5, "sizevalue": 1, "sizeunit": "p", "isWeighted": false, "bcrs": false, "country": null, "category": "household", "labels": "Stationery; Household"}, {"product_id": 19486, "product": "Sbc Hair Stylist Doll", "salesprice": 11.99, "salespricerrp": 24, "sizevalue": 1, "sizeunit": "p", "isWeighted": false, "bcrs": false, "country": null, "category": "household", "labels": "Toys; Household"}, {"product_id": 19489, "product": "Lunch Cube Assorted", "salesprice": 8.07, "salespricerrp": 8.5, "sizevalue": 1, "sizeunit": "p", "isWeighted": false, "bcrs": false, "country": null, "category": "household", "labels": "Household Care and Essentials; Kitchen Essentials; SISTEMA; Household"}, {"product_id": 19491, "product": "Collage Open Fem Conv", "salesprice": 1.75, "salespricerrp": 1.75, "sizevalue": 1, "sizeunit": "p", "isWeighted": false, "bcrs": false, "country": null, "category": "household", "labels": "Stationery; Household"}, {"product_id": 19492, "product": "De Fonseca Winter Roma Top Ladie Bed Slippers", "salesprice": 14.9, "salespricerrp": 14.9, "sizevalue": 1, "sizeunit": "p", "isWeighted": false, "bcrs": false, "country": null, "category": "household", "labels": "Shoes; Footwear; Household"}, {"product_id": 19497, "product": "Babylino Unisex Pants No5 10-16kg 26pcs", "salesprice": 8.78, "salespricerrp": 10.4, "sizevalue": 1, "sizeunit": "p", "isWeighted": false, "bcrs": false, "country": null, "category": "household", "labels": "Baby Care and Accessories; Babylino; Diapers / Nappies; Household"}, {"product_id": 19499, "product": "Digital Kitchen Scales 500 G \u0093accura\u0094", "salesprice": 33.61, "salespricerrp": 34.3, "sizevalue": 1, "sizeunit": "p", "isWeighted": false, "bcrs": false, "country": null, "category": "household", "labels": "Household Care and Essentials; Kitchen Essentials; Household"}, {"product_id": 19500, "product": "Chicco Breast Pads 30pcs", "salesprice": 5.79, "salespricerrp": 5.99, "sizevalue": 1, "sizeunit": "p", "isWeighted": false, "bcrs": false, "country": null, "category": "household", "labels": "Baby Accessories; Baby Care and Accessories; Chicco; Household"}, {"product_id": 19501, "product": "Vivace Soft Conditioner White Tale 4l", "salesprice": 3.36, "salespricerrp": 3.79, "sizevalue": 4, "sizeunit": "l", "isWeighted": false, "bcrs": false, "country": null, "category": "household", "labels": "Laundry Products; Vivace; Laundry Detergent ; Household"}, {"product_id": 19504, "product": "Heat Holders Ladies Lounge Socks Aucklandstripe Silver Grey", "salesprice": 12.95, "salespricerrp": 12.95, "sizevalue": 1, "sizeunit": "p", "isWeighted": false, "bcrs": false, "country": null, "category": "household", "labels": "Garments; Socks; Household"}, {"product_id": 19508, "product": "Mustela Baby Massage Oil 100 Ml", "salesprice": 8.99, "salespricerrp": 8.99, "sizevalue": 0.1, "sizeunit": "l", "isWeighted": false, "bcrs": false, "country": null, "category": "household", "labels": "Baby Hygiene; Baby Care and Accessories; Mustela; Household"}, {"product_id": 19509, "product": "Areon Wild", "salesprice": 1, "salespricerrp": 1, "sizevalue": 1, "sizeunit": "p", "isWeighted": false, "bcrs": false, "country": null, "category": "household", "labels": "Car Air Freshners; Car Products; Areon; Household"}, {"product_id": 19511, "product": "Huggies Unisex Grande 15-30 Kg 34pcs", "salesprice": 14.45, "salespricerrp": 16.99, "sizevalue": 34, "sizeunit": "p", "isWeighted": false, "bcrs": false, "country": null, "category": "household", "labels": "Baby Care and Accessories; Huggies; Diapers / Nappies; Household"}, {"product_id": 19515, "product": "Car Pride Screen Wash 1l", "salesprice": 3.41, "salespricerrp": 3.47, "sizevalue": 1, "sizeunit": "l", "isWeighted": false, "bcrs": false, "country": null, "category": "household", "labels": "Car Care; Car Products; Car Pride; Household"}, {"product_id": 19516, "product": "My Beach Spirit Ladies Flip Flop Paisley", "salesprice": 6.95, "salespricerrp": 6.95, "sizevalue": 1, "sizeunit": "p", "isWeighted": false, "bcrs": false, "country": null, "category": "household", "labels": "Shoes; Footwear; Household"}, {"product_id": 19519, "product": "Glade Sense & Spray  Mela E Cannella 18ml", "salesprice": 3.95, "salespricerrp": 5.15, "sizevalue": 0.02, "sizeunit": "l", "isWeighted": false, "bcrs": false, "country": null, "category": "household", "labels": "Household Care and Essentials; Air Freshners; Household; Glade"}, {"product_id": 19520, "product": "Curlimals Bibi Bunny", "salesprice": 23.74, "salespricerrp": 24.99, "sizevalue": 1, "sizeunit": "p", "isWeighted": false, "bcrs": false, "country": null, "category": "household", "labels": "Toys; Household"}, {"product_id": 19521, "product": "Bags Food/freezer Slide Seal 18x21cm 20pk X24", "salesprice": 3.17, "salespricerrp": 3.39, "sizevalue": 1, "sizeunit": "p", "isWeighted": false, "bcrs": false, "country": null, "category": "household", "labels": "Household Care and Essentials; Kitchen Essentials; Household"}, {"product_id": 19526, "product": "10x9,5x13cm Pumpkin", "salesprice": 5, "salespricerrp": 5, "sizevalue": 1, "sizeunit": "p", "isWeighted": false, "bcrs": false, "country": null, "category": "household", "labels": "Halloween; Seasonal Items; Household"}], "page": 1, "currentRecords": 20, "offset": 20, "totalRecords": 100, "totalPages": 4}