{"products": [{"product_id": 19528, "product": "Men Thermal V/neck L/sleeve Vest Whitem", "salesprice": 14.5, "salespricerrp": 14.5, "sizevalue": 1, "sizeunit": "p", "isWeighted": false, "bcrs": false, "country": null, "category": "household", "labels": "Saffio; Garments; Underwear; Household"}, {"product_id": 19529, "product": "Les Lavandieres Pietra Sgrassante 500g", "salesprice": 7.24, "salespricerrp": 7.98, "sizevalue": 0.5, "sizeunit": "kg", "isWeighted": false, "bcrs": false, "country": null, "category": "household", "labels": "Household Care and Essentials; All Purpose Cleaners; Household"}, {"product_id": 19530, "product": "Hg Bathshine 500ml", "salesprice": 5.76, "salespricerrp": 5.91, "sizevalue": 0.5, "sizeunit": "l", "isWeighted": false, "bcrs": false, "country": null, "category": "household", "labels": "Hg; Bathroom Care and Essentials; Bathroom Cleaning Products; Household"}, {"product_id": 19533, "product": "Christmas Lighted Glass With Winter Scene 9x20cm", "salesprice": 15.95, "salespricerrp": 17, "sizevalue": 1, "sizeunit": "p", "isWeighted": false, "bcrs": false, "country": null, "category": "household", "labels": "Christmas Items; Seasonal Items; Household"}, {"product_id": 19534, "product": "Whitakers Milk Smokey Salted Caramel Squares 150gr", "salesprice": 4.95, "salespricerrp": 5.5, "sizevalue": 0.15, "sizeunit": "kg", "isWeighted": false, "bcrs": false, "country": null, "category": "household", "labels": "Christmas Items; Seasonal Items; Household; Whitakers"}, {"product_id": 19535, "product": "Rect-cont.,1.2lt80100590190 Hei1908", "salesprice": 4.12, "salespricerrp": 4.25, "sizevalue": 1, "sizeunit": "p", "isWeighted": false, "bcrs": false, "country": null, "category": "household", "labels": "Household Care and Essentials; Kitchen Essentials; Household"}, {"product_id": 19537, "product": "Eurolamp Extreme Power Battery Aaa 1.5v 4pcs", "salesprice": 2.2, "salespricerrp": 2.9, "sizevalue": 1, "sizeunit": "p", "isWeighted": false, "bcrs": false, "country": null, "category": "household", "labels": "Batteries; Household"}, {"product_id": 19538, "product": "Tescoma Table Knife 12 Cm 6 Pcs Red Presto", "salesprice": 10.29, "salespricerrp": 10.5, "sizevalue": 1, "sizeunit": "p", "isWeighted": false, "bcrs": false, "country": null, "category": "household", "labels": "Tescoma; Household Care and Essentials; Kitchen Essentials; Household"}, {"product_id": 19547, "product": "Dim Cotton Ladies Boxers/panties [4h01]", "salesprice": 14.99, "salespricerrp": 14.99, "sizevalue": 1, "sizeunit": "p", "isWeighted": false, "bcrs": false, "country": null, "category": "household", "labels": "Dim; Garments; Underwear; Household"}, {"product_id": 19550, "product": "Candle Numeral Deluxe - 8", "salesprice": 1.36, "salespricerrp": 1.4, "sizevalue": 1, "sizeunit": "p", "isWeighted": false, "bcrs": false, "country": null, "category": "household", "labels": "Party Items ; Household; Party Items"}, {"product_id": 19554, "product": "Dream Baby Toothbrush Set 3 Stage White", "salesprice": 6.99, "salespricerrp": 6.99, "sizevalue": 1, "sizeunit": "p", "isWeighted": false, "bcrs": false, "country": null, "category": "household", "labels": "Dream Baby; Baby Accessories; Baby Care and Accessories; Household"}, {"product_id": 19557, "product": "Nuvoletta Casa Alla Lavanda 3ltr", "salesprice": 3.68, "salespricerrp": 4.25, "sizevalue": 3, "sizeunit": "l", "isWeighted": false, "bcrs": false, "country": null, "category": "household", "labels": "Laundry Conditioner; Laundry Products; Household"}, {"product_id": 19558, "product": "Hotpack Biodegradable Picnic Set X12", "salesprice": 4.8, "salespricerrp": 4.9, "sizevalue": 1, "sizeunit": "p", "isWeighted": false, "bcrs": false, "country": null, "category": "household", "labels": "Disposable Goods; Disposable Cups; Household"}, {"product_id": 19561, "product": "De Fonseca Ladies Wedge Flip Flops", "salesprice": 12.9, "salespricerrp": 12.9, "sizevalue": 1, "sizeunit": "p", "isWeighted": false, "bcrs": false, "country": null, "category": "household", "labels": "Shoes; Footwear; Household"}, {"product_id": 19566, "product": "Sperlari Tartufi Di Chocolate Assortiti 160g", "salesprice": 5.5, "salespricerrp": 5.65, "sizevalue": 0.16, "sizeunit": "kg", "isWeighted": false, "bcrs": false, "country": null, "category": "household", "labels": "Sperlari; Christmas Items; Seasonal Items; Household"}, {"product_id": 19567, "product": "Culpitt Select Baking Cases Red 50mm X50pcs", "salesprice": 4.42, "salespricerrp": 4.6, "sizevalue": 50, "sizeunit": "p", "isWeighted": false, "bcrs": false, "country": null, "category": "household", "labels": "Disposable Cup Cakes; Culpitt; Household; Party Items"}, {"product_id": 19568, "product": "Areon Orient", "salesprice": 1.5, "salespricerrp": 1.5, "sizevalue": 1, "sizeunit": "p", "isWeighted": false, "bcrs": false, "country": null, "category": "household", "labels": "Car Air Freshners; Car Products; Areon; Household"}, {"product_id": 19575, "product": "Bialetti Dynamic Stone Frying Pan 30cm", "salesprice": 20.66, "salespricerrp": 21.75, "sizevalue": 1, "sizeunit": "p", "isWeighted": false, "bcrs": false, "country": null, "category": "household", "labels": "Household Care and Essentials; Kitchen Essentials; Bialetti; Household"}, {"product_id": 19577, "product": "Navigate Monochrome Tile Stainless Steel Drinks Bottle 500ml", "salesprice": 22.98, "salespricerrp": 24, "sizevalue": 1, "sizeunit": "p", "isWeighted": false, "bcrs": false, "country": null, "category": "household", "labels": "Kitchen Care and Accessories; Thermos; Household"}, {"product_id": 19579, "product": "Barbxp Precision Beard Trimmer", "salesprice": 19.99, "salespricerrp": 19.99, "sizevalue": 1, "sizeunit": "p", "isWeighted": false, "bcrs": false, "country": null, "category": "household", "labels": "Women Accessories; Abc; Household"}], "page": 2, "currentRecords": 20, "offset": 40, "totalRecords": 100, "totalPages": 4}