{"products": [{"product_id": 19580, "product": "Noel Tatt Wedding Ing -dj324", "salesprice": 2.5, "salespricerrp": 2.5, "sizevalue": 1, "sizeunit": "p", "isWeighted": false, "bcrs": false, "country": null, "category": "household", "labels": "Cards; Stationery ; Household"}, {"product_id": 19585, "product": "Zippo Reading Glasses", "salesprice": 10.95, "salespricerrp": 10.95, "sizevalue": 1, "sizeunit": "p", "isWeighted": false, "bcrs": false, "country": null, "category": "household", "labels": "Reading Glasses; Health; Household"}, {"product_id": 19588, "product": "Nick Explosions X 6", "salesprice": 16.99, "salespricerrp": 29.99, "sizevalue": 1, "sizeunit": "p", "isWeighted": false, "bcrs": false, "country": null, "category": "household", "labels": "Toys; Household"}, {"product_id": 19589, "product": "Vernel Softener Conc. 48 Lavender Lavender 1.2ltr", "salesprice": 3.99, "salespricerrp": 5, "sizevalue": 1.2, "sizeunit": "l", "isWeighted": false, "bcrs": false, "country": null, "category": "household", "labels": "Laundry Conditioner; Laundry Products; Vernel; Household"}, {"product_id": 19596, "product": "Pampers Pants 4 Maxi X23", "salesprice": 9.33, "salespricerrp": 11.25, "sizevalue": 23, "sizeunit": "p", "isWeighted": false, "bcrs": false, "country": null, "category": "household", "labels": "Pampers; Baby Care and Accessories; Diapers / Nappies; Household"}, {"product_id": 19597, "product": "Glade Auto Refill Berry 269ml", "salesprice": 5.37, "salespricerrp": 5.77, "sizevalue": 0.27, "sizeunit": "l", "isWeighted": false, "bcrs": false, "country": null, "category": "household", "labels": "Household Care and Essentials; Air Freshners; Household; Glade"}, {"product_id": 19599, "product": "Hallmark 50 Years Code 50 - 2", "salesprice": 2.5, "salespricerrp": 2.5, "sizevalue": 1, "sizeunit": "p", "isWeighted": false, "bcrs": false, "country": null, "category": "household", "labels": "Cards; Stationery ; Household"}, {"product_id": 19602, "product": "Oust 3in1 Aerosol  400ml", "salesprice": 5.48, "salespricerrp": 6, "sizevalue": 0.4, "sizeunit": "l", "isWeighted": false, "bcrs": false, "country": null, "category": "household", "labels": "Household Care and Essentials; Air Freshners; Oust; Household"}, {"product_id": 19604, "product": "Hallmark Friend Birthday Code 90 -fr2", "salesprice": 3.75, "salespricerrp": 3.75, "sizevalue": 1, "sizeunit": "p", "isWeighted": false, "bcrs": false, "country": null, "category": "household", "labels": "Cards; Stationery ; Household"}, {"product_id": 19605, "product": "Clg Gift Bag Small Quilted Lilac (6)", "salesprice": 1.5, "salespricerrp": 1.5, "sizevalue": 1, "sizeunit": "p", "isWeighted": false, "bcrs": false, "country": null, "category": "household", "labels": "Stationery; Household"}, {"product_id": 19606, "product": "Astonish 2in1 Non Bio Laundry Liquid Secret Garden 840ml", "salesprice": 4.99, "salespricerrp": 5.99, "sizevalue": 0.84, "sizeunit": "l", "isWeighted": false, "bcrs": false, "country": null, "category": "household", "labels": "Astonish; Laundry Products; Laundry Detergent ; Household"}, {"product_id": 19607, "product": "Energizer Lithium Battery Cr2025 Fsb2", "salesprice": 4.4, "salespricerrp": 4.4, "sizevalue": 1, "sizeunit": "p", "isWeighted": false, "bcrs": false, "country": null, "category": "household", "labels": "Batteries; Household"}, {"product_id": 19611, "product": "Miles Kelly Flashcards Spot Dinosaurs", "salesprice": 7.99, "salespricerrp": 7.99, "sizevalue": 1, "sizeunit": "p", "isWeighted": false, "bcrs": false, "country": null, "category": "household", "labels": "Stationery; Household"}, {"product_id": 19615, "product": "Live Up Waist Support", "salesprice": 14.16, "salespricerrp": 14.9, "sizevalue": 1, "sizeunit": "p", "isWeighted": false, "bcrs": false, "country": null, "category": "household", "labels": "Sports Accessories; Sports; Household"}, {"product_id": 19616, "product": "Vileda Spazola Margherita", "salesprice": 5.45, "salespricerrp": 6.08, "sizevalue": 1, "sizeunit": "p", "isWeighted": false, "bcrs": false, "country": null, "category": "household", "labels": "Household Care and Essentials; Vileda; Cleaning Materials; Household"}, {"product_id": 19619, "product": "Vernel Softener Conc.lotus Washes 1.15lt 46w", "salesprice": 3.99, "salespricerrp": 5, "sizevalue": 1.15, "sizeunit": "l", "isWeighted": false, "bcrs": false, "country": null, "category": "household", "labels": "Laundry Products; Vernel; Laundry Detergent ; Household"}, {"product_id": 19620, "product": "Chicco Advanced Cup 12m Girl", "salesprice": 12.44, "salespricerrp": 12.9, "sizevalue": 1, "sizeunit": "p", "isWeighted": false, "bcrs": false, "country": null, "category": "household", "labels": "Baby Accessories; Baby Care and Accessories; Chicco; Household"}, {"product_id": 19622, "product": "Balocco Torta Limone 400g", "salesprice": 5.12, "salespricerrp": 5.69, "sizevalue": 0.4, "sizeunit": "kg", "isWeighted": false, "bcrs": false, "country": null, "category": "household", "labels": "Christmas Items; Balocco; Seasonal Items; Household"}, {"product_id": 19623, "product": "Dim Basic Dim Basic Fascination X2 15d  35/41", "salesprice": 3.6, "salespricerrp": 3.6, "sizevalue": 1, "sizeunit": "kg", "isWeighted": false, "bcrs": false, "country": null, "category": "household", "labels": "Dim; Garments; Vests; Household"}, {"product_id": 19631, "product": "De Fonseca Winter Bormio Men Bed Slippers", "salesprice": 20.9, "salespricerrp": 20.9, "sizevalue": 1, "sizeunit": "p", "isWeighted": false, "bcrs": false, "country": null, "category": "household", "labels": "Shoes; Footwear; Household"}], "page": 3, "currentRecords": 20, "offset": 60, "totalRecords": 100, "totalPages": 4}