{"products": [{"product_id": 19633, "product": "Hallmark Mum Birthday Code 75 - F39", "salesprice": 3.25, "salespricerrp": 3.25, "sizevalue": 1, "sizeunit": "p", "isWeighted": false, "bcrs": false, "country": null, "category": "household", "labels": "Cards; Stationery ; Household"}, {"product_id": 19636, "product": "M Square Roaster", "salesprice": 5.72, "salespricerrp": 5.9, "sizevalue": 1, "sizeunit": "p", "isWeighted": false, "bcrs": false, "country": null, "category": "household", "labels": "Household Care and Essentials; Kitchen Essentials; Household"}, {"product_id": 19639, "product": "Cadbury 3d Advent Calendar Uk 308g", "salesprice": 15.47, "salespricerrp": 15.99, "sizevalue": 0.31, "sizeunit": "kg", "isWeighted": false, "bcrs": false, "country": null, "category": "household", "labels": "Christmas Items; Cadbury; Seasonal Items; Household"}, {"product_id": 19647, "product": "Christmas Poinsettia White 25cm", "salesprice": 2.5, "salespricerrp": 3, "sizevalue": 1, "sizeunit": "p", "isWeighted": false, "bcrs": false, "country": null, "category": "household", "labels": "Christmas Items; Seasonal Items; Household"}, {"product_id": 19648, "product": "Greeting Cards Code 50", "salesprice": 2.25, "salespricerrp": 2.25, "sizevalue": 1, "sizeunit": "p", "isWeighted": false, "bcrs": false, "country": null, "category": "household", "labels": "Stationery; Household"}, {"product_id": 19653, "product": "Live Up Patella Support", "salesprice": 5.6, "salespricerrp": 5.9, "sizevalue": 1, "sizeunit": "p", "isWeighted": false, "bcrs": false, "country": null, "category": "household", "labels": "Sports Accessories; Sports; Household"}, {"product_id": 19656, "product": "Septona Wipes Orange Blossom 15pc 2+2 Pk Promo", "salesprice": 1.75, "salespricerrp": 1.8, "sizevalue": 1, "sizeunit": "p", "isWeighted": false, "bcrs": false, "country": null, "category": "household", "labels": "Baby Care and Accessories; Baby Wipes; Household"}, {"product_id": 19657, "product": "Zippo Reading Glasses", "salesprice": 10.95, "salespricerrp": 10.95, "sizevalue": 1, "sizeunit": "p", "isWeighted": false, "bcrs": false, "country": null, "category": "household", "labels": "Reading Glasses; Health; Household"}, {"product_id": 19658, "product": "Fairy Dishwasher Wash Platinum Lemon 20 Tabs", "salesprice": 5.74, "salespricerrp": 8.75, "sizevalue": 20, "sizeunit": "p", "isWeighted": false, "bcrs": false, "country": null, "category": "household", "labels": "Fairy; Kitchen Care and Accessories; Household; Dish Washing"}, {"product_id": 19659, "product": "Logex 2 Metalic Sponges 30g", "salesprice": 1.52, "salespricerrp": 1.83, "sizevalue": 1, "sizeunit": "p", "isWeighted": false, "bcrs": false, "country": null, "category": "household", "labels": "Household Care and Essentials; Cleaning Materials; Logex; Household"}, {"product_id": 19660, "product": "Duracell Optimum Aa Alkaline X 8 Batteries", "salesprice": 14.12, "salespricerrp": 14.12, "sizevalue": 1, "sizeunit": "p", "isWeighted": false, "bcrs": false, "country": null, "category": "household", "labels": "Batteries; Duracell; Household"}, {"product_id": 19664, "product": "Igloo Books Puzzles For Kids Marvellous Wrdsearch", "salesprice": 2.99, "salespricerrp": 2.99, "sizevalue": 1, "sizeunit": "p", "isWeighted": false, "bcrs": false, "country": null, "category": "household", "labels": "Stationery; Household"}, {"product_id": 19666, "product": "Dp Dino World Torch W Visual Effects", "salesprice": 6.95, "salespricerrp": 6.95, "sizevalue": 0, "sizeunit": null, "isWeighted": false, "bcrs": false, "country": null, "category": "household", "labels": "Stationery; Household"}, {"product_id": 19667, "product": "Noel Tatt Sister Birthday -dn33b", "salesprice": 1.99, "salespricerrp": 1.99, "sizevalue": 1, "sizeunit": "p", "isWeighted": false, "bcrs": false, "country": null, "category": "household", "labels": "Cards; Stationery ; Household"}, {"product_id": 19671, "product": "Ariel Pods Color 33x21.7g", "salesprice": 12.99, "salespricerrp": 20.42, "sizevalue": 33, "sizeunit": "p", "isWeighted": false, "bcrs": false, "country": null, "category": "household", "labels": "Ariel; Laundry Products; Laundry Detergent ; Household"}, {"product_id": 19673, "product": "Xmas Lights Led B/o Timer Warm White 200b", "salesprice": 19.5, "salespricerrp": 25, "sizevalue": 1, "sizeunit": "p", "isWeighted": false, "bcrs": false, "country": null, "category": "household", "labels": "Christmas Items; Seasonal Items; Household"}, {"product_id": 19680, "product": "Petali Scented Glass Cotton", "salesprice": 2.99, "salespricerrp": 3.2, "sizevalue": 1, "sizeunit": "p", "isWeighted": false, "bcrs": false, "country": null, "category": "household", "labels": "Household Care and Essentials; Petali ; Candles Perfumed; Household"}, {"product_id": 19684, "product": "Tescoma Glass Cover Cm.22 Unicover", "salesprice": 11.96, "salespricerrp": 12.2, "sizevalue": 1, "sizeunit": "p", "isWeighted": false, "bcrs": false, "country": null, "category": "household", "labels": "Tescoma; Household Care and Essentials; Kitchen Essentials; Household"}, {"product_id": 19689, "product": "Vileda Scopa Doppio Angolo", "salesprice": 5.99, "salespricerrp": 8, "sizevalue": 1, "sizeunit": "p", "isWeighted": false, "bcrs": false, "country": null, "category": "household", "labels": "Household Care and Essentials; Vileda; Cleaning Materials; Household"}, {"product_id": 19693, "product": "Gdh Cat Tivity Karaoke", "salesprice": 18.05, "salespricerrp": 19, "sizevalue": 1, "sizeunit": "p", "isWeighted": false, "bcrs": false, "country": null, "category": "household", "labels": "Toys; Household"}], "page": 4, "currentRecords": 20, "offset": 80, "totalRecords": 100, "totalPages": 4}