{"products": [{"product_id": 19569, "product": "The Jelly Bean Factory 36 Huge Flavour Gourmet Popabean Can 100g", "salesprice": 3.48, "salespricerrp": 3.71, "sizevalue": 0.1, "sizeunit": "kg", "isWeighted": false, "bcrs": false, "country": null, "category": "confectionery", "labels": "Chocolates and Sweets; Confectionery; The Jelly Bean Factory; Sweets"}, {"product_id": 19578, "product": "Barilla Penne Rigate Integrale 500g", "salesprice": 1.64, "salespricerrp": 1.95, "sizevalue": 0.5, "sizeunit": "kg", "isWeighted": false, "bcrs": false, "country": "Italia", "category": "confectionery", "labels": "White Pasta; Barilla; Confectionery; Pasta Rice and Couscous"}, {"product_id": 19590, "product": "Mackie's Sea Salt & Vinegar 150g", "salesprice": 2.38, "salespricerrp": 2.44, "sizevalue": 0.15, "sizeunit": "kg", "isWeighted": false, "bcrs": false, "country": null, "category": "confectionery", "labels": "Mackies; Snacks and Crisps; Crisps Popcorn And other Snacks; Confectionery"}, {"product_id": 19601, "product": "Mr Riley Cheesy Rings 23g", "salesprice": 0.8, "salespricerrp": 0.8, "sizevalue": 0.02, "sizeunit": "kg", "isWeighted": false, "bcrs": false, "country": "Italia", "category": "confectionery", "labels": "Riley'S; Snacks and Crisps; Crisps Popcorn And other Snacks; Confectionery"}, {"product_id": 19608, "product": "Rummo Fettuccine All Uovo 250g", "salesprice": 1.79, "salespricerrp": 2.3, "sizevalue": 0.25, "sizeunit": "kg", "isWeighted": false, "bcrs": false, "country": "Italia", "category": "confectionery", "labels": "Rummo; White Pasta; Confectionery; Pasta Rice and Couscous"}, {"product_id": 19612, "product": "Kettle Chips Thai Sweet Chilli 130g", "salesprice": 2.66, "salespricerrp": 2.89, "sizevalue": 0.13, "sizeunit": "kg", "isWeighted": false, "bcrs": false, "country": null, "category": "confectionery", "labels": "Kettle Chips; Snacks and Crisps; Crisps Popcorn And other Snacks; Confectionery"}, {"product_id": 19617, "product": "Rummo Spaghettini 500g", "salesprice": 1.15, "salespricerrp": 1.8, "sizevalue": 0.5, "sizeunit": "kg", "isWeighted": false, "bcrs": false, "country": null, "category": "confectionery", "labels": "Rummo; White Pasta; Confectionery; Pasta Rice and Couscous"}, {"product_id": 19634, "product": "Valor 70% Dark Chocolate Orange Stevia 100g", "salesprice": 2.36, "salespricerrp": 2.45, "sizevalue": 0.1, "sizeunit": "kg", "isWeighted": false, "bcrs": false, "country": null, "category": "confectionery", "labels": "Chocolates and Sweets; Confectionery; Chocolates; Valor"}, {"product_id": 19645, "product": "Henderson & Sons Dip Guacamole 300g", "salesprice": 2.98, "salespricerrp": 3.5, "sizevalue": 0.3, "sizeunit": "kg", "isWeighted": false, "bcrs": false, "country": null, "category": "confectionery", "labels": "Snacks and Crisps; Crisps Popcorn And other Snacks; Confectionery"}, {"product_id": 19655, "product": "Valor 70% Dark Chocolate Salt 100g", "salesprice": 2.07, "salespricerrp": 2.15, "sizevalue": 0.1, "sizeunit": "kg", "isWeighted": false, "bcrs": false, "country": null, "category": "confectionery", "labels": "Chocolates and Sweets; Confectionery; Chocolates; Valor"}, {"product_id": 19668, "product": "Walkers Salt And Vinegar 32.5g", "salesprice": 0.8, "salespricerrp": 0.8, "sizevalue": 0, "sizeunit": null, "isWeighted": false, "bcrs": false, "country": "United Kingdom", "category": "confectionery", "labels": "Snacks and Crisps; Crisps Popcorn And other Snacks; Confectionery"}, {"product_id": 19677, "product": "Relkon Egg My Little Pony Heart", "salesprice": 1.42, "salespricerrp": 1.5, "sizevalue": 0.01, "sizeunit": "kg", "isWeighted": false, "bcrs": false, "country": null, "category": "confectionery", "labels": "Chocolates and Sweets; Confectionery; Sweets"}, {"product_id": 19681, "product": "Jolly Rancher Awesome Twosome Chews 184g", "salesprice": 3.75, "salespricerrp": 4, "sizevalue": 0.18, "sizeunit": "kg", "isWeighted": false, "bcrs": false, "country": null, "category": "confectionery", "labels": "JOLLY RANCHER; Chocolates and Sweets; Confectionery; Sweets"}, {"product_id": 19694, "product": "Polo Sugar Free 33.4g", "salesprice": 0.82, "salespricerrp": 0.82, "sizevalue": 0.03, "sizeunit": "kg", "isWeighted": false, "bcrs": false, "country": null, "category": "confectionery", "labels": "Chocolates and Sweets; Confectionery; Chocolates; Polo"}, {"product_id": 19717, "product": "Alberto Poiatti Stelline 500g", "salesprice": 0.85, "salespricerrp": 1.24, "sizevalue": 0.5, "sizeunit": "kg", "isWeighted": false, "bcrs": false, "country": null, "category": "confectionery", "labels": "White Pasta; Confectionery; Pasta Rice and Couscous; Poiatti"}, {"product_id": 19719, "product": "Chocolate & Mint", "salesprice": 2.5, "salespricerrp": 2.5, "sizevalue": 1, "sizeunit": "p", "isWeighted": false, "bcrs": false, "country": null, "category": "confectionery", "labels": "Chocolates and Sweets; Confectionery; Sweets"}, {"product_id": 19720, "product": "Dais Croissants Chocolate 8pk", "salesprice": 2.25, "salespricerrp": 2.71, "sizevalue": 1, "sizeunit": "p", "isWeighted": false, "bcrs": false, "country": null, "category": "confectionery", "labels": "Pastries and Prepacked Cakes; Dais; Croissants; Confectionery"}, {"product_id": 19724, "product": "Mister Free`d Vegan Tortilla Chips Cheese 135g", "salesprice": 2.95, "salespricerrp": 2.99, "sizevalue": 0.14, "sizeunit": "kg", "isWeighted": false, "bcrs": false, "country": null, "category": "confectionery", "labels": "Snacks and Crisps; Crisps Popcorn And other Snacks; Confectionery"}, {"product_id": 19743, "product": "Jouyco Flurries Cocoa 120g", "salesprice": 1.07, "salespricerrp": 1.2, "sizevalue": 0.12, "sizeunit": "kg", "isWeighted": false, "bcrs": false, "country": null, "category": "confectionery", "labels": "Chocolates and Sweets; Confectionery; Sweets"}, {"product_id": 19763, "product": "Pectol Eucalyptus 19.2g", "salesprice": 0.85, "salespricerrp": 0.85, "sizevalue": 0.02, "sizeunit": "kg", "isWeighted": false, "bcrs": false, "country": null, "category": "confectionery", "labels": "Chocolates and Sweets; Confectionery; Pectol; Sweets"}], "page": 1, "currentRecords": 20, "offset": 20, "totalRecords": 100, "totalPages": 4}