{"products": [{"product_id": 19765, "product": "Walkers Quavers Cheese 20.5g", "salesprice": 0.99, "salespricerrp": 1.05, "sizevalue": 0.02, "sizeunit": "kg", "isWeighted": false, "bcrs": false, "country": "United Kingdom", "category": "confectionery", "labels": "Walkers; Snacks and Crisps; Crisps Popcorn And other Snacks; Confectionery"}, {"product_id": 19770, "product": "Dais Croissants Cream 8pk", "salesprice": 2.25, "salespricerrp": 2.71, "sizevalue": 1, "sizeunit": "p", "isWeighted": false, "bcrs": false, "country": null, "category": "confectionery", "labels": "Pastries and Prepacked Cakes; Dais; Croissants; Confectionery"}, {"product_id": 19775, "product": "Lindt Lindor Milk Balls 337g", "salesprice": 10.8, "salespricerrp": 12, "sizevalue": 0.34, "sizeunit": "kg", "isWeighted": false, "bcrs": false, "country": null, "category": "confectionery", "labels": "Chocolates and Sweets; Lindt; Confectionery; Chocolates"}, {"product_id": 19776, "product": "La Molisana Linguine Bronzo N.6, 500g", "salesprice": 1.08, "salespricerrp": 1.65, "sizevalue": 0.5, "sizeunit": "kg", "isWeighted": false, "bcrs": false, "country": null, "category": "confectionery", "labels": "White Pasta; La Molisana; Confectionery; Pasta Rice and Couscous"}, {"product_id": 19780, "product": "Funlab Ice Pop Dippers 30g", "salesprice": 0.98, "salespricerrp": 1.35, "sizevalue": 0.03, "sizeunit": "kg", "isWeighted": false, "bcrs": false, "country": null, "category": "confectionery", "labels": "Chocolates and Sweets; Confectionery; Sweets"}, {"product_id": 19815, "product": "Chupa Chups Lollipops", "salesprice": 0.42, "salespricerrp": 0.42, "sizevalue": 200, "sizeunit": "p", "isWeighted": false, "bcrs": false, "country": null, "category": "confectionery", "labels": "Chocolates and Sweets; Chupa Chups; Confectionery; Sweets"}, {"product_id": 19822, "product": "Cheese & Onion 32.5g", "salesprice": 0.95, "salespricerrp": 0.95, "sizevalue": 0, "sizeunit": null, "isWeighted": false, "bcrs": false, "country": "United Kingdom", "category": "confectionery", "labels": "Snacks and Crisps; Crisps Popcorn And other Snacks; Confectionery"}, {"product_id": 19835, "product": "Elledi Double Wafer Lemon 125g", "salesprice": 1.8, "salespricerrp": 1.89, "sizevalue": 0.13, "sizeunit": "kg", "isWeighted": false, "bcrs": false, "country": "Italia", "category": "confectionery", "labels": "Elledi; Chocolates and Sweets; Confectionery; Wafers"}, {"product_id": 19842, "product": "Valor 70% Dark Chocolate Raspberry 100g", "salesprice": 2.07, "salespricerrp": 2.15, "sizevalue": 0.1, "sizeunit": "kg", "isWeighted": false, "bcrs": false, "country": null, "category": "confectionery", "labels": "Chocolates and Sweets; Confectionery; Chocolates; Valor"}, {"product_id": 19845, "product": "Parfetti Morositas Liquirizia Senza Zucchero", "salesprice": 1.12, "salespricerrp": 1.15, "sizevalue": 1, "sizeunit": "p", "isWeighted": false, "bcrs": false, "country": null, "category": "confectionery", "labels": "Chocolates and Sweets; Confectionery; Sweets"}, {"product_id": 19847, "product": "Gusparo Roll Frutta 200g", "salesprice": 1.54, "salespricerrp": 1.69, "sizevalue": 0.2, "sizeunit": "kg", "isWeighted": false, "bcrs": false, "country": "Italia", "category": "confectionery", "labels": "Chocolates and Sweets; Gusparo; Confectionery; Wafers"}, {"product_id": 19861, "product": "Barilla Fusilli 98 1000g", "salesprice": 2.15, "salespricerrp": 2.55, "sizevalue": 1, "sizeunit": "kg", "isWeighted": false, "bcrs": false, "country": null, "category": "confectionery", "labels": "White Pasta; Barilla; Confectionery; Pasta Rice and Couscous"}, {"product_id": 19863, "product": "Meiji Hazelnut Yan Yan .44g", "salesprice": 1.49, "salespricerrp": 1.75, "sizevalue": 0.04, "sizeunit": "kg", "isWeighted": false, "bcrs": false, "country": null, "category": "confectionery", "labels": "Chocolates and Sweets; Confectionery; Sweets"}, {"product_id": 19870, "product": "Cadbury Twirl 43g", "salesprice": 0.94, "salespricerrp": 1, "sizevalue": 0.04, "sizeunit": "kg", "isWeighted": false, "bcrs": false, "country": null, "category": "confectionery", "labels": "Chocolates and Sweets; Confectionery; Chocolates; Cadbury"}, {"product_id": 19886, "product": "Cadbury Bournville 180g", "salesprice": 3.51, "salespricerrp": 3.75, "sizevalue": 0.18, "sizeunit": "kg", "isWeighted": false, "bcrs": false, "country": "United Kingdom", "category": "confectionery", "labels": "Chocolates and Sweets; Confectionery; Chocolates; Cadbury"}, {"product_id": 19888, "product": "Agnesi Lasagne 500g", "salesprice": 2.34, "salespricerrp": 2.49, "sizevalue": 0.5, "sizeunit": "kg", "isWeighted": false, "bcrs": false, "country": null, "category": "confectionery", "labels": "White Pasta; Confectionery; Pasta Rice and Couscous; Agnesi"}, {"product_id": 19914, "product": "Ritter Butter Biscuit 100g", "salesprice": 1.95, "salespricerrp": 1.95, "sizevalue": 0.1, "sizeunit": "kg", "isWeighted": false, "bcrs": false, "country": null, "category": "confectionery", "labels": "Chocolates and Sweets; Ritter Sport; Confectionery; Chocolates"}, {"product_id": 19922, "product": "Plain Sponge, 20cm", "salesprice": 2.95, "salespricerrp": 2.95, "sizevalue": 1, "sizeunit": "p", "isWeighted": false, "bcrs": false, "country": "Malta", "category": "confectionery", "labels": "Chocolates and Sweets; Confectionery; Sweets"}, {"product_id": 19924, "product": "La Molisana Fettucine 5 500g", "salesprice": 1.08, "salespricerrp": 1.65, "sizevalue": 0.5, "sizeunit": "kg", "isWeighted": false, "bcrs": false, "country": "Italia", "category": "confectionery", "labels": "White Pasta; La Molisana; Confectionery; Pasta Rice and Couscous"}, {"product_id": 19926, "product": "Bebeto Ocean Park 80g", "salesprice": 1.14, "salespricerrp": 1.27, "sizevalue": 0.08, "sizeunit": "kg", "isWeighted": false, "bcrs": false, "country": null, "category": "confectionery", "labels": "Chocolates and Sweets; Confectionery; Sweets"}], "page": 2, "currentRecords": 20, "offset": 40, "totalRecords": 100, "totalPages": 4}