{"products": [{"product_id": 19930, "product": "Pavesi Togo Cioccolato Classico 120g", "salesprice": 2.95, "salespricerrp": 3.5, "sizevalue": 0.12, "sizeunit": "kg", "isWeighted": false, "bcrs": false, "country": "Italia", "category": "confectionery", "labels": "Chocolates and Sweets; Pavesi; Confectionery; Chocolates"}, {"product_id": 19937, "product": "Lol Red Mix Strawberry 110g", "salesprice": 1.58, "salespricerrp": 1.75, "sizevalue": 20, "sizeunit": "p", "isWeighted": false, "bcrs": false, "country": null, "category": "confectionery", "labels": "Chocolates and Sweets; Confectionery; Sweets"}, {"product_id": 19940, "product": "Cavendish & Harvey Mixed Fruit Candies Decorative Jar 966g", "salesprice": 7.53, "salespricerrp": 7.85, "sizevalue": 0.97, "sizeunit": "kg", "isWeighted": false, "bcrs": false, "country": null, "category": "confectionery", "labels": "Chocolates and Sweets; Cavendish & Harvey; Confectionery; Sweets"}, {"product_id": 19946, "product": "Jouyco Chocomallow 150g", "salesprice": 1.45, "salespricerrp": 1.75, "sizevalue": 0.15, "sizeunit": "kg", "isWeighted": false, "bcrs": false, "country": null, "category": "confectionery", "labels": "Chocolates and Sweets; Confectionery; Sweets"}, {"product_id": 19950, "product": "Frit Ravich Wheels 85g", "salesprice": 1.98, "salespricerrp": 2.1, "sizevalue": 0.09, "sizeunit": "kg", "isWeighted": false, "bcrs": false, "country": null, "category": "confectionery", "labels": "Snacks and Crisps; Crisps Popcorn And other Snacks; Confectionery; Frit"}, {"product_id": 19953, "product": "Jannis Hazel Nut Bar 40g", "salesprice": 1.45, "salespricerrp": 1.49, "sizevalue": 0.04, "sizeunit": "kg", "isWeighted": false, "bcrs": false, "country": null, "category": "confectionery", "labels": "Snacks and Crisps; Crisps Popcorn And other Snacks; Confectionery; Jannis"}, {"product_id": 19965, "product": "Cavendish & Harvey Wine Gums 180g", "salesprice": 1.9, "salespricerrp": 1.98, "sizevalue": 0.18, "sizeunit": "kg", "isWeighted": false, "bcrs": false, "country": null, "category": "confectionery", "labels": "Chocolates and Sweets; Cavendish & Harvey; Confectionery; Sweets"}, {"product_id": 19978, "product": "Cote D'or Wholenut 3+1free 4x45g", "salesprice": 3.38, "salespricerrp": 3.6, "sizevalue": 0.05, "sizeunit": "kg", "isWeighted": false, "bcrs": false, "country": null, "category": "confectionery", "labels": "Chocolates and Sweets; Confectionery; Chocolates; Cote D'Or"}, {"product_id": 19987, "product": "Jack Links Beef Jerky Biltong Clipstrip 25g", "salesprice": 2.75, "salespricerrp": 2.89, "sizevalue": 0.03, "sizeunit": "kg", "isWeighted": false, "bcrs": false, "country": null, "category": "confectionery", "labels": "Jack Link'S; Snacks and Crisps; Crisps Popcorn And other Snacks; Confectionery"}, {"product_id": 20004, "product": "Catch Dark Chocolate 50g", "salesprice": 0.72, "salespricerrp": 0.75, "sizevalue": 0.05, "sizeunit": "kg", "isWeighted": false, "bcrs": false, "country": null, "category": "confectionery", "labels": "Chocolates and Sweets; Confectionery; Chocolates"}, {"product_id": 20026, "product": "Cachet Pear & Almonds Chocolate 100g", "salesprice": 2.42, "salespricerrp": 2.49, "sizevalue": 0.1, "sizeunit": "kg", "isWeighted": false, "bcrs": false, "country": null, "category": "confectionery", "labels": "Chocolates and Sweets; Confectionery; Chocolates; Cachet"}, {"product_id": 20043, "product": "Benn Candies Soft 250gr", "salesprice": 1.5, "salespricerrp": 1.85, "sizevalue": 0.25, "sizeunit": "kg", "isWeighted": false, "bcrs": false, "country": null, "category": "confectionery", "labels": "Chocolates and Sweets; Confectionery; Sweets"}, {"product_id": 20044, "product": "Loacker Tortina Original 21g", "salesprice": 0.6, "salespricerrp": 0.6, "sizevalue": 0.02, "sizeunit": "kg", "isWeighted": false, "bcrs": false, "country": null, "category": "confectionery", "labels": "Chocolates and Sweets; Loacker; Confectionery; Wafers"}, {"product_id": 20067, "product": "Muffins Vanilla, X 6", "salesprice": 3.5, "salespricerrp": 3.5, "sizevalue": 1, "sizeunit": "p", "isWeighted": false, "bcrs": false, "country": "Malta", "category": "confectionery", "labels": "Chocolates and Sweets; Confectionery; Sweets"}, {"product_id": 20080, "product": "Pata Neutro Crisps 300g", "salesprice": 4.15, "salespricerrp": 4.39, "sizevalue": 0.3, "sizeunit": "kg", "isWeighted": false, "bcrs": false, "country": "Italia", "category": "confectionery", "labels": "Snacks and Crisps; Crisps Popcorn And other Snacks; Confectionery; Pata"}, {"product_id": 20089, "product": "Rummo Calamarata 500g", "salesprice": 2.18, "salespricerrp": 2.8, "sizevalue": 0.5, "sizeunit": "kg", "isWeighted": false, "bcrs": false, "country": null, "category": "confectionery", "labels": "Rummo; White Pasta; Confectionery; Pasta Rice and Couscous"}, {"product_id": 20100, "product": "De Cecco Polpa Di Pomodoro Corposa 690g", "salesprice": 1.73, "salespricerrp": 1.99, "sizevalue": 0.69, "sizeunit": "kg", "isWeighted": false, "bcrs": false, "country": null, "category": "confectionery", "labels": "De Cecco; White Pasta; Confectionery; Pasta Rice and Couscous"}, {"product_id": 20106, "product": "Pringles Small Hot Paprika  40g", "salesprice": 1.05, "salespricerrp": 1.1, "sizevalue": 0.04, "sizeunit": "kg", "isWeighted": false, "bcrs": false, "country": null, "category": "confectionery", "labels": "Snacks and Crisps; Crisps Popcorn And other Snacks; Confectionery; Pringles"}, {"product_id": 20112, "product": "M&ms Peanut Bag 165g", "salesprice": 3.12, "salespricerrp": 3.19, "sizevalue": 0.17, "sizeunit": "kg", "isWeighted": false, "bcrs": false, "country": null, "category": "confectionery", "labels": "Chocolates and Sweets; M&M'S; Confectionery; Chocolates"}, {"product_id": 20118, "product": "Buitoni Golden Rusks 300g", "salesprice": 2.75, "salespricerrp": 3.25, "sizevalue": 0.3, "sizeunit": "kg", "isWeighted": false, "bcrs": false, "country": null, "category": "confectionery", "labels": "Snacks and Crisps; Crisps Popcorn And other Snacks; Buitoni; Confectionery"}], "page": 3, "currentRecords": 20, "offset": 60, "totalRecords": 100, "totalPages": 4}