{"products": [{"product_id": 20120, "product": "Morato Nuvo Latte Classico X10", "salesprice": 3.1, "salespricerrp": 3.25, "sizevalue": 10, "sizeunit": "p", "isWeighted": false, "bcrs": false, "country": "Italia", "category": "confectionery", "labels": "Merendine; Morato; Confectionery"}, {"product_id": 20124, "product": "Milka Oreo 100g", "salesprice": 1.86, "salespricerrp": 1.99, "sizevalue": 0.1, "sizeunit": "kg", "isWeighted": false, "bcrs": false, "country": null, "category": "confectionery", "labels": "Milka; Chocolates and Sweets; Confectionery; Chocolates"}, {"product_id": 20125, "product": "M&ms Hollow Chocolate Santa 100g", "salesprice": 3.45, "salespricerrp": 3.6, "sizevalue": 0.1, "sizeunit": "kg", "isWeighted": false, "bcrs": false, "country": null, "category": "confectionery", "labels": "Chocolates and Sweets; M&M'S; Confectionery; Chocolates"}, {"product_id": 20133, "product": "Mackie's Tangy Tomato 150g", "salesprice": 2.38, "salespricerrp": 2.44, "sizevalue": 0.15, "sizeunit": "kg", "isWeighted": false, "bcrs": false, "country": null, "category": "confectionery", "labels": "Mackies; Snacks and Crisps; Crisps Popcorn And other Snacks; Confectionery"}, {"product_id": 20144, "product": "Alberto Poiatti Spaghetti 1kg", "salesprice": 1.35, "salespricerrp": 2.37, "sizevalue": 1, "sizeunit": "kg", "isWeighted": false, "bcrs": false, "country": null, "category": "confectionery", "labels": "White Pasta; Confectionery; Pasta Rice and Couscous; Poiatti"}, {"product_id": 20167, "product": "Cachet Blackberry & Ginger Chocolate 100g", "salesprice": 2.42, "salespricerrp": 2.49, "sizevalue": 0.1, "sizeunit": "kg", "isWeighted": false, "bcrs": false, "country": null, "category": "confectionery", "labels": "Chocolates and Sweets; Confectionery; Chocolates; Cachet"}, {"product_id": 20168, "product": "Kuchenmeister Sponge Fruit Flan 200g", "salesprice": 3.2, "salespricerrp": 3.29, "sizevalue": 0.2, "sizeunit": "kg", "isWeighted": false, "bcrs": false, "country": null, "category": "confectionery", "labels": "Pastries and Prepacked Cakes; Kuchen Meister; Cakes; Confectionery"}, {"product_id": 20172, "product": "Cadbury Family Treat Size 222g", "salesprice": 3.74, "salespricerrp": 3.99, "sizevalue": 0.22, "sizeunit": "kg", "isWeighted": false, "bcrs": false, "country": null, "category": "confectionery", "labels": "Chocolates and Sweets; Confectionery; Chocolates; Cadbury"}, {"product_id": 20229, "product": "Lemon Cheesecake 20cm", "salesprice": 22, "salespricerrp": 22, "sizevalue": 1, "sizeunit": "p", "isWeighted": false, "bcrs": false, "country": null, "category": "confectionery", "labels": "Chocolates and Sweets; Confectionery; Sweets"}, {"product_id": 20235, "product": "Valor 70% Dark Chocolate Caramel 100g", "salesprice": 2.07, "salespricerrp": 2.15, "sizevalue": 0.1, "sizeunit": "kg", "isWeighted": false, "bcrs": false, "country": null, "category": "confectionery", "labels": "Chocolates and Sweets; Confectionery; Chocolates; Valor"}, {"product_id": 20238, "product": "Chocolate Cake 24cm", "salesprice": 28, "salespricerrp": 28, "sizevalue": 1, "sizeunit": "p", "isWeighted": false, "bcrs": false, "country": null, "category": "confectionery", "labels": "Chocolates and Sweets; Confectionery; Sweets"}, {"product_id": 20239, "product": "Aunt Mabel's Muffin Carrot 100g", "salesprice": 1.7, "salespricerrp": 1.9, "sizevalue": 0.1, "sizeunit": "kg", "isWeighted": false, "bcrs": false, "country": null, "category": "confectionery", "labels": "Aunt Mabel'S; Confectionery; Muffins"}, {"product_id": 20255, "product": "San Carlo Chips Dore Classico Bar 45g", "salesprice": 1.92, "salespricerrp": 1.99, "sizevalue": 0.05, "sizeunit": "kg", "isWeighted": false, "bcrs": false, "country": null, "category": "confectionery", "labels": "Snacks and Crisps; Crisps Popcorn And other Snacks; Confectionery"}, {"product_id": 20259, "product": "Cavendish & Harvey Tropical Selection Candies - Decorative Jar 300g", "salesprice": 3.36, "salespricerrp": 3.5, "sizevalue": 0.3, "sizeunit": "kg", "isWeighted": false, "bcrs": false, "country": null, "category": "confectionery", "labels": "Chocolates and Sweets; Cavendish & Harvey; Confectionery; Sweets"}, {"product_id": 20261, "product": "Dietorelle Strawberry Gums 70g", "salesprice": 2.66, "salespricerrp": 2.73, "sizevalue": 0.07, "sizeunit": "kg", "isWeighted": false, "bcrs": false, "country": "Italia", "category": "confectionery", "labels": "Chocolates and Sweets; Confectionery; Sweets; Dietorelle"}, {"product_id": 20265, "product": "Hazelnuts & White Chocolate Crunch Gateaux 20cm", "salesprice": 22, "salespricerrp": 22, "sizevalue": 1, "sizeunit": "p", "isWeighted": false, "bcrs": false, "country": null, "category": "confectionery", "labels": "Chocolates and Sweets; Confectionery; Sweets"}, {"product_id": 20271, "product": "Mixed Assorted Sweets", "salesprice": 0.55, "salespricerrp": 0.55, "sizevalue": 1, "sizeunit": "p", "isWeighted": false, "bcrs": false, "country": null, "category": "confectionery", "labels": "Chocolates and Sweets; Confectionery; Sweets"}, {"product_id": 20289, "product": "Haribo Tropi Frutti Pack 200g", "salesprice": 2.05, "salespricerrp": 2.15, "sizevalue": 0.2, "sizeunit": "kg", "isWeighted": false, "bcrs": false, "country": null, "category": "confectionery", "labels": "Chocolates and Sweets; Haribo; Confectionery; Sweets"}, {"product_id": 20295, "product": "Cofresh Hummus Chips Sea Salt 135g", "salesprice": 2.49, "salespricerrp": 2.55, "sizevalue": 0.14, "sizeunit": "kg", "isWeighted": false, "bcrs": false, "country": null, "category": "confectionery", "labels": "Cofresh; Snacks and Crisps; Crisps Popcorn And other Snacks; Confectionery"}, {"product_id": 20306, "product": "Ritter Chopped Hazelnuts 100g", "salesprice": 1.95, "salespricerrp": 1.95, "sizevalue": 0.1, "sizeunit": "kg", "isWeighted": false, "bcrs": false, "country": null, "category": "confectionery", "labels": "Chocolates and Sweets; Ritter Sport; Confectionery; Chocolates"}], "page": 4, "currentRecords": 20, "offset": 80, "totalRecords": 100, "totalPages": 4}