{"products": [{"product_id": 20610, "product": "Nettuno Mussel Meat 500g", "salesprice": 4.91, "salespricerrp": 4.95, "sizevalue": 0.5, "sizeunit": "kg", "isWeighted": false, "bcrs": false, "country": null, "category": "fish", "labels": "Frozen Fish; Fish"}, {"product_id": 20636, "product": "Tuna With Herbs - Gourmet", "salesprice": 19, "salespricerrp": 19, "sizevalue": 1, "sizeunit": "kg", "isWeighted": true, "bcrs": false, "country": "Malta", "category": "fish", "labels": "Fish; Fresh Fish; Refrigerated; Gourmet Fish"}, {"product_id": 20675, "product": "Homemade Smoked Salmon - Fish", "salesprice": 36.5, "salespricerrp": 36.5, "sizevalue": 1, "sizeunit": "kg", "isWeighted": true, "bcrs": false, "country": "Norway", "category": "fish", "labels": "Fish; Fresh Fish; Refrigerated; Gourmet Fish"}, {"product_id": 20678, "product": "Frosta Bocconcini Di Merluzzo 280g", "salesprice": 4.96, "salespricerrp": 4.99, "sizevalue": 0.28, "sizeunit": "kg", "isWeighted": false, "bcrs": false, "country": null, "category": "fish", "labels": "Frozen Fish; Fish; Frosta"}, {"product_id": 20682, "product": "Findus Merluzzo Grigliato Pomodoro 250g", "salesprice": 5.99, "salespricerrp": 6.5, "sizevalue": 0.25, "sizeunit": "kg", "isWeighted": false, "bcrs": false, "country": null, "category": "fish", "labels": "Frozen Fish; Fish; Findus"}, {"product_id": 20757, "product": "Thai Tapas Prawn Gyoza 1kg", "salesprice": 17.8, "salespricerrp": 19, "sizevalue": 1, "sizeunit": "kg", "isWeighted": false, "bcrs": false, "country": null, "category": "fish", "labels": "Frozen Fish; Fish"}, {"product_id": 20759, "product": "Vongole Sgusciate Precotte Congelate 250gr", "salesprice": 3.99, "salespricerrp": 5, "sizevalue": 0.25, "sizeunit": "kg", "isWeighted": false, "bcrs": false, "country": null, "category": "fish", "labels": "Frozen Fish; Fish"}, {"product_id": 20771, "product": "Salmon Carpaccio Sashimi  - Fish", "salesprice": 30, "salespricerrp": 30, "sizevalue": 1, "sizeunit": "kg", "isWeighted": true, "bcrs": false, "country": "Malta", "category": "fish", "labels": "Fish; Fresh Fish; Refrigerated; Gourmet Fish"}, {"product_id": 20831, "product": "Arbi Ragu Di Polpo 220g", "salesprice": 5.89, "salespricerrp": 5.99, "sizevalue": 0.22, "sizeunit": "kg", "isWeighted": false, "bcrs": false, "country": null, "category": "fish", "labels": "Frozen Fish; Fish; Arbi"}, {"product_id": 20850, "product": "Sushi Roll Platter Set A", "salesprice": 7.5, "salespricerrp": 7.5, "sizevalue": 1, "sizeunit": "p", "isWeighted": false, "bcrs": false, "country": null, "category": "fish", "labels": "Fish; Fresh Fish; Refrigerated; Gourmet Fish"}, {"product_id": 20889, "product": "Gallina -gurnard(local) (gourmet)", "salesprice": 29, "salespricerrp": 29, "sizevalue": 1, "sizeunit": "kg", "isWeighted": true, "bcrs": false, "country": "Malta", "category": "fish", "labels": "Fish; Fresh Fish; Refrigerated; Gourmet Fish"}, {"product_id": 20958, "product": "Tuna Belly", "salesprice": 5.5, "salespricerrp": 5.5, "sizevalue": 1, "sizeunit": "kg", "isWeighted": true, "bcrs": false, "country": "Malta", "category": "fish", "labels": "Fish; Fresh Fish; Refrigerated; Local Fresh Fish"}, {"product_id": 21047, "product": "Findus Crispy Cod Fillet 360g", "salesprice": 7.99, "salespricerrp": 8.49, "sizevalue": 0.36, "sizeunit": "kg", "isWeighted": false, "bcrs": false, "country": null, "category": "fish", "labels": "Frozen Fish; Fish; Findus"}, {"product_id": 21124, "product": "Frosta Croccanti Agli Spinaci 220g", "salesprice": 3.99, "salespricerrp": 4.73, "sizevalue": 0.22, "sizeunit": "kg", "isWeighted": false, "bcrs": false, "country": null, "category": "fish", "labels": "Frozen Fish; Fish; Frosta"}, {"product_id": 21137, "product": "Mussels Fish", "salesprice": 5.5, "salespricerrp": 5.5, "sizevalue": 1, "sizeunit": "kg", "isWeighted": true, "bcrs": false, "country": null, "category": "fish", "labels": "Shellfish; Fish; Fresh Fish; Refrigerated"}, {"product_id": 21193, "product": "Donegal Catch Battered Cod Fillets 400g", "salesprice": 11.75, "salespricerrp": 11.99, "sizevalue": 0.4, "sizeunit": "kg", "isWeighted": false, "bcrs": false, "country": null, "category": "fish", "labels": "Frozen Fish; Fish; Donegal Catch"}, {"product_id": 21225, "product": "Gurbell-meagre  ( Local ) - Fish", "salesprice": 12, "salespricerrp": 12, "sizevalue": 1, "sizeunit": "kg", "isWeighted": true, "bcrs": false, "country": "Malta", "category": "fish", "labels": "Fish; Fresh Fish; Refrigerated; Local Fresh Fish"}, {"product_id": 21254, "product": "Frozen Cooked Squid Tentacles 1kg", "salesprice": 10.9, "salespricerrp": 11.51, "sizevalue": 0, "sizeunit": null, "isWeighted": false, "bcrs": false, "country": null, "category": "fish", "labels": "Frozen Fish; Fish"}, {"product_id": 21307, "product": "Frozen Fish Burgers", "salesprice": 4.9, "salespricerrp": 4.9, "sizevalue": 1, "sizeunit": "kg", "isWeighted": true, "bcrs": false, "country": "Malta", "category": "fish", "labels": "Fish; Fresh Fish; Breaded Fish; Refrigerated"}, {"product_id": 21373, "product": "Highland Harvest Smoked Salmon, 200g", "salesprice": 9.79, "salespricerrp": 9.99, "sizevalue": 0.2, "sizeunit": "kg", "isWeighted": false, "bcrs": false, "country": null, "category": "fish", "labels": "Frozen Fish; Fish; High Harvest"}], "page": 1, "currentRecords": 20, "offset": 20, "totalRecords": 100, "totalPages": 4}