{"products": [{"product_id": 21379, "product": "Salmon Sweet Chilli &  Lime & Corriander - Fish", "salesprice": 22, "salespricerrp": 22, "sizevalue": 1, "sizeunit": "kg", "isWeighted": true, "bcrs": false, "country": "Malta", "category": "fish", "labels": "Fish; Fresh Fish; Refrigerated; Gourmet Fish"}, {"product_id": 21499, "product": "Findus Croccole 2pcs 216g", "salesprice": 7.95, "salespricerrp": 9.32, "sizevalue": 0.22, "sizeunit": "kg", "isWeighted": false, "bcrs": false, "country": null, "category": "fish", "labels": "Frozen Fish; Fish; Findus"}, {"product_id": 21520, "product": "Cippulazza ( Scorpion Fish ) ( Local ) - Fish", "salesprice": 26, "salespricerrp": 26, "sizevalue": 1, "sizeunit": "kg", "isWeighted": true, "bcrs": false, "country": "Malta", "category": "fish", "labels": "Fish; Fresh Fish; Refrigerated; Local Fresh Fish"}, {"product_id": 21808, "product": "Vici Salmon Steaks 2x125g", "salesprice": 8.9, "salespricerrp": 8.98, "sizevalue": 2, "sizeunit": "p", "isWeighted": false, "bcrs": false, "country": null, "category": "fish", "labels": "Vici; Frozen Fish; Fish"}, {"product_id": 21831, "product": "La Ciurma Filetti Di Meluzzo 640g", "salesprice": 6.99, "salespricerrp": 8, "sizevalue": 0.64, "sizeunit": "kg", "isWeighted": false, "bcrs": false, "country": null, "category": "fish", "labels": "Frozen Fish; Fish; La Ciurma"}, {"product_id": 21841, "product": "Findus Croccole Con Omega 3pcs 200g", "salesprice": 7.95, "salespricerrp": 9.32, "sizevalue": 0.2, "sizeunit": "kg", "isWeighted": false, "bcrs": false, "country": null, "category": "fish", "labels": "Frozen Fish; Fish; Findus"}, {"product_id": 21910, "product": "Frosta Bastoncini Salmone 10 X 300g", "salesprice": 6.82, "salespricerrp": 7.5, "sizevalue": 0.3, "sizeunit": "kg", "isWeighted": false, "bcrs": false, "country": null, "category": "fish", "labels": "Frozen Fish; Fish; Frosta"}, {"product_id": 21925, "product": "Frozen Neonati", "salesprice": 16, "salespricerrp": 16, "sizevalue": 1, "sizeunit": "kg", "isWeighted": true, "bcrs": false, "country": "China", "category": "fish", "labels": "Frozen Fish; Fish; Refrigerated"}, {"product_id": 21977, "product": "Sushi Mix Platter Set F", "salesprice": 8.5, "salespricerrp": 8.5, "sizevalue": 1, "sizeunit": "p", "isWeighted": false, "bcrs": false, "country": null, "category": "fish", "labels": "Fish; Fresh Fish; Refrigerated; Gourmet Fish"}, {"product_id": 22005, "product": "Nettuno Superior Seafood 500g", "salesprice": 6.29, "salespricerrp": 6.45, "sizevalue": 0.5, "sizeunit": "kg", "isWeighted": false, "bcrs": false, "country": null, "category": "fish", "labels": "Frozen Fish; Fish"}, {"product_id": 22033, "product": "Xxl Giant Prawns", "salesprice": 41.95, "salespricerrp": 41.95, "sizevalue": 1, "sizeunit": "kg", "isWeighted": true, "bcrs": false, "country": null, "category": "fish", "labels": "Shellfish; Fish; Fresh Fish; Refrigerated"}, {"product_id": 22098, "product": "Natural Cool Organic Mangos 300g", "salesprice": 4.95, "salespricerrp": 5.16, "sizevalue": 0.3, "sizeunit": "kg", "isWeighted": false, "bcrs": false, "country": null, "category": "fish", "labels": "Frozen Fish; Fish"}, {"product_id": 22117, "product": "Donegal Catching 2 Xl Battered Fish Fillets 300g", "salesprice": 5.94, "salespricerrp": 5.99, "sizevalue": 0.3, "sizeunit": "kg", "isWeighted": false, "bcrs": false, "country": null, "category": "fish", "labels": "Frozen Fish; Fish; Donegal Catch"}, {"product_id": 22155, "product": "La Ciurma Shrimps 500g", "salesprice": 9.52, "salespricerrp": 9.69, "sizevalue": 0.5, "sizeunit": "kg", "isWeighted": false, "bcrs": false, "country": null, "category": "fish", "labels": "Frozen Fish; Fish; La Ciurma"}, {"product_id": 22269, "product": "Bird's Eye 4 Fish Fillets In Batter 400g", "salesprice": 6.65, "salespricerrp": 7.38, "sizevalue": 0.4, "sizeunit": "kg", "isWeighted": false, "bcrs": false, "country": null, "category": "fish", "labels": "Frozen Fish; Fish; Bird'S Eye"}, {"product_id": 22284, "product": "Youngs  Flipper Dippers 250g", "salesprice": 3.35, "salespricerrp": 3.49, "sizevalue": 0.25, "sizeunit": "kg", "isWeighted": false, "bcrs": false, "country": null, "category": "fish", "labels": "Frozen Fish; Fish; Youngs"}, {"product_id": 22413, "product": "Genepesca Tentazione Cozze 300g", "salesprice": 4.95, "salespricerrp": 4.98, "sizevalue": 0.3, "sizeunit": "kg", "isWeighted": false, "bcrs": false, "country": null, "category": "fish", "labels": "Frozen Fish; Fish"}, {"product_id": 22444, "product": "Donregal Catch Fish Nuggets 250g", "salesprice": 4.68, "salespricerrp": 4.99, "sizevalue": 0.25, "sizeunit": "kg", "isWeighted": false, "bcrs": false, "country": null, "category": "fish", "labels": "Frozen Fish; Fish; Donegal Catch"}, {"product_id": 22476, "product": "Findus Fish & Crispy Fillet 480g", "salesprice": 7.79, "salespricerrp": 7.99, "sizevalue": 0.48, "sizeunit": "kg", "isWeighted": false, "bcrs": false, "country": null, "category": "fish", "labels": "Frozen Fish; Fish; Findus"}, {"product_id": 22489, "product": "Natural Cool Organic Blueberries 300g", "salesprice": 5.24, "salespricerrp": 5.46, "sizevalue": 0.3, "sizeunit": "kg", "isWeighted": false, "bcrs": false, "country": null, "category": "fish", "labels": "Frozen Fish; Fish"}], "page": 2, "currentRecords": 20, "offset": 40, "totalRecords": 100, "totalPages": 4}