{"products": [{"product_id": 22535, "product": "Arbi Condiscoglio Pomodoro 450g", "salesprice": 5.89, "salespricerrp": 5.99, "sizevalue": 0.45, "sizeunit": "kg", "isWeighted": false, "bcrs": false, "country": null, "category": "fish", "labels": "Frozen Fish; Fish; Arbi"}, {"product_id": 22568, "product": "Dott Steak-wreckfish ( Local ) - Fish", "salesprice": 29.95, "salespricerrp": 29.95, "sizevalue": 1, "sizeunit": "kg", "isWeighted": true, "bcrs": false, "country": "Malta", "category": "fish", "labels": "Fish; Fresh Fish; Refrigerated; Local Fresh Fish"}, {"product_id": 22635, "product": "Lobster (local) - Fish", "salesprice": 39, "salespricerrp": 39, "sizevalue": 1, "sizeunit": "kg", "isWeighted": true, "bcrs": false, "country": null, "category": "fish", "labels": "Shellfish; Fish; Fresh Fish; Refrigerated"}, {"product_id": 22747, "product": "Condipresto Frozen Ready Made Mixed Seafood Sauce 450g", "salesprice": 5.19, "salespricerrp": 5.99, "sizevalue": 0.45, "sizeunit": "kg", "isWeighted": false, "bcrs": false, "country": null, "category": "fish", "labels": "Frozen Fish; Fish; Condipresto"}, {"product_id": 22784, "product": "King Prawns Rossi 03 ( Local ) - Fish", "salesprice": 48.5, "salespricerrp": 48.5, "sizevalue": 1, "sizeunit": "kg", "isWeighted": true, "bcrs": false, "country": null, "category": "fish", "labels": "Frozen Fish; Fish; Refrigerated"}, {"product_id": 22806, "product": "Seafood Mix", "salesprice": 8.95, "salespricerrp": 8.95, "sizevalue": 1, "sizeunit": "kg", "isWeighted": true, "bcrs": false, "country": "Malta", "category": "fish", "labels": "Frozen Fish; Fish; Refrigerated"}, {"product_id": 22823, "product": "Findus Nuggets Di Merluzzo D'alaska 245g", "salesprice": 5.89, "salespricerrp": 6.36, "sizevalue": 0.25, "sizeunit": "kg", "isWeighted": false, "bcrs": false, "country": null, "category": "fish", "labels": "Frozen Fish; Fish; Findus"}, {"product_id": 23111, "product": "Findus Filetti Di Merluzzo 360g", "salesprice": 8.99, "salespricerrp": 10.57, "sizevalue": 0.36, "sizeunit": "kg", "isWeighted": false, "bcrs": false, "country": null, "category": "fish", "labels": "Frozen Fish; Fish; Findus"}, {"product_id": 23115, "product": "Findus Merluzzo Gratin.sz Gluti 380g", "salesprice": 7.99, "salespricerrp": 8.45, "sizevalue": 0.38, "sizeunit": "kg", "isWeighted": false, "bcrs": false, "country": null, "category": "fish", "labels": "Frozen Fish; Fish; Findus"}, {"product_id": 23127, "product": "Pagell -pandora  (red Snapper) - Fish", "salesprice": 14.95, "salespricerrp": 14.95, "sizevalue": 1, "sizeunit": "kg", "isWeighted": true, "bcrs": false, "country": "Greece", "category": "fish", "labels": "Fish; Fresh Fish; Refrigerated; Foreign Fresh Fish"}, {"product_id": 23199, "product": "Pork Spring Roll X12", "salesprice": 3.95, "salespricerrp": 3.95, "sizevalue": 1, "sizeunit": "p", "isWeighted": false, "bcrs": false, "country": null, "category": "fish", "labels": "Fish; Fresh Fish; Refrigerated; Gourmet Fish"}, {"product_id": 23262, "product": "Youngs 10 Omega 3 Fish Finger 250g", "salesprice": 3.55, "salespricerrp": 3.69, "sizevalue": 0.25, "sizeunit": "kg", "isWeighted": false, "bcrs": false, "country": null, "category": "fish", "labels": "Frozen Fish; Fish; Youngs"}, {"product_id": 23290, "product": "Arbi Condivongola 450g", "salesprice": 6.35, "salespricerrp": 6.49, "sizevalue": 0.45, "sizeunit": "kg", "isWeighted": false, "bcrs": false, "country": null, "category": "fish", "labels": "Frozen Fish; Fish; Arbi"}, {"product_id": 23332, "product": "Homemade Smoked Acciola", "salesprice": 37.75, "salespricerrp": 37.75, "sizevalue": 1, "sizeunit": "p", "isWeighted": true, "bcrs": false, "country": null, "category": "fish", "labels": "Fish; Fresh Fish; Refrigerated; Gourmet Fish"}, {"product_id": 23360, "product": "Findus Croustibat Fish Fingers 12 Pack 360g", "salesprice": 5.75, "salespricerrp": 5.99, "sizevalue": 0.36, "sizeunit": "kg", "isWeighted": false, "bcrs": false, "country": null, "category": "fish", "labels": "Frozen Fish; Fish; Findus"}, {"product_id": 23415, "product": "Vici Breaded Maxi Shrimps 300g", "salesprice": 3.95, "salespricerrp": 4.22, "sizevalue": 0.3, "sizeunit": "kg", "isWeighted": false, "bcrs": false, "country": null, "category": "fish", "labels": "Vici; Frozen Fish; Fish"}, {"product_id": 23441, "product": "Cuttle Fish(sicc) With Herbs", "salesprice": 19.95, "salespricerrp": 19.95, "sizevalue": 1, "sizeunit": "kg", "isWeighted": true, "bcrs": false, "country": "Malta", "category": "fish", "labels": "Fish; Fresh Fish; Refrigerated; Gourmet Fish"}, {"product_id": 23464, "product": "Fidagel Calamari 10/15 500g", "salesprice": 8.99, "salespricerrp": 10.79, "sizevalue": 0.5, "sizeunit": "kg", "isWeighted": false, "bcrs": false, "country": null, "category": "fish", "labels": "Frozen Fish; Fish"}, {"product_id": 23585, "product": "Planets Pride Vannamei Shrimp 750g", "salesprice": 13.12, "salespricerrp": 14.75, "sizevalue": 0.75, "sizeunit": "kg", "isWeighted": false, "bcrs": false, "country": null, "category": "fish", "labels": "Frozen Fish; Fish"}, {"product_id": 23637, "product": "Salmon Nigiri (g)", "salesprice": 5.95, "salespricerrp": 5.95, "sizevalue": 1, "sizeunit": "kg", "isWeighted": false, "bcrs": false, "country": null, "category": "fish", "labels": "Fish; Ready Made Fish; Fresh Fish; Refrigerated"}], "page": 3, "currentRecords": 20, "offset": 60, "totalRecords": 100, "totalPages": 4}