{"products": [{"product_id": 23766, "product": "Seabass (spnotta) With Herbs- Gourmet", "salesprice": 10.95, "salespricerrp": 10.95, "sizevalue": 1, "sizeunit": "kg", "isWeighted": true, "bcrs": false, "country": null, "category": "fish", "labels": "Fish; Fresh Fish; Refrigerated; Gourmet Fish"}, {"product_id": 23871, "product": "Planets Pride Octupus Baby 800g", "salesprice": 13.63, "salespricerrp": 15.4, "sizevalue": 0.8, "sizeunit": "kg", "isWeighted": false, "bcrs": false, "country": null, "category": "fish", "labels": "Frozen Fish; Fish"}, {"product_id": 23909, "product": "Norlax Smoked Salmon 200g", "salesprice": 9.99, "salespricerrp": 10.96, "sizevalue": 0.2, "sizeunit": "kg", "isWeighted": false, "bcrs": false, "country": null, "category": "fish", "labels": "Frozen Fish; Fish; Norlax"}, {"product_id": 23965, "product": "Mare Pronto The Fish Burger Tonno 170gr", "salesprice": 4.99, "salespricerrp": 5.82, "sizevalue": 0.17, "sizeunit": "kg", "isWeighted": false, "bcrs": false, "country": null, "category": "fish", "labels": "Frozen Fish; Fish"}, {"product_id": 23991, "product": "Tragni-weaver", "salesprice": 19.95, "salespricerrp": 19.95, "sizevalue": 1, "sizeunit": "kg", "isWeighted": true, "bcrs": false, "country": "Malta", "category": "fish", "labels": "Fish; Fresh Fish; Refrigerated; Local Fresh Fish"}, {"product_id": 23992, "product": "Kirkland Signature Tempura Shrimp 30 Ct 1.07kg", "salesprice": 31.34, "salespricerrp": 35, "sizevalue": 1.07, "sizeunit": "kg", "isWeighted": false, "bcrs": false, "country": null, "category": "fish", "labels": "Frozen Fish; Fish; Kirkland"}, {"product_id": 24061, "product": "Ittitalia Ocean Catch Fish Fingers 300g", "salesprice": 2.89, "salespricerrp": 3.09, "sizevalue": 0.3, "sizeunit": "kg", "isWeighted": false, "bcrs": false, "country": null, "category": "fish", "labels": "Frozen Fish; Fish; Ittitalia"}, {"product_id": 24165, "product": "Findus Fish Fingers 14pcs 350g", "salesprice": 4.86, "salespricerrp": 4.99, "sizevalue": 0.35, "sizeunit": "kg", "isWeighted": false, "bcrs": false, "country": null, "category": "fish", "labels": "Frozen Fish; Fish; Findus"}, {"product_id": 24196, "product": "Youngs 4 Battered Cod Fillet 440g", "salesprice": 9.79, "salespricerrp": 9.99, "sizevalue": 0.44, "sizeunit": "kg", "isWeighted": false, "bcrs": false, "country": null, "category": "fish", "labels": "Frozen Fish; Fish; Youngs"}, {"product_id": 24201, "product": "Wiva Mare Sugo A/vongole Mare 350g", "salesprice": 4.99, "salespricerrp": 6, "sizevalue": 0.35, "sizeunit": "kg", "isWeighted": false, "bcrs": false, "country": null, "category": "fish", "labels": "Frozen Fish; Fish"}, {"product_id": 24282, "product": "Planets Pride Bao Buns Folded Black 990g 22pcs", "salesprice": 15.22, "salespricerrp": 17, "sizevalue": 0.99, "sizeunit": "kg", "isWeighted": false, "bcrs": false, "country": null, "category": "fish", "labels": "Frozen Fish; Fish"}, {"product_id": 24440, "product": "Youngs 4 Battered Fish Fillet 400g", "salesprice": 6.99, "salespricerrp": 7.25, "sizevalue": 0.4, "sizeunit": "kg", "isWeighted": false, "bcrs": false, "country": null, "category": "fish", "labels": "Frozen Fish; Fish; Youngs"}, {"product_id": 24553, "product": "Donegal Catach Cider Batterd Haddock 270g", "salesprice": 6.75, "salespricerrp": 6.99, "sizevalue": 0.27, "sizeunit": "kg", "isWeighted": false, "bcrs": false, "country": null, "category": "fish", "labels": "Frozen Fish; Fish; Donegal Catch"}, {"product_id": 24598, "product": "Smoked Erringi", "salesprice": 14.45, "salespricerrp": 14.45, "sizevalue": 1, "sizeunit": "kg", "isWeighted": true, "bcrs": false, "country": "Malta", "category": "fish", "labels": "Fish; Ready Made Fish; Fresh Fish; Refrigerated"}, {"product_id": 24750, "product": "Wakame Salad - Fish", "salesprice": 25, "salespricerrp": 25, "sizevalue": 1, "sizeunit": "kg", "isWeighted": true, "bcrs": false, "country": "Malta", "category": "fish", "labels": "Fish; Fresh Fish; Refrigerated; Gourmet Fish"}, {"product_id": 24751, "product": "Rizzi", "salesprice": 19.5, "salespricerrp": 19.5, "sizevalue": 1, "sizeunit": "p", "isWeighted": false, "bcrs": false, "country": "Malta", "category": "fish", "labels": "Shellfish; Fish; Fresh Fish; Refrigerated"}, {"product_id": 24824, "product": "Sushi Mix Platter Set B", "salesprice": 8.5, "salespricerrp": 8.5, "sizevalue": 1, "sizeunit": "p", "isWeighted": false, "bcrs": false, "country": null, "category": "fish", "labels": "Fish; Fresh Fish; Refrigerated; Gourmet Fish"}, {"product_id": 24893, "product": "Klaas Puul Seafood Mix 500g", "salesprice": 5.52, "salespricerrp": 5.85, "sizevalue": 0.5, "sizeunit": "kg", "isWeighted": false, "bcrs": false, "country": null, "category": "fish", "labels": "Frozen Fish; Fish; Kolios"}, {"product_id": 25028, "product": "Wiva Mare Condipresto Pronto Scoglio Pomodoro", "salesprice": 4.99, "salespricerrp": 6, "sizevalue": 1, "sizeunit": "p", "isWeighted": false, "bcrs": false, "country": null, "category": "fish", "labels": "Frozen Fish; Fish"}, {"product_id": 25044, "product": "Mare Pronto The Fish Burger Salmone 170gr", "salesprice": 5.99, "salespricerrp": 7.5, "sizevalue": 0.17, "sizeunit": "kg", "isWeighted": false, "bcrs": false, "country": null, "category": "fish", "labels": "Frozen Fish; Fish"}], "page": 4, "currentRecords": 20, "offset": 80, "totalRecords": 100, "totalPages": 4}